數邏設計/verilogDesign/hw3_6/simulation/qsim/CONCATENATION.msim.vcd
$comment
	File created using the following command:
		vcd file CONCATENATION.msim.vcd -direction
$end
$date
	Mon Mar 10 15:10:50 2025
$end
$version
	ModelSim Version 10.1d
$end
$timescale
	1ps
$end
$scope module CONCATENATION_vlg_vec_tst $end
$var reg 8 ! A [7:0] $end
$var reg 8 " HIGH_BYTE [7:0] $end
$var reg 8 # LOW_BYTE [7:0] $end
$var wire 1 $ HIGH_NIBBLE [3] $end
$var wire 1 % HIGH_NIBBLE [2] $end
$var wire 1 & HIGH_NIBBLE [1] $end
$var wire 1 ' HIGH_NIBBLE [0] $end
$var wire 1 ( LEFT [7] $end
$var wire 1 ) LEFT [6] $end
$var wire 1 * LEFT [5] $end
$var wire 1 + LEFT [4] $end
$var wire 1 , LEFT [3] $end
$var wire 1 - LEFT [2] $end
$var wire 1 . LEFT [1] $end
$var wire 1 / LEFT [0] $end
$var wire 1 0 LOW_BIBBLE [3] $end
$var wire 1 1 LOW_BIBBLE [2] $end
$var wire 1 2 LOW_BIBBLE [1] $end
$var wire 1 3 LOW_BIBBLE [0] $end
$var wire 1 4 RIGHT [7] $end
$var wire 1 5 RIGHT [6] $end
$var wire 1 6 RIGHT [5] $end
$var wire 1 7 RIGHT [4] $end
$var wire 1 8 RIGHT [3] $end
$var wire 1 9 RIGHT [2] $end
$var wire 1 : RIGHT [1] $end
$var wire 1 ; RIGHT [0] $end
$var wire 1 < SWAP [7] $end
$var wire 1 = SWAP [6] $end
$var wire 1 > SWAP [5] $end
$var wire 1 ? SWAP [4] $end
$var wire 1 @ SWAP [3] $end
$var wire 1 A SWAP [2] $end
$var wire 1 B SWAP [1] $end
$var wire 1 C SWAP [0] $end
$var wire 1 D WORD [15] $end
$var wire 1 E WORD [14] $end
$var wire 1 F WORD [13] $end
$var wire 1 G WORD [12] $end
$var wire 1 H WORD [11] $end
$var wire 1 I WORD [10] $end
$var wire 1 J WORD [9] $end
$var wire 1 K WORD [8] $end
$var wire 1 L WORD [7] $end
$var wire 1 M WORD [6] $end
$var wire 1 N WORD [5] $end
$var wire 1 O WORD [4] $end
$var wire 1 P WORD [3] $end
$var wire 1 Q WORD [2] $end
$var wire 1 R WORD [1] $end
$var wire 1 S WORD [0] $end
$var wire 1 T sampler $end
$scope module i1 $end
$var wire 1 U gnd $end
$var wire 1 V vcc $end
$var wire 1 W unknown $end
$var tri1 1 X devclrn $end
$var tri1 1 Y devpor $end
$var tri1 1 Z devoe $end
$var wire 1 [ SWAP[0]~output_o $end
$var wire 1 \ SWAP[1]~output_o $end
$var wire 1 ] SWAP[2]~output_o $end
$var wire 1 ^ SWAP[3]~output_o $end
$var wire 1 _ SWAP[4]~output_o $end
$var wire 1 ` SWAP[5]~output_o $end
$var wire 1 a SWAP[6]~output_o $end
$var wire 1 b SWAP[7]~output_o $end
$var wire 1 c LEFT[0]~output_o $end
$var wire 1 d LEFT[1]~output_o $end
$var wire 1 e LEFT[2]~output_o $end
$var wire 1 f LEFT[3]~output_o $end
$var wire 1 g LEFT[4]~output_o $end
$var wire 1 h LEFT[5]~output_o $end
$var wire 1 i LEFT[6]~output_o $end
$var wire 1 j LEFT[7]~output_o $end
$var wire 1 k RIGHT[0]~output_o $end
$var wire 1 l RIGHT[1]~output_o $end
$var wire 1 m RIGHT[2]~output_o $end
$var wire 1 n RIGHT[3]~output_o $end
$var wire 1 o RIGHT[4]~output_o $end
$var wire 1 p RIGHT[5]~output_o $end
$var wire 1 q RIGHT[6]~output_o $end
$var wire 1 r RIGHT[7]~output_o $end
$var wire 1 s HIGH_NIBBLE[0]~output_o $end
$var wire 1 t HIGH_NIBBLE[1]~output_o $end
$var wire 1 u HIGH_NIBBLE[2]~output_o $end
$var wire 1 v HIGH_NIBBLE[3]~output_o $end
$var wire 1 w LOW_BIBBLE[0]~output_o $end
$var wire 1 x LOW_BIBBLE[1]~output_o $end
$var wire 1 y LOW_BIBBLE[2]~output_o $end
$var wire 1 z LOW_BIBBLE[3]~output_o $end
$var wire 1 { WORD[0]~output_o $end
$var wire 1 | WORD[1]~output_o $end
$var wire 1 } WORD[2]~output_o $end
$var wire 1 ~ WORD[3]~output_o $end
$var wire 1 !! WORD[4]~output_o $end
$var wire 1 "! WORD[5]~output_o $end
$var wire 1 #! WORD[6]~output_o $end
$var wire 1 $! WORD[7]~output_o $end
$var wire 1 %! WORD[8]~output_o $end
$var wire 1 &! WORD[9]~output_o $end
$var wire 1 '! WORD[10]~output_o $end
$var wire 1 (! WORD[11]~output_o $end
$var wire 1 )! WORD[12]~output_o $end
$var wire 1 *! WORD[13]~output_o $end
$var wire 1 +! WORD[14]~output_o $end
$var wire 1 ,! WORD[15]~output_o $end
$var wire 1 -! A[7]~input_o $end
$var wire 1 .! A[6]~input_o $end
$var wire 1 /! A[5]~input_o $end
$var wire 1 0! A[4]~input_o $end
$var wire 1 1! A[3]~input_o $end
$var wire 1 2! A[2]~input_o $end
$var wire 1 3! A[1]~input_o $end
$var wire 1 4! A[0]~input_o $end
$var wire 1 5! HIGH_BYTE[4]~input_o $end
$var wire 1 6! HIGH_BYTE[5]~input_o $end
$var wire 1 7! HIGH_BYTE[6]~input_o $end
$var wire 1 8! HIGH_BYTE[7]~input_o $end
$var wire 1 9! LOW_BYTE[0]~input_o $end
$var wire 1 :! LOW_BYTE[1]~input_o $end
$var wire 1 ;! LOW_BYTE[2]~input_o $end
$var wire 1 <! LOW_BYTE[3]~input_o $end
$var wire 1 =! LOW_BYTE[4]~input_o $end
$var wire 1 >! LOW_BYTE[5]~input_o $end
$var wire 1 ?! LOW_BYTE[6]~input_o $end
$var wire 1 @! LOW_BYTE[7]~input_o $end
$var wire 1 A! HIGH_BYTE[0]~input_o $end
$var wire 1 B! HIGH_BYTE[1]~input_o $end
$var wire 1 C! HIGH_BYTE[2]~input_o $end
$var wire 1 D! HIGH_BYTE[3]~input_o $end
$upscope $end
$upscope $end
$enddefinitions $end
#0
$dumpvars
b10111111 !
b10100101 "
b10011010 #
0'
1&
0%
1$
1/
1.
1-
1,
1+
1*
1)
0(
03
02
01
00
1;
1:
19
18
17
06
15
14
1C
0B
1A
1@
1?
1>
1=
1<
0S
1R
0Q
1P
1O
0N
0M
1L
1K
0J
1I
0H
0G
1F
0E
1D
xT
0U
1V
xW
1X
1Y
1Z
1[
0\
1]
1^
1_
1`
1a
1b
1c
1d
1e
1f
1g
1h
1i
0j
1k
1l
1m
1n
1o
0p
1q
1r
0s
1t
0u
1v
0w
0x
0y
0z
0{
1|
0}
1~
1!!
0"!
0#!
1$!
1%!
0&!
1'!
0(!
0)!
1*!
0+!
1,!
1-!
0.!
1/!
10!
11!
12!
13!
14!
05!
16!
07!
18!
09!
1:!
0;!
1<!
1=!
0>!
0?!
1@!
1A!
0B!
1C!
0D!
$end
#10000
b10011111 !
b10011011 !
b10011010 !
b100101 "
b1100101 "
b1110101 "
b1110100 "
b10111010 #
b10110010 #
0T
0<!
1>!
0A!
15!
17!
08!
04!
02!
0/!
0~
1"!
0%!
1)!
1s
1+!
1u
0,!
0v
0r
0d
0b
0l
0f
0`
0o
0i
0]
0P
1N
0K
1G
1'
1E
1%
0D
0$
04
0.
0<
0:
0,
0>
07
0)
0A
#20000
b10010010 !
b10010000 !
b1110000 "
b1110010 "
b110010 #
b100010 #
b100110 #
b100111 #
b11110010 "
b11100010 "
b111 #
1T
19!
1;!
0=!
0>!
0@!
1B!
0C!
05!
18!
03!
01!
1{
1}
0!!
0"!
0$!
1&!
0'!
0)!
0s
1,!
1v
0k
0e
0a
0m
0g
0_
1S
1Q
0O
0N
0L
1J
0I
0G
0'
1D
1$
0;
0-
0=
09
0+
0?
#30000
b11010000 !
b11000010 "
b11001010 "
b11010001 !
b11001011 "
b11011001 !
b11011011 !
b10111 #
b10110 #
0T
09!
1=!
1A!
1D!
06!
14!
13!
11!
1.!
0{
1!!
1%!
1(!
0*!
0t
1r
1d
1b
1k
1e
1a
1m
1g
1_
1p
1j
1\
0S
1O
1K
1H
0F
0&
14
1.
1<
1;
1-
1=
19
1+
1?
16
1(
1B
#40000
b1011011 !
b10100 #
b10001011 "
b11100 #
b10001111 "
b10001101 "
b10011100 #
b10011000 #
b11011 !
b10101101 "
b10100101 "
b10100100 "
b11001 !
b10011001 #
1T
0A!
0B!
1C!
0D!
16!
07!
19!
0:!
0;!
1<!
1@!
03!
0.!
0-!
0%!
0&!
1'!
0(!
1*!
1t
0+!
0u
1{
0|
0}
1~
1$!
0k
0e
0a
0p
0j
0\
0q
0c
0[
0K
0J
1I
0H
1F
1&
0E
0%
1S
0R
0Q
1P
1L
0;
0-
0=
06
0(
0B
05
0/
0C
#50000
b11011001 #
b11101 !
b11100 !
b10011100 !
b11011011 #
b11100100 "
b11010011 #
b11010111 #
b11011100 !
b11100101 "
0T
1A!
17!
04!
12!
1.!
1-!
1:!
1;!
0<!
1?!
1%!
1+!
1u
0r
0d
0b
1l
1f
1`
1p
1j
1\
1q
1c
1[
1|
1}
0~
1#!
1K
1E
1%
04
0.
0<
1:
1,
1>
16
1(
1B
15
1/
1C
1R
1Q
0P
1M
#60000
b11110111 #
b11010100 !
b11100001 "
b11100011 "
b1110111 #
b11010110 !
b11010010 !
b1010010 !
b1110101 #
b10100011 "
b1111101 #
b10010 !
b10100010 "
1T
0A!
1B!
0C!
07!
13!
02!
01!
0.!
0-!
0:!
1<!
1>!
0@!
0%!
1&!
0'!
0+!
0u
1k
1e
1a
0l
0f
0`
0m
0g
0_
0p
0j
0\
0q
0c
0[
0|
1~
1"!
0$!
0K
1J
0I
0E
0%
1;
1-
1=
0:
0,
0>
09
0+
0?
06
0(
0B
05
0/
0C
0R
1P
1N
0L
#70000
b110010 !
b1101101 #
b10000010 "
b1101100 #
b110011 !
b1101000 #
b10000000 "
b11101000 #
b110001 !
b110101 !
0T
0B!
06!
09!
0;!
0=!
1@!
14!
03!
12!
1/!
0&!
0*!
0t
0{
0}
0!!
1$!
1r
1d
1b
0k
0e
0a
1l
1f
1`
1o
1i
1]
0J
0F
0&
0S
0Q
0O
1L
14
1.
1<
0;
0-
0=
1:
1,
1>
17
1)
1A
#80000
b100101 !
b0 "
b10000 "
b11001000 #
b10100 "
b101 !
b110100 "
b100 !
b110110 "
b1001000 #
1T
0>!
0@!
1B!
1C!
15!
16!
08!
04!
00!
0/!
0"!
0$!
1&!
1'!
1)!
1s
1*!
1t
0,!
0v
0r
0d
0b
0n
0h
0^
0o
0i
0]
0N
0L
1J
1I
1G
1'
1F
1&
0D
0$
04
0.
0<
08
0*
0@
07
0)
0A
#90000
b1000000 #
b1000100 !
b110111 "
b1000001 #
b1000101 #
b1000110 !
b1010110 !
b10110111 "
b1110110 !
b10010111 "
b10010101 "
b11000101 #
0T
1A!
0B!
06!
18!
13!
10!
1/!
1.!
19!
1;!
0<!
1@!
1%!
0&!
0*!
0t
1,!
1v
1k
1e
1a
1n
1h
1^
1o
1i
1]
1p
1j
1\
1{
1}
0~
1$!
1K
0J
0F
0&
1D
1$
1;
1-
1=
18
1*
1@
17
1)
1A
16
1(
1B
1S
1Q
0P
1L
#100000
b10011101 "
b10000101 #
b10000111 #
b11011101 "
b1110010 !
b11001101 "
b11001100 "
b10000011 #
b1110000 !
b1010000 !
b11101100 "
1T
03!
02!
0/!
1:!
0;!
0?!
0A!
1D!
05!
16!
17!
0k
0e
0a
0l
0f
0`
0o
0i
0]
1|
0}
0#!
0%!
1(!
0)!
0s
1*!
1t
1+!
1u
0;
0-
0=
0:
0,
0>
07
0)
0A
1R
0Q
0M
0K
1H
0G
0'
1F
1&
1E
1%
#110000
b11010000 !
b11101000 "
b11010001 !
b10001011 #
b10010001 !
b10000001 !
b11101010 "
b10000101 !
b11101011 "
b10000111 !
0T
1<!
1A!
1B!
0C!
14!
13!
12!
00!
0.!
1-!
1~
1%!
1&!
0'!
1r
1d
1b
1k
1e
1a
1l
1f
1`
0n
0h
0^
0p
0j
0\
1q
1c
1[
1P
1K
1J
0I
14
1.
1<
1;
1-
1=
1:
1,
1>
08
0*
0@
06
0(
0B
15
1/
1C
#120000
b10001111 !
b10011011 #
b10011010 #
b1101011 "
b10011000 #
b1111011 "
b1011011 "
b1111 !
b1011001 "
b1011 !
b1001 !
1T
0B!
15!
06!
08!
09!
0:!
1=!
03!
02!
11!
0-!
0&!
1)!
1s
0*!
0t
0,!
0v
0{
0|
1!!
0k
0e
0a
0l
0f
0`
1m
1g
1_
0q
0c
0[
0J
1G
1'
0F
0&
0D
0$
0S
0R
1O
0;
0-
0=
0:
0,
0>
19
1+
1?
05
0/
0C
#130000
b10111000 #
b11001 "
b1000 !
b11000 !
b11000 "
b10000 !
b10010000 !
b11010 "
b10010100 !
b10010110 !
0T
04!
13!
12!
01!
10!
1-!
0A!
1B!
07!
1>!
0r
0d
0b
1k
1e
1a
1l
1f
1`
0m
0g
0_
1n
1h
1^
1q
1c
1[
0%!
1&!
0+!
0u
1"!
04
0.
0<
1;
1-
1=
1:
1,
1>
09
0+
0?
18
1*
1@
15
1/
1C
0K
1J
0E
0%
1N
#140000
b10010 "
b10110 "
b10110000 #
b10100000 #
b10100001 #
b10010110 "
b10000110 "
b11000110 "
b11000100 "
b10010100 !
1T
03!
19!
0<!
0=!
0B!
1C!
0D!
05!
17!
18!
0k
0e
0a
1{
0~
0!!
0&!
1'!
0(!
0)!
0s
1+!
1u
1,!
1v
0;
0-
0=
1S
0P
0O
0J
1I
0H
0G
0'
1E
1%
1D
1$
#150000
b11100001 #
b10110100 !
b11110100 !
b11100100 "
b11110101 !
b11100101 !
b11100101 "
b11100001 "
b11101001 #
b11111001 #
b1100001 "
b1110001 "
0T
1A!
0C!
15!
16!
08!
14!
00!
1/!
1.!
1<!
1=!
1?!
1%!
0'!
1)!
1s
1*!
1t
0,!
0v
1r
1d
1b
0n
0h
0^
1o
1i
1]
1p
1j
1\
1~
1!!
1#!
1K
0I
1G
1'
1F
1&
0D
0$
14
1.
1<
08
0*
0@
17
1)
1A
16
1(
1B
1P
1O
1M
#160000
b1111001 #
b1111011 #
b1011011 #
b1100101 !
b110001 "
b110011 "
b1100111 !
b11011 #
b10011 "
b1100110 !
b1110110 !
b10010 "
b10110 "
b1011 #
1T
0A!
1B!
1C!
06!
07!
04!
13!
10!
0-!
1:!
0=!
0>!
0?!
0@!
0%!
1&!
1'!
0*!
0t
0+!
0u
0r
0d
0b
1k
1e
1a
1n
1h
1^
0q
0c
0[
1|
0!!
0"!
0#!
0$!
0K
1J
1I
0F
0&
0E
0%
04
0.
0<
1;
1-
1=
18
1*
1@
05
0/
0C
1R
0O
0N
0M
0L
#170000
b1110010 !
b11110 "
b1010 #
b1010010 !
b10011110 "
b10001110 "
b10001010 #
b10001100 "
b11001010 #
b1010011 !
b11011010 #
0T
09!
1=!
1?!
1@!
0B!
1D!
05!
18!
14!
02!
0/!
0{
1!!
1#!
1$!
0&!
1(!
0)!
0s
1,!
1v
1r
1d
1b
0l
0f
0`
0o
0i
0]
0S
1O
1M
1L
0J
1H
0G
0'
1D
1$
14
1.
1<
0:
0,
0>
07
0)
0A
#180000
b11011110 #
b10011 !
b11010110 #
b11010100 #
b11 !
b10001000 "
b111 !
b10010100 #
b110 !
1T
0C!
04!
12!
00!
0.!
0:!
1;!
0<!
0?!
0'!
0r
0d
0b
1l
1f
1`
0n
0h
0^
0p
0j
0\
0|
1}
0~
0#!
0I
04
0.
0<
1:
1,
1>
08
0*
0@
06
0(
0B
0R
1Q
0P
0M
#190000
b10000110 !
b10000100 !
b10000000 "
b10100 #
b10000 #
b10010 #
b10010100 !
b10000100 "
b10010000 !
b1010010 #
0T
1:!
0;!
1?!
0@!
1C!
0D!
03!
02!
10!
1-!
1|
0}
1#!
0$!
1'!
0(!
0k
0e
0a
0l
0f
0`
1n
1h
1^
1q
1c
1[
1R
0Q
1M
0L
1I
0H
0;
0-
0=
0:
0,
0>
18
1*
1@
15
1/
1C
#200000
b10011000 !
b1110010 #
b10100100 "
b1110011 #
b10111000 !
b100100 "
b110100 "
b1100011 #
b11111000 !
b1101011 #
b11111001 !
b11101011 #
b11101111 #
b11101001 !
b110000 "
b11101101 !
1T
0C!
15!
16!
08!
19!
1;!
1<!
0=!
1>!
1@!
14!
12!
11!
00!
1/!
1.!
0'!
1)!
1s
1*!
1t
0,!
0v
1{
1}
1~
0!!
1"!
1$!
1r
1d
1b
1l
1f
1`
1m
1g
1_
0n
0h
0^
1o
1i
1]
1p
1j
1\
0I
1G
1'
1F
1&
0D
0$
1S
1Q
1P
0O
1N
1L
14
1.
1<
1:
1,
1>
19
1+
1?
08
0*
0@
17
1)
1A
16
1(
1B
#210000
b110001 "
b11101111 !
b111001 "
b11101101 #
b11001101 #
b11001 "
b11001100 #
b11001111 !
b10011001 "
b10001001 "
b11011111 !
b10001101 "
0T
09!
0:!
0>!
13!
10!
0/!
1A!
1C!
1D!
05!
06!
18!
0{
0|
0"!
1k
1e
1a
1n
1h
1^
0o
0i
0]
1%!
1'!
1(!
0)!
0s
0*!
0t
1,!
1v
0S
0R
0N
1;
1-
1=
18
1*
1@
07
0)
0A
1K
1I
1H
0G
0'
0F
0&
1D
1$
#220000
b10001111 "
b1011111 !
b10001100 #
b1010111 !
b10111 !
b10001000 #
b10001110 "
b10001010 #
b110111 !
b1110 "
b11110 "
b11010 "
1T
1:!
0;!
0?!
01!
1/!
0.!
0-!
0A!
1B!
0C!
15!
08!
1|
0}
0#!
0m
0g
0_
1o
1i
1]
0p
0j
0\
0q
0c
0[
0%!
1&!
0'!
1)!
1s
0,!
0v
1R
0Q
0M
09
0+
0?
17
1)
1A
06
0(
0B
05
0/
0C
0K
1J
0I
1G
1'
0D
0$
#230000
b10011010 #
b10010010 #
b110110 !
b10010 #
b110010 !
b110000 !
b10010 "
b10011 #
b100000 !
b10000 "
b10100000 !
b1010011 #
b10101000 !
b11101000 !
b1010111 #
b1010101 #
b11001000 !
b10010000 "
b10000000 "
0T
0B!
0D!
05!
18!
04!
03!
02!
11!
00!
0/!
1.!
1-!
19!
0:!
1;!
0<!
1=!
1?!
0@!
0&!
0(!
0)!
0s
1,!
1v
0r
0d
0b
0k
0e
0a
0l
0f
0`
1m
1g
1_
0n
0h
0^
0o
0i
0]
1p
1j
1\
1q
1c
1[
1{
0|
1}
0~
1!!
1#!
0$!
0J
0H
0G
0'
1D
1$
04
0.
0<
0;
0-
0=
0:
0,
0>
19
1+
1?
08
0*
0@
07
0)
0A
16
1(
1B
15
1/
1C
1S
0R
1Q
0P
1O
1M
0L
#240000
b11000000 "
b1000101 #
b1001101 #
b11001010 !
b1001100 #
b11000010 "
b1100 #
b10001010 !
b11010010 "
1T
13!
0.!
09!
1<!
0=!
0?!
1B!
15!
17!
1k
1e
1a
0p
0j
0\
0{
1~
0!!
0#!
1&!
1)!
1s
1+!
1u
1;
1-
1=
06
0(
0B
0S
1P
0O
0M
1J
1G
1'
1E
1%
#250000
b101100 #
b11110010 "
b11110011 "
b11110111 "
b10101100 #
b1010 !
b10101000 #
b10101010 #
b10111010 #
b10110010 #
b1000 !
b10110011 #
b11110101 "
b11100101 "
0T
03!
0-!
1A!
0B!
1C!
05!
16!
19!
1:!
0;!
0<!
1=!
1>!
1@!
0k
0e
0a
0q
0c
0[
1%!
0&!
1'!
0)!
0s
1*!
1t
1{
1|
0}
0~
1!!
1"!
1$!
0;
0-
0=
05
0/
0C
1K
0J
1I
0G
0'
1F
1&
1S
1R
0Q
0P
1O
1N
1L
#260000
b11000 !
b111000 !
b11100100 "
b11100000 "
b10111000 !
b10110001 #
b10111001 #
b11110000 "
1T
0:!
1<!
0A!
0C!
15!
10!
1/!
1-!
0|
1~
0%!
0'!
1)!
1s
1n
1h
1^
1o
1i
1]
1q
1c
1[
0R
1P
0K
0I
1G
1'
18
1*
1@
17
1)
1A
15
1/
1C
#270000
b10111001 !
b11111000 "
b1111000 "
b111000 "
b11111001 #
b11011001 #
b1011001 #
b1001001 #
b111010 "
b10101001 !
b10001001 !
b1001 !
b1001011 #
b101010 "
0T
1:!
0=!
0>!
1?!
0@!
1B!
1D!
05!
07!
08!
14!
00!
0/!
0-!
1|
0!!
0"!
1#!
0$!
1&!
1(!
0)!
0s
0+!
0u
0,!
0v
1r
1d
1b
0n
0h
0^
0o
0i
0]
0q
0c
0[
1R
0O
0N
1M
0L
1J
1H
0G
0'
0E
0%
0D
0$
14
1.
1<
08
0*
0@
07
0)
0A
05
0/
0C
#280000
b1010 "
b1001111 #
b1110 "
b1000111 #
b1000 !
b1100111 #
b1110111 #
b1100 "
1T
04!
1;!
0<!
1=!
1>!
0B!
1C!
06!
0r
0d
0b
1}
0~
1!!
1"!
0&!
1'!
0*!
0t
04
0.
0<
1Q
0P
1O
1N
0J
1I
0F
0&
#290000
b0 !
b1110110 #
b1101 "
b10001101 "
b110110 #
b10110110 #
b10110100 #
b10011101 "
b10010100 #
b10000100 #
b10011111 "
0T
1A!
1B!
15!
18!
09!
0:!
0=!
0>!
0?!
1@!
01!
1%!
1&!
1)!
1s
1,!
1v
0{
0|
0!!
0"!
0#!
1$!
0m
0g
0_
1K
1J
1G
1'
1D
1$
0S
0R
0O
0N
0M
1L
09
0+
0?
#300000
b100 !
b110 !
b10010111 "
b100110 !
b10001100 #
b100111 !
b101111 !
b10010110 "
b11001100 #
b1001100 #
b1001110 #
b10000110 "
b1011110 #
b10000100 "
1T
1:!
1<!
1=!
1?!
0@!
0A!
0B!
0D!
05!
14!
13!
12!
11!
1/!
1|
1~
1!!
1#!
0$!
0%!
0&!
0(!
0)!
0s
1r
1d
1b
1k
1e
1a
1l
1f
1`
1m
1g
1_
1o
1i
1]
1R
1P
1O
1M
0L
0K
0J
0H
0G
0'
14
1.
1<
1;
1-
1=
1:
1,
1>
19
1+
1?
17
1)
1A
#310000
b11000100 "
b11000000 "
b1011111 #
b1111111 #
b101101 !
b1101 !
b1110111 #
b1100 !
b110111 #
b10110111 #
b10100111 #
0T
04!
03!
0/!
19!
0<!
0=!
1>!
0?!
1@!
0C!
17!
0r
0d
0b
0k
0e
0a
0o
0i
0]
1{
0~
0!!
1"!
0#!
1$!
0'!
1+!
1u
04
0.
0<
0;
0-
0=
07
0)
0A
1S
0P
0O
1N
0M
1L
0I
1E
1%
#320000
b1001100 !
b1011100 !
b11100000 "
b11101000 "
b10100101 #
b11101010 "
b10101010 "
b10101110 "
b10100100 #
b10000100 #
b10001100 #
b1011101 !
1T
09!
0:!
1<!
0>!
1B!
1C!
1D!
16!
07!
14!
10!
1.!
0{
0|
1~
0"!
1&!
1'!
1(!
1*!
1t
0+!
0u
1r
1d
1b
1n
1h
1^
1p
1j
1\
0S
0R
1P
0N
1J
1I
1H
1F
1&
0E
0%
14
1.
1<
18
1*
1@
16
1(
1B
#330000
b11011101 !
b10001000 #
b11010101 !
b10101111 "
b11110101 !
b10011000 #
b10001111 "
b10001101 "
b11001101 "
b10111000 #
0T
1A!
0B!
06!
17!
0;!
1=!
1>!
01!
1/!
1-!
1%!
0&!
0*!
0t
1+!
1u
0}
1!!
1"!
0m
0g
0_
1o
1i
1]
1q
1c
1[
1K
0J
0F
0&
1E
1%
0Q
1O
1N
09
0+
0?
17
1)
1A
15
1/
1C
#340000
b1001101 "
b11110001 !
b1011101 "
b111000 #
b111001 #
b111101 #
b11111001 !
b101101 #
b1011111 "
b11111 "
1T
19!
1;!
0=!
0@!
02!
11!
1B!
15!
07!
08!
1{
1}
0!!
0$!
0l
0f
0`
1m
1g
1_
1&!
1)!
1s
0+!
0u
0,!
0v
1S
1Q
0O
0L
0:
0,
0>
19
1+
1?
1J
1G
1'
0E
0%
0D
0$
#350000
b11111011 !
b10111 "
b101111 #
b100111 #
b11111010 !
b10110 "
b11011010 !
b10010110 "
b100110 #
b110110 #
b10010100 "
b11010100 "
0T
09!
1:!
0<!
1=!
0A!
0B!
0D!
17!
18!
04!
13!
0/!
0{
1|
0~
1!!
0%!
0&!
0(!
1+!
1u
1,!
1v
0r
0d
0b
1k
1e
1a
0o
0i
0]
0S
1R
0P
1O
0K
0J
0H
1E
1%
1D
1$
04
0.
0<
1;
1-
1=
07
0)
0A
#360000
b1011010 !
b1011110 !
b11000100 "
b11001100 "
b111110 #
b11001101 "
b1001101 "
b111111 #
b1001111 "
b1111 "
1T
19!
1<!
1A!
1B!
1D!
05!
07!
08!
12!
0-!
1{
1~
1%!
1&!
1(!
0)!
0s
0+!
0u
0,!
0v
1l
1f
1`
0q
0c
0[
1S
1P
1K
1J
1H
0G
0'
0E
0%
0D
0$
1:
1,
1>
05
0/
0C
#370000
b1111111 #
b11110 !
b1110 !
b1011 "
b1111011 #
b1100 !
b1101 !
b101101 !
b1101011 #
b10101101 !
b11 "
b1100011 #
b10 "
b10000010 "
b11000010 "
0T
0A!
0C!
0D!
17!
18!
14!
03!
00!
1/!
0.!
1-!
0;!
0<!
0=!
1?!
0%!
0'!
0(!
1+!
1u
1,!
1v
1r
1d
1b
0k
0e
0a
0n
0h
0^
1o
1i
1]
0p
0j
0\
1q
1c
1[
0}
0~
0!!
1#!
0K
0I
0H
1E
1%
1D
1$
14
1.
1<
0;
0-
0=
08
0*
0@
17
1)
1A
06
0(
0B
15
1/
1C
0Q
0P
0O
1M
#380000
b11100010 "
b11100011 #
b10100101 !
b10100001 !
b11110010 "
b11100010 #
b11100001 !
b11100110 #
b11100011 !
b11000011 !
b1000011 !
b11111010 "
b11111011 "
1T
13!
02!
01!
0/!
1.!
0-!
09!
1;!
1@!
1A!
1D!
15!
16!
1k
1e
1a
0l
0f
0`
0m
0g
0_
0o
0i
0]
1p
1j
1\
0q
0c
0[
0{
1}
1$!
1%!
1(!
1)!
1s
1*!
1t
1;
1-
1=
0:
0,
0>
09
0+
0?
07
0)
0A
16
1(
1B
05
0/
0C
0S
1Q
1L
1K
1H
1G
1'
1F
1&
#390000
b11000110 #
b11000100 #
b11111001 "
b10000100 #
b1010011 !
b11111101 "
b10010100 #
b10011100 #
b1111101 "
b111101 "
b11101 "
b11100 #
b1011011 !
b1011111 !
b1101 "
b11101 #
b1111111 !
b101 "
0T
12!
11!
10!
1/!
0B!
1C!
0D!
05!
06!
07!
08!
19!
0:!
1<!
1=!
0>!
0?!
0@!
1l
1f
1`
1m
1g
1_
1n
1h
1^
1o
1i
1]
0&!
1'!
0(!
0)!
0s
0*!
0t
0+!
0u
0,!
0v
1{
0|
1~
1!!
0"!
0#!
0$!
1:
1,
1>
19
1+
1?
18
1*
1@
17
1)
1A
0J
1I
0H
0G
0'
0F
0&
0E
0%
0D
0$
1S
0R
1P
1O
0N
0M
0L
#400000
b111111 !
b111101 #
b1111101 #
b101111 !
b1000101 "
b100111 !
b100011 !
1T
17!
1>!
1?!
02!
01!
00!
0.!
1+!
1u
1"!
1#!
0l
0f
0`
0m
0g
0_
0n
0h
0^
0p
0j
0\
1E
1%
1N
1M
0:
0,
0>
09
0+
0?
08
0*
0@
06
0(
0B
#410000
b100001 !
b1111111 #
b1000001 "
b1101111 #
b1100111 #
b1 !
b1001001 "
b1000001 !
b1000111 #
b111 #
b1001001 !
0T
0C!
1D!
1:!
0<!
0=!
0>!
0?!
03!
11!
0/!
1.!
0'!
1(!
1|
0~
0!!
0"!
0#!
0k
0e
0a
1m
1g
1_
0o
0i
0]
1p
1j
1\
0I
1H
1R
0P
0O
0N
0M
0;
0-
0=
19
1+
1?
07
0)
0A
16
1(
1B
#420000
b11001001 !
b1101001 "
b101001 "
b1111 #
b11101001 !
b11100001 !
1T
1<!
16!
07!
01!
1/!
1-!
1~
1*!
1t
0+!
0u
0m
0g
0_
1o
1i
1]
1q
1c
1[
1P
1F
1&
0E
0%
09
0+
0?
17
1)
1A
15
1/
1C
#430000
b10101001 "
b10001111 #
b10111001 "
b11110001 !
b10001101 #
b10110001 !
b110001 !
b10000101 #
b10001 !
b11001 !
0T
11!
10!
0/!
0.!
0-!
0:!
0<!
1@!
15!
18!
1m
1g
1_
1n
1h
1^
0o
0i
0]
0p
0j
0\
0q
0c
0[
0|
0~
1$!
1)!
1s
1,!
1v
19
1+
1?
18
1*
1@
07
0)
0A
06
0(
0B
05
0/
0C
0R
0P
1L
1G
1'
1D
1$
#440000
b10111000 "
b10111010 "
b11011 !
b10010101 #
b10110101 #
b11110101 #
b10011010 "
b1011 !
b10001011 !
b11111101 #
b10101011 !
b10100011 !
1T
1<!
1=!
1>!
1?!
13!
01!
00!
1/!
1-!
0A!
1B!
06!
1~
1!!
1"!
1#!
1k
1e
1a
0m
0g
0_
0n
0h
0^
1o
1i
1]
1q
1c
1[
0%!
1&!
0*!
0t
1P
1O
1N
1M
1;
1-
1=
09
0+
0?
08
0*
0@
17
1)
1A
15
1/
1C
0K
1J
0F
0&
#450000
b11111100 #
b10010010 "
b11010010 "
b1010010 "
b1111100 #
b1010011 "
b1101100 #
b1110011 "
b100011 !
b1100100 #
b11 !
0T
0/!
0-!
1A!
0D!
16!
17!
08!
09!
0<!
0=!
0@!
0o
0i
0]
0q
0c
0[
1%!
0(!
1*!
1t
1+!
1u
0,!
0v
0{
0~
0!!
0$!
07
0)
0A
05
0/
0C
1K
0H
1F
1&
1E
1%
0D
0$
0S
0P
0O
0L
#460000
b10 !
b110 !
b1110111 "
b1100111 "
b100 !
b1000100 #
b10100 !
b11100 !
b1000101 #
b11000101 #
b1100110 "
b11001101 #
1T
19!
1<!
0>!
1@!
0A!
1C!
05!
04!
03!
12!
11!
10!
1{
1~
0"!
1$!
0%!
1'!
0)!
0s
0r
0d
0b
0k
0e
0a
1l
1f
1`
1m
1g
1_
1n
1h
1^
1S
1P
0N
1L
0K
1I
0G
0'
04
0.
0<
0;
0-
0=
1:
1,
1>
19
1+
1?
18
1*
1@
