數邏設計/verilogDesign/hw6_5/simulation/qsim/COUNTER.msim.vcd
$comment
	File created using the following command:
		vcd file COUNTER.msim.vcd -direction
$end
$date
	Mon Mar 31 14:38:25 2025
$end
$version
	ModelSim Version 10.1d
$end
$timescale
	1ps
$end
$scope module COUNTER_vlg_vec_tst $end
$var reg 1 ! CLK $end
$var reg 1 " RESET $end
$var wire 1 # Q [3] $end
$var wire 1 $ Q [2] $end
$var wire 1 % Q [1] $end
$var wire 1 & Q [0] $end
$var wire 1 ' sampler $end
$scope module i1 $end
$var wire 1 ( gnd $end
$var wire 1 ) vcc $end
$var wire 1 * unknown $end
$var tri1 1 + devclrn $end
$var tri1 1 , devpor $end
$var tri1 1 - devoe $end
$var wire 1 . Q[0]~output_o $end
$var wire 1 / Q[1]~output_o $end
$var wire 1 0 Q[2]~output_o $end
$var wire 1 1 Q[3]~output_o $end
$var wire 1 2 CLK~input_o $end
$var wire 1 3 Q[0]~2_combout $end
$var wire 1 4 RESET~input_o $end
$var wire 1 5 Q[0]~reg0_q $end
$var wire 1 6 Add0~0_combout $end
$var wire 1 7 Q[2]~reg0_q $end
$var wire 1 8 Q~1_combout $end
$var wire 1 9 Q[3]~reg0_q $end
$var wire 1 : Q~0_combout $end
$var wire 1 ; Q[1]~reg0_q $end
$upscope $end
$upscope $end
$enddefinitions $end
#0
$dumpvars
0!
1"
0&
0%
0$
0#
x'
0(
1)
x*
1+
1,
1-
0.
0/
00
01
02
13
14
05
06
07
08
09
0:
0;
$end
#5000
1!
12
0'
15
1:
03
1.
1&
#20000
0!
02
1'
#35000
1!
12
0'
1;
05
13
1/
0.
1%
0&
#40000
0!
02
1'
#55000
1!
12
0'
15
0:
16
03
1.
1&
#60000
0!
02
1'
#65000
1!
12
0'
0;
17
05
13
0/
10
0.
0%
1$
0&
#85000
0!
02
1'
#90000
1!
12
0'
15
1:
03
1.
1&
#105000
0!
02
1'
#110000
1!
12
0'
1;
05
13
1/
0.
1%
0&
#115000
0!
02
1'
#120000
1!
12
0'
15
0:
18
06
03
1.
1&
#125000
0!
02
1'
#135000
1!
12
0'
0;
19
07
05
13
0/
11
00
0.
0%
1#
0$
0&
#140000
0!
02
1'
#160000
1!
12
0'
15
08
03
1.
1&
#170000
0!
02
1'
#175000
1!
12
0'
09
05
13
01
0.
0#
0&
#185000
0!
02
1'
#190000
1!
12
0'
15
1:
03
1.
1&
#195000
0!
02
1'
#200000
1!
12
0'
1;
05
13
1/
0.
1%
0&
#205000
0!
02
1'
#220000
1!
12
0'
15
0:
16
03
1.
1&
#225000
0!
02
1'
#245000
1!
12
0'
0;
17
05
13
0/
10
0.
0%
1$
0&
#250000
0!
02
1'
#255000
1!
12
0'
15
1:
03
1.
1&
#265000
0!
02
1'
#275000
1!
12
0'
1;
05
13
1/
0.
1%
0&
#285000
0!
02
1'
#295000
1!
12
0'
15
0:
18
06
03
1.
1&
#300000
0!
02
1'
#305000
1!
12
0'
0;
19
07
05
13
0/
11
00
0.
0%
1#
0$
0&
#310000
0!
02
1'
#320000
1!
12
0'
15
08
03
1.
1&
#325000
0!
02
1'
#340000
1!
12
0'
09
05
13
01
0.
0#
0&
#355000
0!
02
1'
#360000
1!
12
0'
15
1:
03
1.
1&
#375000
0!
02
1'
#390000
1!
12
0'
1;
05
13
1/
0.
1%
0&
#395000
0!
02
1'
#410000
1!
12
0'
15
0:
16
03
1.
1&
#420000
0!
02
1'
#425000
1!
12
0'
0;
17
05
13
0/
10
0.
0%
1$
0&
#440000
0!
02
1'
#450000
1!
12
0'
15
1:
03
1.
1&
#455000
0!
02
1'
#465000
1!
12
0'
1;
05
13
1/
0.
1%
0&
#470000
0!
02
1'
#475000
1!
12
0'
15
0:
18
06
03
1.
1&
#480000
0!
02
1'
#495000
1!
12
0'
0;
19
07
05
13
0/
11
00
0.
0%
1#
0$
0&
#505000
0!
02
1'
#530000
1!
12
0'
15
08
03
1.
1&
#540000
0!
02
1'
#550000
1!
12
0'
09
05
13
01
0.
0#
0&
#560000
0!
02
1'
#565000
1!
12
0'
15
1:
03
1.
1&
#590000
0!
02
1'
#610000
1!
12
0'
1;
05
13
1/
0.
1%
0&
#615000
0!
02
1'
#625000
1!
12
0'
15
0:
16
03
1.
1&
#630000
0!
02
1'
#650000
1!
12
0'
0;
17
05
13
0/
10
0.
0%
1$
0&
#655000
0!
02
1'
#660000
1!
12
0'
15
1:
03
1.
1&
#680000
0!
02
1'
#700000
1!
12
0'
1;
05
13
1/
0.
1%
0&
#705000
0!
02
1'
#720000
1!
12
0'
15
0:
18
06
03
1.
1&
#725000
0!
02
1'
#750000
1!
12
0'
0;
19
07
05
13
0/
11
00
0.
0%
1#
0$
0&
#755000
0!
02
1'
#760000
1!
12
0'
15
08
03
1.
1&
#765000
0!
02
1'
#785000
1!
12
0'
09
05
13
01
0.
0#
0&
#790000
0!
02
1'
#820000
1!
12
0'
15
1:
03
1.
1&
#835000
0!
02
1'
#840000
1!
12
0'
1;
05
13
1/
0.
1%
0&
#845000
0!
02
1'
#850000
1!
12
0'
15
0:
16
03
1.
1&
#865000
0!
02
1'
#870000
1!
12
0'
0;
17
05
13
0/
10
0.
0%
1$
0&
#880000
0!
02
1'
#895000
1!
12
0'
15
1:
03
1.
1&
#910000
0!
02
1'
#915000
1!
12
0'
1;
05
13
1/
0.
1%
0&
#930000
0!
02
1'
#940000
1!
12
0'
15
0:
18
06
03
1.
1&
#945000
0!
02
1'
#950000
1!
12
0'
0;
19
07
05
13
0/
11
00
0.
0%
1#
0$
0&
#960000
0!
02
1'
#965000
1!
12
0'
15
08
03
1.
1&
#990000
0!
02
1'
