數邏設計/verilogDesign/hw6_2/simulation/qsim/DECODER2_4.msim.vcd
$comment
	File created using the following command:
		vcd file DECODER2_4.msim.vcd -direction
$end
$date
	Mon Mar 31 13:33:44 2025
$end
$version
	ModelSim Version 10.1d
$end
$timescale
	1ps
$end
$scope module DECODER2_4_vlg_vec_tst $end
$var reg 1 ! A $end
$var reg 1 " B $end
$var wire 1 # Y [3] $end
$var wire 1 $ Y [2] $end
$var wire 1 % Y [1] $end
$var wire 1 & Y [0] $end
$var wire 1 ' sampler $end
$scope module i1 $end
$var wire 1 ( gnd $end
$var wire 1 ) vcc $end
$var wire 1 * unknown $end
$var tri1 1 + devclrn $end
$var tri1 1 , devpor $end
$var tri1 1 - devoe $end
$var wire 1 . Y[0]~output_o $end
$var wire 1 / Y[1]~output_o $end
$var wire 1 0 Y[2]~output_o $end
$var wire 1 1 Y[3]~output_o $end
$var wire 1 2 A~input_o $end
$var wire 1 3 B~input_o $end
$var wire 1 4 Decoder0~0_combout $end
$var wire 1 5 Decoder0~1_combout $end
$var wire 1 6 Decoder0~2_combout $end
$var wire 1 7 Decoder0~3_combout $end
$upscope $end
$upscope $end
$enddefinitions $end
#0
$dumpvars
0!
1"
1&
0%
1$
1#
x'
0(
1)
x*
1+
1,
1-
1.
0/
10
11
02
13
14
15
06
07
$end
#10000
1!
0"
12
03
0'
17
05
01
1/
0#
1%
#30000
0!
02
1'
07
04
11
0.
1#
0&
#40000
1!
12
0'
17
14
01
1.
0#
1&
#50000
1"
0!
13
02
1'
07
15
11
0/
1#
0%
#60000
1!
12
0'
16
05
00
1/
0$
1%
#70000
0!
02
1'
06
15
10
0/
1$
0%
#80000
0"
03
0'
05
04
1/
0.
1%
0&
#100000
1"
13
1'
15
14
0/
1.
0%
1&
#110000
0"
03
0'
05
04
1/
0.
1%
0&
#120000
1!
1"
12
13
1'
16
14
00
1.
0$
1&
#130000
0"
03
0'
17
06
01
10
0#
1$
#140000
1"
13
1'
07
16
11
00
1#
0$
#150000
0!
02
0'
06
15
10
0/
1$
0%
#170000
0"
1!
03
12
1'
17
05
01
1/
0#
1%
#180000
1"
0!
13
02
0'
07
15
11
0/
1#
0%
#190000
1!
12
1'
16
05
00
1/
0$
1%
#200000
0"
03
0'
17
06
01
10
0#
1$
#220000
0!
1"
02
13
1'
07
15
11
0/
1#
0%
#230000
1!
12
0'
16
05
00
1/
0$
1%
#260000
0"
0!
03
02
1'
06
04
10
0.
1$
0&
#270000
1"
13
0'
15
14
0/
1.
0%
1&
#280000
0"
03
1'
05
04
1/
0.
1%
0&
#290000
1!
12
0'
17
14
01
1.
0#
1&
#300000
0!
02
1'
07
04
11
0.
1#
0&
#310000
1!
12
0'
17
14
01
1.
0#
1&
#320000
1"
13
1'
07
16
11
00
1#
0$
#330000
0!
0"
02
03
0'
06
04
10
0.
1$
0&
#340000
1!
1"
12
13
1'
16
14
00
1.
0$
1&
#350000
0!
02
0'
06
15
10
0/
1$
0%
#360000
0"
03
1'
05
04
1/
0.
1%
0&
#370000
1!
1"
12
13
0'
16
14
00
1.
0$
1&
#380000
0"
03
1'
17
06
01
10
0#
1$
#390000
1"
13
0'
07
16
11
00
1#
0$
#400000
0!
0"
02
03
1'
06
04
10
0.
1$
0&
#420000
1!
1"
12
13
0'
16
14
00
1.
0$
1&
#430000
0!
0"
02
03
1'
06
04
10
0.
1$
0&
#440000
1!
1"
12
13
0'
16
14
00
1.
0$
1&
#480000
0!
02
1'
06
15
10
0/
1$
0%
#490000
0"
03
0'
05
04
1/
0.
1%
0&
#500000
1!
12
1'
17
14
01
1.
0#
1&
#510000
1"
0!
13
02
0'
07
15
11
0/
1#
0%
#520000
1!
12
1'
16
05
00
1/
0$
1%
#530000
0"
0!
03
02
0'
06
04
10
0.
1$
0&
#540000
1"
13
1'
15
14
0/
1.
0%
1&
#550000
1!
0"
12
03
0'
17
05
01
1/
0#
1%
#590000
1"
13
1'
07
16
11
00
1#
0$
#610000
0!
0"
02
03
0'
06
04
10
0.
1$
0&
#620000
1"
13
1'
15
14
0/
1.
0%
1&
#630000
1!
12
0'
16
05
00
1/
0$
1%
#640000
0"
0!
03
02
1'
06
04
10
0.
1$
0&
#660000
1"
1!
13
12
0'
16
14
00
1.
0$
1&
#670000
0!
02
1'
06
15
10
0/
1$
0%
#690000
0"
1!
03
12
0'
17
05
01
1/
0#
1%
#700000
0!
02
1'
07
04
11
0.
1#
0&
#710000
1!
12
0'
17
14
01
1.
0#
1&
#730000
1"
0!
13
02
1'
07
15
11
0/
1#
0%
#740000
0"
1!
03
12
0'
17
05
01
1/
0#
1%
#760000
1"
0!
13
02
1'
07
15
11
0/
1#
0%
#780000
1!
12
0'
16
05
00
1/
0$
1%
#790000
0!
02
1'
06
15
10
0/
1$
0%
#830000
0"
1!
03
12
0'
17
05
01
1/
0#
1%
#840000
0!
02
1'
07
04
11
0.
1#
0&
#850000
1"
1!
13
12
0'
16
14
00
1.
0$
1&
#860000
0!
02
1'
06
15
10
0/
1$
0%
#890000
0"
1!
03
12
0'
17
05
01
1/
0#
1%
#900000
0!
02
1'
07
04
11
0.
1#
0&
#910000
1"
13
0'
15
14
0/
1.
0%
1&
#940000
1!
12
1'
16
05
00
1/
0$
1%
#960000
0"
03
0'
17
06
01
10
0#
1$
#970000
1"
13
1'
07
16
11
00
1#
0$
