數邏設計/verilogDesign/hw10_1/simulation/qsim/test.msim.vcd
$comment
	File created using the following command:
		vcd file test.msim.vcd -direction
$end
$date
	Mon May 12 13:36:24 2025
$end
$version
	ModelSim Version 10.1d
$end
$timescale
	1ps
$end
$scope module test_vlg_vec_tst $end
$var reg 8 ! A [7:0] $end
$var reg 8 " B [7:0] $end
$var reg 8 # C [7:0] $end
$var wire 1 $ Large [7] $end
$var wire 1 % Large [6] $end
$var wire 1 & Large [5] $end
$var wire 1 ' Large [4] $end
$var wire 1 ( Large [3] $end
$var wire 1 ) Large [2] $end
$var wire 1 * Large [1] $end
$var wire 1 + Large [0] $end
$var wire 1 , Middle [7] $end
$var wire 1 - Middle [6] $end
$var wire 1 . Middle [5] $end
$var wire 1 / Middle [4] $end
$var wire 1 0 Middle [3] $end
$var wire 1 1 Middle [2] $end
$var wire 1 2 Middle [1] $end
$var wire 1 3 Middle [0] $end
$var wire 1 4 Small [7] $end
$var wire 1 5 Small [6] $end
$var wire 1 6 Small [5] $end
$var wire 1 7 Small [4] $end
$var wire 1 8 Small [3] $end
$var wire 1 9 Small [2] $end
$var wire 1 : Small [1] $end
$var wire 1 ; Small [0] $end
$var wire 1 < sampler $end
$scope module i1 $end
$var wire 1 = gnd $end
$var wire 1 > vcc $end
$var wire 1 ? unknown $end
$var tri1 1 @ devclrn $end
$var tri1 1 A devpor $end
$var tri1 1 B devoe $end
$var wire 1 C A[0]~input_o $end
$var wire 1 D A[6]~input_o $end
$var wire 1 E Large[0]~output_o $end
$var wire 1 F Large[1]~output_o $end
$var wire 1 G Large[2]~output_o $end
$var wire 1 H Large[3]~output_o $end
$var wire 1 I Large[4]~output_o $end
$var wire 1 J Large[5]~output_o $end
$var wire 1 K Large[6]~output_o $end
$var wire 1 L Large[7]~output_o $end
$var wire 1 M Middle[0]~output_o $end
$var wire 1 N Middle[1]~output_o $end
$var wire 1 O Middle[2]~output_o $end
$var wire 1 P Middle[3]~output_o $end
$var wire 1 Q Middle[4]~output_o $end
$var wire 1 R Middle[5]~output_o $end
$var wire 1 S Middle[6]~output_o $end
$var wire 1 T Middle[7]~output_o $end
$var wire 1 U Small[0]~output_o $end
$var wire 1 V Small[1]~output_o $end
$var wire 1 W Small[2]~output_o $end
$var wire 1 X Small[3]~output_o $end
$var wire 1 Y Small[4]~output_o $end
$var wire 1 Z Small[5]~output_o $end
$var wire 1 [ Small[6]~output_o $end
$var wire 1 \ Small[7]~output_o $end
$var wire 1 ] C[0]~input_o $end
$var wire 1 ^ B[7]~input_o $end
$var wire 1 _ A[7]~input_o $end
$var wire 1 ` B[6]~input_o $end
$var wire 1 a A[5]~input_o $end
$var wire 1 b B[4]~input_o $end
$var wire 1 c B[3]~input_o $end
$var wire 1 d B[2]~input_o $end
$var wire 1 e B[1]~input_o $end
$var wire 1 f B[0]~input_o $end
$var wire 1 g LessThan0~1_cout $end
$var wire 1 h LessThan0~3_cout $end
$var wire 1 i LessThan0~5_cout $end
$var wire 1 j LessThan0~7_cout $end
$var wire 1 k LessThan0~9_cout $end
$var wire 1 l LessThan0~11_cout $end
$var wire 1 m LessThan0~13_cout $end
$var wire 1 n LessThan0~14_combout $end
$var wire 1 o a~1_combout $end
$var wire 1 p C[7]~input_o $end
$var wire 1 q a~2_combout $end
$var wire 1 r C[5]~input_o $end
$var wire 1 s C[4]~input_o $end
$var wire 1 t C[3]~input_o $end
$var wire 1 u C[2]~input_o $end
$var wire 1 v C[1]~input_o $end
$var wire 1 w a~0_combout $end
$var wire 1 x LessThan1~1_cout $end
$var wire 1 y LessThan1~3_cout $end
$var wire 1 z LessThan1~5_cout $end
$var wire 1 { LessThan1~7_cout $end
$var wire 1 | LessThan1~9_cout $end
$var wire 1 } LessThan1~11_cout $end
$var wire 1 ~ LessThan1~13_cout $end
$var wire 1 !! LessThan1~14_combout $end
$var wire 1 "! a~8_combout $end
$var wire 1 #! A[1]~input_o $end
$var wire 1 $! a~7_combout $end
$var wire 1 %! a~9_combout $end
$var wire 1 &! A[2]~input_o $end
$var wire 1 '! a~6_combout $end
$var wire 1 (! a~10_combout $end
$var wire 1 )! A[3]~input_o $end
$var wire 1 *! a~5_combout $end
$var wire 1 +! a~11_combout $end
$var wire 1 ,! A[4]~input_o $end
$var wire 1 -! a~4_combout $end
$var wire 1 .! a~12_combout $end
$var wire 1 /! B[5]~input_o $end
$var wire 1 0! a~3_combout $end
$var wire 1 1! a~13_combout $end
$var wire 1 2! C[6]~input_o $end
$var wire 1 3! a~14_combout $end
$var wire 1 4! a~15_combout $end
$var wire 1 5! b~1_combout $end
$var wire 1 6! b~3_combout $end
$var wire 1 7! b~2_combout $end
$var wire 1 8! b~4_combout $end
$var wire 1 9! b~7_combout $end
$var wire 1 :! b~8_combout $end
$var wire 1 ;! b~10_combout $end
$var wire 1 <! b~12_combout $end
$var wire 1 =! b~15_combout $end
$var wire 1 >! LessThan2~1_cout $end
$var wire 1 ?! LessThan2~3_cout $end
$var wire 1 @! LessThan2~5_cout $end
$var wire 1 A! LessThan2~7_cout $end
$var wire 1 B! LessThan2~9_cout $end
$var wire 1 C! LessThan2~11_cout $end
$var wire 1 D! LessThan2~13_cout $end
$var wire 1 E! LessThan2~14_combout $end
$var wire 1 F! b~0_combout $end
$var wire 1 G! a~16_combout $end
$var wire 1 H! b~14_combout $end
$var wire 1 I! a~17_combout $end
$var wire 1 J! b~13_combout $end
$var wire 1 K! a~18_combout $end
$var wire 1 L! b~11_combout $end
$var wire 1 M! a~19_combout $end
$var wire 1 N! b~9_combout $end
$var wire 1 O! a~20_combout $end
$var wire 1 P! b~6_combout $end
$var wire 1 Q! a~21_combout $end
$var wire 1 R! b~5_combout $end
$var wire 1 S! a~22_combout $end
$var wire 1 T! a~23_combout $end
$var wire 1 U! b~16_combout $end
$var wire 1 V! b~17_combout $end
$var wire 1 W! b~18_combout $end
$var wire 1 X! b~19_combout $end
$var wire 1 Y! b~20_combout $end
$var wire 1 Z! b~21_combout $end
$var wire 1 [! b~22_combout $end
$var wire 1 \! b~23_combout $end
$upscope $end
$upscope $end
$enddefinitions $end
#0
$dumpvars
b11101010 !
b10001001 "
b10110110 #
1+
0*
0)
1(
0'
0&
0%
1$
03
12
11
00
1/
1.
0-
1,
0;
1:
09
18
07
16
15
14
x<
0=
1>
x?
1@
1A
1B
0C
1D
1E
0F
0G
1H
0I
0J
0K
1L
0M
1N
1O
0P
1Q
1R
0S
1T
0U
1V
0W
1X
0Y
1Z
1[
1\
0]
1^
1_
0`
1a
0b
1c
0d
0e
1f
0g
0h
1i
0j
1k
0l
1m
1n
1o
1p
0q
1r
1s
0t
1u
1v
1w
1x
1y
0z
0{
0|
1}
0~
0!!
1"!
1#!
0$!
0%!
0&!
0'!
0(!
1)!
1*!
1+!
0,!
0-!
0.!
0/!
00!
01!
02!
03!
14!
05!
16!
17!
08!
19!
1:!
0;!
1<!
1=!
0>!
1?!
0@!
0A!
0B!
1C!
1D!
1E!
0F!
0G!
1H!
1I!
0J!
1K!
1L!
0M!
0N!
1O!
1P!
1Q!
1R!
0S!
1T!
0U!
1V!
0W!
1X!
0Y!
1Z!
1[!
1\!
$end
#10000
b10101010 !
b10111010 !
b10111110 !
b10111100 !
b1001 "
b1001001 "
b1011001 "
b1010001 "
b1010011 "
b110110 #
b10110 #
b11110 #
b11100 #
0v
1t
0r
0p
1e
0c
1b
1`
0^
0#!
1&!
1,!
0D
0<
0H!
0y
1;!
1{
0P!
07!
1!!
0=!
1$!
1h
0*!
1N!
1-!
0R!
1q
0m
0o
1J!
1A!
0C!
1H!
1F!
0<!
0;!
18!
1B!
0D!
1~
0!!
0V!
0I!
1M!
0Q!
0T!
04!
1.!
1(!
0"!
1Y!
0[!
1W!
0B!
1@!
0A!
1!!
0H!
0F!
1<!
1;!
08!
0V
0N
1P
0R
0T
0L
1I
1G
0E
1Y
0[
1W
0:
02
10
0.
0,
0$
1'
1)
0+
17
05
19
1I!
1G!
0K!
0M!
1S!
13!
0+!
0(!
1%!
1"!
1B!
1H!
1F!
0<!
0;!
18!
0@!
1D!
1N
1M
0O
0P
1S
1K
0H
0G
1F
1E
12
13
01
00
1-
1%
0(
0)
1*
1+
03!
1+!
1(!
0%!
0"!
0I!
0G!
1K!
1M!
0S!
1@!
0D!
0K
1H
1G
0F
0E
0N
0M
1O
1P
0S
0%
1(
1)
0*
0+
02
03
11
10
0-
1I!
1G!
0K!
0M!
1S!
1N
1M
0O
0P
1S
12
13
01
00
1-
#20000
b10111101 !
b1110011 "
b1110111 "
b1110110 "
b11000 #
b11001 #
b10111001 !
b10111011 !
b1100110 "
b10011001 #
1]
0u
1p
0f
1d
0b
1/!
1C
1#!
0&!
1<
0x
1z
0!!
15!
0w
1g
0J!
1'!
0i
0-!
10!
1=!
1"!
0(!
14!
0H!
1;!
08!
17!
0h
0@!
0}
1E
0G
1L
1+
0)
1$
04!
13!
11!
0.!
0+!
1(!
1%!
0"!
1U!
0W!
1V!
0?!
1A!
1D!
0E!
0L
1K
1J
0I
0H
1G
1F
0E
1U
0W
1V
0$
1%
1&
0'
0(
1)
1*
0+
1;
09
1:
0I!
1M!
0S!
1T!
1@!
0B!
1E!
0N
1P
0S
1T
02
10
0-
1,
0Z!
0V!
1Q!
1I!
0A!
0Z
0V
1R
1N
06
0:
1.
12
1Z!
1V!
0Q!
0I!
1B!
1Z
1V
0R
0N
16
1:
0.
02
#30000
b111011 !
b11011 !
b10001001 #
b1011 !
b1101110 "
b10101001 #
b10100001 #
b1001110 "
b1001010 "
b1001011 "
1f
0d
1c
0/!
0t
0s
1r
0,!
0a
0_
0<
1w
0g
0'!
1i
1*!
1j
09!
00!
0;!
0{
0:!
1P!
1}
0N!
06!
0n
1h
0j
0k
1C!
1|
0E!
1R!
0q
1"!
0(!
1+!
0Z!
1Q!
01!
0M!
0Y!
0O!
0\!
0i
1k
1l
0~
1E
0G
1H
0Z
1R
0J
0P
0Y
0Q
0\
1+
0)
1(
06
1.
0&
00
07
0/
04
1\!
1Z!
0X!
0V!
0T!
1S!
0Q!
1M!
1I!
03!
1j
0l
1\
1Z
0X
0V
0T
1S
0R
1P
1N
0K
14
16
08
0:
0,
1-
0.
10
12
0%
0k
1l
#40000
b11100001 #
b11001011 "
b11100000 #
b1111 !
b1101 !
b1100000 #
b10001101 !
b1110000 #
b11000011 "
b1010000 #
b1011000 #
0#!
1&!
1_
0c
1^
0]
1t
1s
0r
12!
0p
1<
0$!
1'!
1i
16!
1o
0L!
0j
0F!
1x
1;!
1:!
0|
0P!
0}
18!
07!
1E!
1!!
1A!
1k
1>!
0B!
1}
0C!
0D!
0%!
1(!
0\!
1T!
14!
1X!
0M!
0U!
1Y!
0Z!
1[!
1F!
1<!
0:!
08!
17!
0l
1C!
1D!
0F
1G
0\
1T
1L
1X
0P
0U
1Y
0Z
1[
0*
1)
04
1,
1$
18
00
0;
17
06
15
1\!
0Y!
0X!
1V!
1U!
0T!
1O!
1M!
0I!
0G!
04!
13!
1.!
0(!
0"!
0>!
0@!
1\
0Y
0X
1V
1U
0T
1Q
1P
0N
0M
0L
1K
1I
0G
0E
14
07
08
1:
1;
0,
1/
10
02
03
0$
1%
1'
0)
0+
1G!
1K!
0O!
0S!
1T!
1M
1O
0Q
0S
1T
13
11
0/
0-
1,
#50000
b11001101 !
b10000011 "
b10000001 "
b1011010 #
b1011110 #
b10010001 "
b11101101 !
b10110001 "
b10110101 "
b10110100 "
b11110 #
b11101001 !
b11101011 !
b10011110 #
b10001110 #
b10000110 #
1v
1u
0t
0s
02!
1p
0f
0e
1d
1b
1/!
0`
1#!
0&!
1a
1D
0<
1y
1|
0!!
05!
1g
0=!
1$!
0h
1J!
0'!
0i
1N!
0k
19!
10!
0R!
1q
1m
1%!
1(!
0+!
0.!
03!
14!
0z
0}
1H!
0F!
0;!
1?!
0y
1@!
1B!
1l
0C!
0D!
1~
1n
1F
1G
0H
0I
0K
1L
1*
1)
0(
0'
0%
1$
13!
11!
1+!
0(!
1"!
0U!
0V!
1W!
1Y!
1Z!
0[!
0A!
0@!
1D!
0E!
1!!
1R!
0N!
1L!
0J!
1=!
15!
1-!
0*!
1'!
0$!
0w
0q
1K
1J
1H
0G
1E
0U
0V
1W
1Y
1Z
0[
1%
1&
1(
0)
1+
0;
0:
19
17
16
05
1I!
0G!
0M!
1E!
1P!
0H!
1:!
1>!
1{
1z
1y
0x
1N
0M
0P
12
03
00
0Z!
0Y!
1V!
1S!
1Q!
1M!
0K!
1G!
03!
01!
0+!
1(!
0"!
0?!
0B!
0{
0z
0Z
0Y
1V
1S
1R
1P
0O
1M
0K
0J
0H
1G
0E
06
07
1:
1-
1.
10
01
13
0%
0&
0(
1)
0+
1[!
1Z!
1X!
0W!
1U!
0S!
1O!
0M!
1K!
0I!
0G!
1C!
1{
1[
1Z
1X
0W
1U
0S
1Q
0P
1O
0N
0M
15
16
18
09
1;
0-
1/
00
11
02
03
#60000
b11101010 !
b11111010 !
b110100 "
b10000111 #
b10100111 #
b10100011 #
b11011010 !
b11100011 #
b11011110 !
b11101011 #
1]
0u
1t
1r
12!
0^
0C
1&!
1,!
0a
1<
1z
0~
0o
05!
0g
1J!
1i
1N!
1k
09!
1"!
0(!
1+!
11!
13!
0!!
07!
0>!
1@!
1B!
1E
0G
1H
1J
1K
1+
0)
1(
1&
1%
0U!
1W!
1Y!
0Z!
1H!
1F!
0<!
1;!
0:!
18!
17!
0U
1W
1Y
0Z
0;
19
17
06
04!
03!
1.!
0+!
1(!
0%!
0"!
0T!
1?!
0D!
0L
0K
1I
0H
1G
0F
0E
0T
0$
0%
1'
0(
1)
0*
0+
0,
1I!
1G!
0K!
1M!
0O!
1S!
1T!
0E!
1N
1M
0O
1P
0Q
1S
1T
12
13
01
10
0/
1-
1,
1Z!
0Y!
0W!
1U!
0Q!
1O!
1K!
0G!
1Z
0Y
0W
1U
0R
1Q
1O
0M
16
07
09
1;
0.
1/
11
03
#70000
b11010110 !
b1010110 !
b10110 !
b1110100 "
b1110101 "
b10100 !
b11111011 #
b100 !
b11110101 "
b11111010 #
b11011010 #
b100100 !
b100000 !
0]
1s
0r
1f
1`
1^
0#!
0&!
0)!
0,!
1a
0D
0_
0<
0F!
1:!
0|
0P!
1w
0R!
1q
0m
06!
1o
0n
0=!
1h
0J!
0i
0L!
0N!
0k
19!
0l
0B!
0C!
1x
1~
1R!
1N!
1J!
16!
15!
0-!
0'!
0w
0q
0o
0@!
1j
1A!
1l
0U!
1Y!
0O!
0Z!
1Q!
1"!
0S!
13!
0T!
14!
0I!
0K!
0M!
1D!
1@!
1>!
0z
0x
0~
0U
1Y
0Q
0Z
1R
1E
0S
1K
0T
1L
0N
0O
0P
0;
17
0/
06
1.
1+
0-
1%
0,
1$
02
01
00
1S!
1O!
1K!
1T!
1G!
0.!
0(!
0"!
03!
04!
1E!
1S
1Q
1O
1T
1M
0I
0G
0E
0K
0L
1-
1/
11
1,
13
0'
0)
0+
0%
0$
1Z!
0X!
1W!
0V!
1U!
0Q!
1M!
0K!
1I!
0G!
1Z
0X
1W
0V
1U
0R
1P
0O
1N
0M
16
08
19
0:
1;
0.
10
01
12
03
#80000
b1011010 #
b11010 #
b10010 #
b11110100 "
b10011 #
b0 !
b100 !
1&!
0a
0f
1]
0t
02!
0p
1<
1'!
00!
05!
1F!
0;!
08!
1~
07!
1z
1}
0>!
0A!
1!!
1(!
01!
0U!
1G!
0M!
0S!
0T!
0{
0~
1B!
0H!
0F!
1<!
0:!
1G
0J
0U
1M
0P
0S
0T
1)
0&
0;
13
00
0-
0,
1.!
0(!
1%!
1"!
0!!
0@!
1I
0G
1F
1E
1'
0)
1*
1+
0I!
0G!
1K!
0O!
1H!
1F!
0<!
1:!
1A!
0N
0M
1O
0Q
02
03
11
0/
0.!
1(!
0%!
0"!
1@!
0B!
0I
1G
0F
0E
0'
1)
0*
0+
1I!
1G!
0K!
1O!
0A!
1N
1M
0O
1Q
12
13
01
1/
1B!
#90000
b11110110 "
b10001 #
b11110010 "
b101 !
b10000101 !
b10110010 "
b10000111 !
b10010111 !
b110010 "
b10010001 #
b10011001 #
b110011 "
1C
1#!
1,!
1_
0v
1t
1p
1f
1e
0d
0`
0^
0<
15!
1w
1=!
1$!
1-!
06!
1o
1n
0H!
1;!
1{
17!
0J!
1i
0R!
0?!
0y
0E!
1J!
09!
16!
10!
0'!
0o
1A!
0@!
0j
1U!
1"!
1V!
0I!
1%!
1.!
0\!
1T!
14!
1M!
0W!
0[!
1@!
1E!
0}
0B!
1k
1U
1E
1V
0N
1F
1I
0\
1T
1L
1P
0W
0[
1;
1+
1:
02
1*
1'
04
1,
1$
10
09
05
1\!
0Z!
1X!
0V!
0M!
1K!
1I!
11!
0(!
04!
1~
1C!
1\
0Z
1X
0V
0P
1O
1N
1J
0G
0L
14
06
18
0:
00
11
12
1&
0)
0$
0X!
1W!
1V!
1M!
0K!
0I!
0D!
0X
1W
1V
1P
0O
0N
08
19
1:
10
01
02
0E!
1X!
0W!
0V!
0M!
1K!
1I!
1X
0W
0V
0P
1O
1N
18
09
0:
00
11
12
#100000
b111011 "
b101011 "
b10011101 #
b10011111 !
b11011111 !
b11011101 #
b11111111 !
b11011111 #
b101111 "
b11111110 !
b11101110 !
b101110 "
0C
1)!
0,!
1a
1D
1v
1u
12!
0f
1d
1c
0b
1<
05!
0w
1L!
1*!
0N!
0-!
19!
0l
1R!
1m
1H!
1y
1<!
0z
18!
0~
1'!
0i
0A!
0C!
1?!
1j
0G!
0"!
1M!
1+!
0O!
0.!
1Q!
1[!
1S!
1V!
1W!
1(!
1D!
0@!
0k
0M
0E
1P
1H
0Q
0I
1R
1[
1S
1V
1W
1G
03
0+
10
1(
0/
0'
1.
15
1-
1:
19
1)
1E!
1A!
1l
1Z!
0Y!
0U!
0Q!
1O!
1G!
1Z
0Y
0U
0R
1Q
1M
16
07
0;
0.
1/
13
#110000
b11111111 #
b11111110 #
b101100 "
b11110110 #
b100100 "
b11110010 #
b10110010 #
b10110000 #
b11111110 !
b100101 "
1,!
1f
0e
0c
0]
0v
0u
0t
1r
02!
0<
1N!
1k
1w
0$!
0h
0*!
0j
0F!
0H!
0y
0<!
1z
0;!
0{
1P!
1}
08!
1~
0l
1x
1y
1i
0?!
1@!
0A!
1C!
0~
1Y!
1"!
0%!
0+!
0G!
0I!
0K!
0M!
1Q!
0S!
0y
1B!
1Y
1E
0F
0H
0M
0N
0O
0P
1R
0S
17
1+
0*
0(
03
02
01
00
1.
0-
0C!
#120000
b10100000 #
b11111010 !
b1111010 !
b1100101 "
b11100101 "
b100000 #
b1110010 !
b1010010 !
b11100001 "
b1010011 !
b0 #
b1 #
b1001 #
b11101001 "
b1001001 #
b11101000 "
0f
0d
1c
1`
1^
1C
0&!
0)!
0a
0_
1]
1t
0s
0r
12!
0p
1<
15!
0w
1g
0J!
0'!
0L!
1*!
1j
1q
06!
1o
0n
09!
1l
1F!
0x
1;!
1{
0:!
1|
0P!
0}
18!
07!
1A!
0{
1~
1!!
0N!
1L!
0=!
19!
16!
05!
00!
1-!
0*!
1$!
1w
0o
0m
1y
0|
1U!
1G!
0"!
0W!
0(!
0X!
1M!
1+!
13!
0\!
0T!
14!
0Z!
0Q!
0O!
1S!
0B!
1|
1H!
0;!
1:!
0A!
1?!
1}
1{
0y
0z
1U
1M
0E
0W
0G
0X
1P
1H
1K
0\
0T
1L
0Z
0R
0Q
1S
1;
13
0+
09
0)
08
10
1(
1%
04
0,
1$
06
0.
0/
1-
04!
01!
1"!
0Y!
1X!
0V!
1Z!
1\!
0U!
0}
0@!
0~
1z
0L
0J
1E
0Y
1X
0V
1Z
1\
0U
0$
0&
1+
07
18
0:
16
14
0;
1I!
0M!
1O!
1~
0!!
1N
0P
1Q
12
00
1/
1!!
0H!
1;!
0:!
1.!
0+!
1%!
1H!
0;!
1:!
1A!
1B!
1I
0H
1F
1'
0(
1*
0.!
1+!
0%!
0I!
1M!
0O!
0A!
0B!
0I
1H
0F
0N
1P
0Q
0'
1(
0*
02
10
0/
1I!
0M!
1O!
1N
0P
1Q
12
00
1/
#130000
b10011 !
b1001101 #
b11 !
b111 !
b11001101 #
b11001100 #
b10001100 #
0]
1u
02!
1p
1&!
0,!
0D
0<
1x
0z
0!!
1'!
0-!
0k
0q
0"!
1(!
03!
14!
0H!
0F!
1<!
1;!
0:!
08!
17!
1z
0|
0E
1G
0K
1L
0+
1)
0%
1$
04!
0+!
1%!
1"!
1A!
1B!
1}
0L
0H
1F
1E
0$
0(
1*
1+
0I!
0G!
1K!
1M!
0O!
0S!
1T!
0B!
0~
0N
0M
1O
1P
0Q
0S
1T
02
03
11
10
0/
0-
1,
#140000
b11001000 "
b10011100 #
b1001000 "
b1111 !
b101111 !
b101110 !
b10111100 #
b10110100 #
b1101110 !
b10110000 #
b1111110 !
b1111010 !
b11110000 #
0C
0&!
1)!
1,!
1a
1D
0u
0t
1s
1r
12!
0/!
0^
1<
0w
0g
0'!
1*!
0j
1-!
1k
09!
10!
0l
1q
0<!
0;!
0{
1:!
1P!
18!
06!
0x
1|
1C!
1m
0A!
0E!
0"!
0(!
1+!
1.!
0Z!
1Q!
11!
13!
0K!
0M!
1O!
1S!
0\!
0}
0D!
1n
0E
0G
1H
1I
0Z
1R
1J
1K
0O
0P
1Q
1S
0\
0+
0)
1(
1'
06
1.
1&
1%
01
00
1/
1-
04
1\!
1Z!
1Y!
0X!
0T!
0Q!
0O!
1M!
1~
1N!
1=!
19!
00!
0-!
0$!
1\
1Z
1Y
0X
0T
0R
0Q
1P
14
16
17
08
0,
0.
0/
10
1B!
0?!
1}
0|
1y
1O!
1I!
1Q!
01!
0.!
0%!
0C!
1@!
0~
0z
1Q
1N
1R
0J
0I
0F
1/
12
1.
0&
0'
0*
1D!
#150000
b1111000 !
b11111000 !
b1000000 "
b1000001 "
b11110001 #
b1100001 "
b11100001 "
b11111001 !
b10111001 !
b11110101 #
1]
1u
1f
0c
1/!
1^
1C
0#!
0D
1_
0<
1F!
1<!
15!
1w
0*!
10!
16!
1o
0=!
1h
0R!
0m
0@!
1{
1E!
1?!
0i
0D!
0n
1U!
1G!
1W!
1"!
0+!
11!
1T!
14!
0I!
0S!
0E!
1R!
0N!
0L!
1-!
1*!
0q
1U
1M
1W
1E
0H
1J
1T
1L
0N
0S
1;
13
19
1+
0(
1&
1,
1$
02
0-
0[!
1X!
0W!
1S!
0M!
1K!
1D!
0B!
1A!
0{
0[
1X
0W
1S
0P
1O
05
18
09
1-
00
11
1[!
0X!
1W!
0O!
0K!
1.!
1+!
03!
1E!
1C!
1|
1[
0X
1W
0Q
0O
1I
1H
0K
15
08
19
0/
01
1'
1(
0%
0D!
0}
0Y!
0W!
1O!
1K!
0E!
0Y
0W
1Q
1O
07
09
1/
11
1Y!
1W!
0O!
0K!
1Y
1W
0Q
0O
17
19
0/
01
#160000
b11110001 "
b11110011 "
b1110101 #
b1100101 #
b10011001 !
b1000101 #
b1001101 #
b10001001 !
b10001011 !
b11111011 "
b11111010 "
b11011010 "
b10001010 !
b11001010 !
0C
1#!
0,!
0a
1D
1t
0s
0r
0p
0f
1e
1c
1b
0/!
1<
05!
0w
1=!
1$!
1N!
0-!
0k
09!
00!
1q
1m
1;!
1{
0:!
0P!
07!
1!!
1L!
1j
0F!
0?!
1H!
0y
1B!
0|
1l
1~
1n
1E!
0<!
17!
0G!
1I!
0Y!
1O!
0.!
0Z!
0Q!
01!
13!
1X!
1M!
0\!
04!
1(!
1@!
1?!
0C!
1}
0m
0N!
1-!
0E!
0M
1N
0Y
1Q
0I
0Z
0R
0J
1K
1X
1P
0\
0L
1G
03
12
07
1/
0'
06
0.
0&
1%
18
10
04
0$
1)
0U!
1V!
1\!
1Y!
0W!
0O!
0A!
0@!
1D!
0~
0n
0B!
1:!
1|
0U
1V
1\
1Y
0W
0Q
0;
1:
14
17
09
0/
0Y!
1A!
1E!
1N!
0-!
1C!
0}
0Y
07
1Y!
0:!
0|
0D!
1~
1Y
17
1O!
1B!
1}
0E!
1Q
1/
0O!
0C!
0~
0Q
0/
0Y!
1O!
1D!
0Y
1Q
07
1/
1E!
1Y!
0O!
1Y
0Q
17
0/
#170000
b1001111 #
b11001110 !
b1001110 !
b1011010 "
b1001010 "
b1001000 "
b1101110 !
b1111110 !
b1111100 !
b1000000 "
b1000001 "
b1111101 !
1f
0e
0c
0b
0^
1C
0#!
1&!
1,!
1a
0_
1v
0<
15!
1w
0=!
0$!
0L!
0j
0N!
1-!
1k
06!
0o
1'!
1i
10!
0l
1y
1%!
1>!
1F!
0H!
0B!
1:!
1|
0E!
07!
0!!
1<!
1P!
0}
1m
1F
1*
1U!
0V!
0X!
0Y!
0\!
0?!
0>!
1C!
1E!
0P!
1H!
0:!
1~
1n
1U
0V
0X
0Y
0\
1;
0:
08
07
04
1G!
0I!
1Y!
1Z!
1X!
1W!
0T!
0M!
11!
1.!
0%!
1?!
0D!
1!!
1N!
1L!
1J!
19!
00!
0-!
0*!
0'!
1M
0N
1Y
1Z
1X
1W
0T
0P
1J
1I
0F
13
02
17
16
18
19
0,
00
1&
1'
0*
0Z!
0Y!
0X!
0W!
1M!
1K!
1I!
0E!
0H!
0<!
0;!
1B!
0C!
0|
0Z
0Y
0X
0W
1P
1O
1N
06
07
08
09
10
11
12
01!
0.!
1%!
1Y!
1X!
1W!
1Z!
1@!
0A!
1D!
1}
0J
0I
1F
1Y
1X
1W
1Z
0&
0'
1*
17
18
19
16
0Z!
0Y!
0X!
0W!
1Q!
1O!
0I!
1E!
0~
0Z
0Y
0X
0W
1R
1Q
0N
06
07
08
09
1.
1/
02
0!!
1Z!
1Y!
1X!
1W!
0Q!
0O!
0M!
0K!
1H!
1<!
1;!
1Z
1Y
1X
1W
0R
0Q
0P
0O
16
17
18
19
0.
0/
00
01
0+!
0(!
0%!
0@!
0H
0G
0F
0(
0)
0*
1I!
1K!
1M!
1A!
1N
1O
1P
12
11
10
#180000
b1 "
b1110101 !
b1111 #
b1011 #
b101011 #
b100011 #
b110101 !
b100001 #
b110001 !
b10000001 "
b10000011 "
b100001 !
b10001011 "
b100000 !
0v
0u
0t
1r
02!
0C
0&!
0)!
0,!
0D
1e
1c
0`
1^
1<
0H!
0<!
0;!
1P!
08!
1~
05!
0J!
0i
0L!
1*!
1j
0N!
0R!
0q
1$!
1o
0n
1!!
0{
0k
0B!
0~
0y
1L!
1=!
09!
16!
15!
10!
0*!
0$!
0w
0o
0I!
0W!
0K!
0X!
0M!
1Q!
0[!
0S!
0U!
1+!
0Y!
03!
1%!
14!
0F!
1|
1C!
0!!
1z
0A!
0?!
1{
1y
0N
0W
0O
0X
0P
1R
0[
0S
0U
1H
0Y
0K
1F
1L
02
09
01
08
00
1.
05
0-
0;
1(
07
0%
1*
1$
04!
11!
0+!
0%!
1X!
1V!
0Z!
1\!
1U!
1>!
0}
0D!
1F!
0{
1B!
1@!
0|
0z
0L
1J
0H
0F
1X
1V
0Z
1\
1U
0$
1&
0(
0*
18
1:
06
14
1;
0G!
0"!
1~
0>!
1|
1}
1{
0M
0E
03
0+
1G!
1!!
0}
0~
0|
1M
13
0F!
1~
0!!
1}
1"!
1>!
1!!
1F!
0~
1E
1+
0G!
0"!
0F!
0>!
0!!
0M
0E
03
0+
1"!
1G!
1>!
1F!
1E
1M
1+
13
0G!
0"!
0>!
0M
0E
03
0+
1G!
1M
13
#190000
b10100001 #
b10101011 "
b10111011 "
b10111010 "
b11111010 "
b10000001 #
b1100000 !
b1100100 !
1&!
1D
0f
1b
1/!
1`
0r
1p
0<
1'!
1i
1R!
1q
05!
1N!
19!
1l
0P!
0}
17!
1z
1D!
1~
0C!
0m
0E!
1(!
1[!
13!
0U!
1Y!
1Z!
0Q!
1T!
0{
1E!
1G
1[
1K
0U
1Y
1Z
0R
1T
1)
15
1%
0;
17
16
0.
1,
0[!
0Z!
0Y!
0X!
0V!
1U!
1S!
1Q!
1O!
1M!
1I!
0G!
1|
0[
0Z
0Y
0X
0V
1U
1S
1R
1Q
1P
1N
0M
05
06
07
08
0:
1;
1-
1.
1/
10
12
03
1[!
1Z!
1Y!
1X!
1V!
0U!
0S!
0Q!
0O!
0M!
0I!
1G!
1[
1Z
1Y
1X
1V
0U
0S
0R
0Q
0P
0N
1M
15
16
17
18
1:
0;
0-
0.
0/
00
02
13
#200000
b10010001 #
b11100100 !
b11110100 !
b11110101 !
b10110001 #
b10110101 !
b10110001 !
1C
0&!
1,!
0D
1_
1s
1r
1<
1w
1g
0'!
0i
1-!
0q
1o
1:!
0|
1P!
0z
1|
1!!
1}
1"!
0(!
1.!
03!
14!
1O!
1Q!
1{
0}
0~
1E
0G
1I
0K
1L
1Q
1R
1+
0)
1'
0%
1$
1/
1.
0|
1~
0!!
1}
1!!
0~
0!!
