數邏設計/verilogDesign/hw3_3/simulation/qsim/RELATIONAL.msim.vcd
$comment
	File created using the following command:
		vcd file RELATIONAL.msim.vcd -direction
$end
$date
	Mon Mar 10 14:05:04 2025
$end
$version
	ModelSim Version 10.1d
$end
$timescale
	1ps
$end
$scope module RELATIONAL_vlg_vec_tst $end
$var reg 4 ! A [3:0] $end
$var reg 4 " B [3:0] $end
$var wire 1 # CEQV $end
$var wire 1 $ CNOT_EQV $end
$var wire 1 % EQV $end
$var wire 1 & NOT_EQV $end
$var wire 1 ' sampler $end
$scope module i1 $end
$var wire 1 ( gnd $end
$var wire 1 ) vcc $end
$var wire 1 * unknown $end
$var tri1 1 + devclrn $end
$var tri1 1 , devpor $end
$var tri1 1 - devoe $end
$var wire 1 . A[1]~input_o $end
$var wire 1 / B[2]~input_o $end
$var wire 1 0 EQV~output_o $end
$var wire 1 1 NOT_EQV~output_o $end
$var wire 1 2 CEQV~output_o $end
$var wire 1 3 CNOT_EQV~output_o $end
$var wire 1 4 A[3]~input_o $end
$var wire 1 5 B[3]~input_o $end
$var wire 1 6 A[2]~input_o $end
$var wire 1 7 Equal0~1_combout $end
$var wire 1 8 B[0]~input_o $end
$var wire 1 9 B[1]~input_o $end
$var wire 1 : A[0]~input_o $end
$var wire 1 ; Equal0~0_combout $end
$var wire 1 < Equal0~2_combout $end
$upscope $end
$upscope $end
$enddefinitions $end
#0
$dumpvars
b110 !
b1001 "
0#
1$
0%
1&
x'
0(
1)
x*
1+
1,
1-
1.
0/
00
11
02
13
04
15
16
07
18
09
0:
0;
0<
$end
#10000
b1110 !
b1111 !
b1 "
b0 "
08
05
1:
14
0'
#20000
b1011 !
b1001 !
b100 "
b1 !
b1100 "
1/
15
0.
06
04
1'
#30000
b1110 "
b1111 "
b101 !
b111 !
b1111 !
b111 "
1.
16
14
18
19
05
0'
1;
#40000
b1110 !
b11 "
b1 "
b0 "
b110 !
08
09
0/
0:
04
1'
0;
#50000
b111 !
b1 "
b1111 !
18
1:
14
0'
#60000
b1101 !
b11 "
b10 "
b101 !
08
19
0.
04
1'
#70000
b1 !
b0 !
b10 !
b0 "
b1 "
18
09
0:
1.
06
0'
17
#80000
b1001 "
b1101 "
b1010 !
b1000 !
b1111 "
0.
14
19
1/
15
1'
07
#90000
b1110 "
b110 "
b1010 !
1.
08
05
0'
1;
#100000
b1011 !
b10 "
b0 "
09
0/
1:
1'
0;
#110000
b1111 !
b111 !
b1 "
b101 !
b100 !
b101 "
b111 "
18
19
1/
0:
0.
16
04
0'
17
#120000
b1100 !
b1101 !
1:
14
1'
07
#130000
b110 "
b100 "
b101 !
04
08
09
0'
17
#140000
b0 "
b100 !
b1 "
b11 "
0:
18
19
0/
1'
07
#150000
b0 !
b10 !
b1010 !
b111 "
b1011 !
b110 "
b100 "
08
09
1/
1:
1.
06
14
0'
#160000
b1111 !
b1101 !
b0 "
b1100 !
b10 "
19
0/
0:
0.
16
1'
#170000
b100 !
b0 !
b10 !
b110 "
b11 !
1/
1:
1.
06
04
0'
#180000
b1011 !
b1111 !
b10 "
0/
16
14
1'
#190000
b1010 "
b1101 !
b101 !
b1 !
0.
06
04
15
0'
#200000
b1011 "
b1001 "
b0 !
b1101 "
b10 !
b1010 !
0:
1.
14
18
09
1/
1'
#210000
b101 "
b1 "
b1000 !
b0 !
0.
04
0/
05
0'
17
#220000
b100 !
b1001 "
b1101 "
1/
15
16
1'
07
#230000
b1100 "
b1110 "
b110 !
b1110 !
b110 "
1.
14
08
19
05
0'
1;
#240000
b1111 !
b10 "
b1101 !
0/
1:
0.
1'
0;
#250000
b1001 !
b11 "
b1 "
18
09
06
0'
1;
#260000
b1 !
b1001 "
b0 !
b1101 "
b1100 "
08
1/
15
0:
04
1'
#270000
b10 !
b100 "
b0 "
0/
05
1.
0'
17
0;
#280000
b10 "
b1010 "
19
15
1'
1;
07
#290000
b110 !
b1110 !
b1110 "
1/
16
14
0'
17
1<
12
10
01
03
1#
1%
0&
0$
#300000
b1111 !
b1100 "
b100 "
09
05
1:
1'
0;
07
0<
02
00
11
13
0#
0%
1&
1$
#310000
b111 !
b0 "
b110 !
0/
0:
04
0'
#320000
b1110 !
b100 "
b1111 !
1/
1:
14
1'
#340000
b111 !
b0 "
b110 !
0/
0:
04
0'
#350000
b100 !
b1100 !
0.
14
1'
1;
#360000
b1000 !
b1001 !
b1 !
1:
06
04
0'
0;
17
#370000
b11 !
b10 !
b1010 !
0:
1.
14
1'
07
#380000
b10 "
b1000 !
b0 !
0.
04
19
0'
17
#390000
b1010 "
b1110 "
b100 !
b101 !
b1100 "
b111 !
b1111 !
1:
1.
16
14
09
1/
15
1'
#400000
b1101 "
b1001 "
b1011 !
b1011 "
b1001 !
0.
06
18
19
0/
0'
#410000
b11 "
b1 !
b10 "
b101 !
16
04
08
05
1'
07
#420000
b100 !
b110 "
b100 "
b1100 "
b1101 "
18
09
1/
15
0:
0'
#430000
b110 !
b1110 !
b1010 !
b1011 !
b1001 "
b1011 "
b11 "
19
0/
05
1:
1.
06
14
1'
1;
#440000
b10 "
b1001 !
b1 !
b110 "
b100 "
0.
04
08
09
1/
0'
0;
#450000
b101 !
b101 "
b111 !
b1111 !
18
1.
16
14
1'
#460000
b1110 !
b1 "
b11 "
b10 "
b110 !
08
19
0/
0:
04
0'
1;
#470000
b1010 "
b10 !
b1000 "
b1001 "
06
18
09
15
1'
0;
#480000
b11 !
b1101 "
b101 "
b100 "
08
1/
05
1:
0'
#490000
b1011 !
b1111 !
b110 "
19
16
14
1'
#500000
b10 "
b1010 "
b1011 !
b1000 "
06
09
0/
15
0'
17
#510000
b11 !
b1100 "
b1110 "
19
1/
04
1'
07
#520000
b1 !
b110 "
05
0.
0'
#530000
b0 !
b100 !
b1100 !
b1110 !
b1110 "
15
0:
1.
16
14
1'
17
1;
1<
12
10
01
03
1#
1%
0&
0$
#540000
b1100 "
b1111 !
1:
09
0'
0;
0<
02
00
11
13
0#
0%
1&
1$
#550000
b1011 !
b11 !
b1 !
b100 "
05
0.
06
04
1'
07
#560000
b101 "
b1 "
b11 "
b1001 !
b1011 !
b1011 "
1.
14
18
19
0/
15
0'
1;
17
1<
12
10
01
03
1#
1%
0&
0$
#570000
b1010 !
b1110 !
b11 "
05
0:
16
1'
07
0;
0<
02
00
11
13
0#
0%
1&
1$
#580000
b10 "
b110 "
b110 !
b10 !
06
04
08
1/
0'
1;
#590000
b1110 "
b1111 "
b1011 "
b1010 !
b1110 !
16
14
18
0/
15
1'
0;
#600000
b1001 "
b1100 !
b1101 !
b1 "
b101 "
b1001 !
1:
0.
06
09
1/
05
0'
1;
#610000
b100 "
b1011 !
b1010 !
b0 "
0:
1.
08
0/
1'
0;
#620000
b10 !
b1000 "
b0 !
b1 !
15
1:
0.
04
0'
#630000
b1010 "
b101 !
b1110 "
b110 "
16
19
1/
05
1'
17
#640000
b111 "
b111 !
b11 !
1.
06
18
0'
1;
07
#650000
b1011 !
b1010 !
b11 "
b1011 "
b1010 "
b1000 !
b1100 !
08
0/
15
0:
0.
16
14
1'
0;
#660000
b1110 "
b110 "
b111 "
18
1/
05
0'
#670000
b101 "
b100 !
b101 !
b100 "
1:
04
08
09
1'
17
#680000
b111 !
b11 !
b1100 "
b10 !
b1101 "
18
15
0:
1.
06
0'
07
#690000
b1001 "
b110 !
b1 "
b111 !
b0 "
1:
16
08
0/
05
1'
#700000
b10 "
b1111 !
b1011 !
b1010 "
b1010 !
0:
06
14
19
15
0'
1;
17
1<
12
10
01
03
1#
1%
0&
0$
#710000
b1000 "
b0 "
b1011 !
1:
09
05
1'
0;
07
0<
02
00
11
13
0#
0%
1&
1$
#720000
b1111 !
b10 "
b1010 "
b1110 !
19
15
0:
16
0'
1;
#730000
b1100 !
b1110 "
b100 !
b0 !
b110 "
b1 !
1/
05
1:
0.
06
04
1'
0;
#740000
b111 "
b101 "
b11 !
b1011 !
b1101 "
b1010 !
0:
1.
14
18
09
15
0'
#750000
b1100 "
b1110 "
b10 !
b110 "
04
08
19
05
1'
1;
#760000
b10 "
b110 !
b100 !
b101 !
b0 "
b1000 "
1:
0.
16
09
0/
15
0'
0;
#770000
b1001 "
b1101 !
b1101 "
14
18
1/
1'
17
1;
1<
12
10
01
03
1#
1%
0&
0$
#780000
b101 "
05
0'
07
0<
02
00
11
13
0#
0%
1&
1$
#790000
b1111 !
b1110 !
b111 "
b1111 "
19
15
0:
1.
1'
0;
17
#800000
b1010 !
b10 !
b11 !
b1101 "
b101 "
09
05
1:
06
04
0'
07
#810000
b1 "
b1 !
b1001 !
b1001 "
0.
14
0/
15
1'
1;
17
1<
12
10
01
03
1#
1%
0&
0$
#820000
b1101 "
b101 "
1/
05
0'
07
0<
02
00
11
13
0#
0%
1&
1$
#830000
b1101 !
b1100 !
b111 "
b1111 "
19
15
0:
16
1'
0;
17
#840000
b1110 !
b1011 "
b1010 !
b1011 !
b1001 "
09
0/
1:
1.
06
0'
#850000
b1000 "
b0 "
b1001 !
b100 "
b1101 !
b110 "
0.
16
08
19
1/
05
1'
07
#860000
b101 !
b1110 "
b111 !
b11 !
b1100 "
09
15
1.
06
04
0'
#870000
b1101 "
b1001 "
b1011 !
b1001 !
b1101 !
0.
16
14
18
0/
1'
1;
#880000
b1101 "
b101 !
b1 !
06
04
1/
0'
#890000
b101 "
b100 "
b0 "
b1001 !
b1101 !
16
14
08
0/
05
1'
0;
#900000
b1111 !
b1 "
b101 "
18
1/
1.
0'
#910000
b111 !
b11 !
b1 !
b1 "
0/
0.
06
04
1'
17
1;
1<
12
10
01
03
1#
1%
0&
0$
#920000
b0 "
b1001 !
b1101 !
b100 "
16
14
08
1/
0'
07
0;
0<
02
00
11
13
0#
0%
1&
1$
#930000
b1100 "
b1101 "
b1001 !
06
18
15
1'
1;
#940000
b1111 "
b1011 !
b11 !
b1011 "
b11 "
1.
04
19
0/
05
0'
17
1<
12
10
01
03
1#
1%
0&
0$
#950000
b10 "
b111 !
b0 "
b1111 !
b1000 "
16
14
08
09
15
1'
07
0;
0<
02
00
11
13
0#
0%
1&
1$
#960000
b1101 !
b1100 "
b1101 "
b1001 !
18
1/
0.
06
0'
1;
#970000
b1000 !
b1111 "
b0 !
b111 "
b10 !
b110 "
08
19
05
0:
1.
04
1'
#980000
b110 !
b111 !
b100 "
b1111 !
b1100 "
b1101 !
09
15
1:
0.
16
14
0'
0;
17
#990000
b1000 "
b1100 !
b1010 "
b100 !
b110 !
0:
1.
04
19
0/
1'
1;
07
