數邏設計/verilogDesign/hw4_6/simulation/qsim/DECODER3_5.msim.vcd
$comment
	File created using the following command:
		vcd file DECODER3_5.msim.vcd -direction
$end
$date
	Mon Mar 17 14:57:05 2025
$end
$version
	ModelSim Version 10.1d
$end
$timescale
	1ps
$end
$scope module DECODER3_5_vlg_vec_tst $end
$var reg 1 ! A $end
$var reg 1 " B $end
$var reg 1 # C $end
$var wire 1 $ Y [4] $end
$var wire 1 % Y [3] $end
$var wire 1 & Y [2] $end
$var wire 1 ' Y [1] $end
$var wire 1 ( Y [0] $end
$var wire 1 ) sampler $end
$scope module i1 $end
$var wire 1 * gnd $end
$var wire 1 + vcc $end
$var wire 1 , unknown $end
$var tri1 1 - devclrn $end
$var tri1 1 . devpor $end
$var tri1 1 / devoe $end
$var wire 1 0 Y[0]~output_o $end
$var wire 1 1 Y[1]~output_o $end
$var wire 1 2 Y[2]~output_o $end
$var wire 1 3 Y[3]~output_o $end
$var wire 1 4 Y[4]~output_o $end
$var wire 1 5 A~input_o $end
$var wire 1 6 B~input_o $end
$var wire 1 7 Y~0_combout $end
$var wire 1 8 C~input_o $end
$var wire 1 9 Equal0~0_combout $end
$var wire 1 : Y~1_combout $end
$var wire 1 ; Y~2_combout $end
$var wire 1 < Y~3_combout $end
$upscope $end
$upscope $end
$enddefinitions $end
#0
$dumpvars
1!
0"
0#
1(
1'
0&
1%
1$
x)
0*
1+
x,
1-
1.
1/
10
11
02
13
14
15
06
17
08
09
0:
1;
1<
$end
#20000
0!
05
0)
1:
07
12
00
1&
0(
#30000
1#
1!
18
15
1)
0:
17
02
10
0&
1(
#40000
0!
05
0)
1:
07
12
00
1&
0(
#50000
1"
0#
16
08
1)
19
17
01
10
0'
1(
#60000
0"
06
0)
09
07
11
00
1'
0(
#70000
1#
18
1)
#80000
1"
0#
16
08
0)
19
17
01
10
0'
1(
#90000
1!
15
1)
09
0;
11
03
1'
0%
#100000
1#
18
0)
0<
1;
04
13
0$
1%
#110000
0"
06
1)
1<
0:
14
02
1$
0&
#120000
0!
0#
05
08
0)
1:
07
12
00
1&
0(
#130000
1"
1#
16
18
1)
0:
17
02
10
0&
1(
#140000
1!
0"
15
06
0)
#150000
0#
08
1)
#160000
0!
1"
1#
05
16
18
0)
#170000
0"
0#
06
08
1)
1:
07
12
00
1&
0(
#180000
1"
1#
16
18
0)
0:
17
02
10
0&
1(
#200000
0#
08
1)
19
1:
01
12
0'
1&
#210000
1!
0"
15
06
0)
09
0:
11
02
1'
0&
#220000
1"
16
1)
0;
1:
03
12
0%
1&
#230000
0"
06
0)
1;
0:
13
02
1%
0&
#240000
1#
18
1)
#250000
0!
1"
05
16
0)
#260000
0#
1!
0"
08
15
06
1)
#270000
1#
0!
18
05
0)
1:
07
12
00
1&
0(
#280000
1"
1!
16
15
1)
0<
17
04
10
0$
1(
#290000
0#
0"
08
06
0)
1<
0:
14
02
1$
0&
#300000
0!
05
1)
1:
07
12
00
1&
0(
#310000
1#
1!
18
15
0)
0:
17
02
10
0&
1(
#320000
0!
05
1)
1:
07
12
00
1&
0(
#330000
1"
16
0)
0:
17
02
10
0&
1(
#340000
0#
1!
0"
08
15
06
1)
#370000
1#
0!
1"
18
05
16
0)
#380000
1!
0"
15
06
1)
#390000
1"
16
0)
0<
1:
04
12
0$
1&
#400000
0#
08
1)
1<
0;
14
03
1$
0%
#410000
0!
0"
05
06
0)
1;
07
13
00
1%
0(
#420000
1#
1!
1"
18
15
16
1)
0<
17
04
10
0$
1(
#430000
0!
0"
05
06
0)
1<
07
14
00
1$
0(
#440000
0#
1!
08
15
1)
0:
17
02
10
0&
1(
#450000
0!
05
0)
1:
07
12
00
1&
0(
#460000
1#
18
1)
#470000
1!
15
0)
0:
17
02
10
0&
1(
#480000
0#
08
1)
#490000
1"
0!
16
05
0)
19
1:
01
12
0'
1&
#500000
1!
15
1)
09
0;
11
03
1'
0%
#510000
1#
18
0)
0<
1;
04
13
0$
1%
#520000
0!
05
1)
1<
0:
14
02
1$
0&
#530000
0#
08
0)
19
1:
01
12
0'
1&
#540000
1!
1#
15
18
1)
09
0<
11
04
1'
0$
#560000
0#
08
0)
1<
0;
14
03
1$
0%
#570000
1#
18
1)
0<
1;
04
13
0$
1%
#580000
0!
05
0)
1<
0:
14
02
1$
0&
#590000
0"
06
1)
1:
07
12
00
1&
0(
#600000
1"
16
0)
0:
17
02
10
0&
1(
#610000
0#
0"
08
06
1)
1:
07
12
00
1&
0(
#620000
1!
1"
15
16
0)
0;
17
03
10
0%
1(
#630000
1#
0"
18
06
1)
1;
0:
13
02
1%
0&
#640000
0#
08
0)
#650000
1"
16
1)
0;
1:
03
12
0%
1&
#660000
1#
18
0)
0<
1;
04
13
0$
1%
#670000
0#
08
1)
1<
0;
14
03
1$
0%
#690000
0!
0"
1#
05
06
18
0)
1;
07
13
00
1%
0(
#700000
1"
16
1)
0:
17
02
10
0&
1(
#710000
1!
0#
15
08
0)
0;
1:
03
12
0%
1&
#720000
0!
05
1)
19
1;
01
13
0'
1%
#730000
1!
15
0)
09
0;
11
03
1'
0%
#740000
0"
1#
06
18
1)
1;
0:
13
02
1%
0&
#750000
0!
05
0)
1:
07
12
00
1&
0(
#760000
1"
16
1)
0:
17
02
10
0&
1(
#770000
0#
0"
08
06
0)
1:
07
12
00
1&
0(
#780000
1!
1#
15
18
1)
0:
17
02
10
0&
1(
#790000
1"
16
0)
0<
1:
04
12
0$
1&
#800000
0!
0#
0"
05
08
06
1)
1<
07
14
00
1$
0(
#810000
1!
1#
1"
15
18
16
0)
0<
17
04
10
0$
1(
#820000
0!
0"
05
06
1)
1<
07
14
00
1$
0(
#830000
0#
08
0)
#840000
1"
16
1)
19
17
01
10
0'
1(
#850000
1#
0"
18
06
0)
09
07
11
00
1'
0(
#860000
0#
08
1)
#870000
1!
1"
1#
15
16
18
0)
0<
17
04
10
0$
1(
#880000
0!
0#
05
08
1)
19
1<
01
14
0'
1$
#890000
1!
15
0)
09
0;
11
03
1'
0%
#900000
0"
1#
0!
06
18
05
1)
1;
07
13
00
1%
0(
#910000
1!
15
0)
0:
17
02
10
0&
1(
#920000
0#
08
1)
#950000
0!
05
0)
1:
07
12
00
1&
0(
#960000
1"
1!
16
15
1)
0;
17
03
10
0%
1(
#980000
1#
18
0)
0<
1;
04
13
0$
1%
