數邏設計/verilogDesign/hw6_1/simulation/qsim/DEMUL1_4.msim.vcd
$comment
	File created using the following command:
		vcd file DEMUL1_4.msim.vcd -direction
$end
$date
	Mon Mar 31 13:21:34 2025
$end
$version
	ModelSim Version 10.1d
$end
$timescale
	1ps
$end
$scope module DEMUL1_4_vlg_vec_tst $end
$var reg 1 ! DIN $end
$var wire 1 " S [1] $end
$var wire 1 # S [0] $end
$var wire 1 $ Y [3] $end
$var wire 1 % Y [2] $end
$var wire 1 & Y [1] $end
$var wire 1 ' Y [0] $end
$var wire 1 ( sampler $end
$scope module i1 $end
$var wire 1 ) gnd $end
$var wire 1 * vcc $end
$var wire 1 + unknown $end
$var tri1 1 , devclrn $end
$var tri1 1 - devpor $end
$var tri1 1 . devoe $end
$var wire 1 / S[0]~output_o $end
$var wire 1 0 S[1]~output_o $end
$var wire 1 1 Y[0]~output_o $end
$var wire 1 2 Y[1]~output_o $end
$var wire 1 3 Y[2]~output_o $end
$var wire 1 4 Y[3]~output_o $end
$var wire 1 5 DIN~input_o $end
$upscope $end
$upscope $end
$enddefinitions $end
#0
$dumpvars
0!
0#
0"
0'
0&
0%
0$
x(
0)
1*
x+
1,
1-
1.
0/
00
01
02
03
04
05
$end
#20000
1!
0(
15
11
1'
#30000
0!
1(
05
01
0'
#60000
1!
0(
15
11
1'
#70000
0!
1(
05
01
0'
#120000
1!
0(
15
11
1'
#140000
0!
1(
05
01
0'
#160000
1!
0(
15
11
1'
#180000
0!
1(
05
01
0'
#190000
1!
0(
15
11
1'
#230000
0!
1(
05
01
0'
#240000
1!
0(
15
11
1'
#250000
0!
1(
05
01
0'
#280000
1!
0(
15
11
1'
#290000
0!
1(
05
01
0'
#300000
1!
0(
15
11
1'
#310000
0!
1(
05
01
0'
#350000
1!
0(
15
11
1'
#360000
0!
1(
05
01
0'
#370000
1!
0(
15
11
1'
#380000
0!
1(
05
01
0'
#410000
1!
0(
15
11
1'
#480000
0!
1(
05
01
0'
#520000
1!
0(
15
11
1'
#540000
0!
1(
05
01
0'
#560000
1!
0(
15
11
1'
#570000
0!
1(
05
01
0'
#580000
1!
0(
15
11
1'
#640000
0!
1(
05
01
0'
#650000
1!
0(
15
11
1'
#670000
0!
1(
05
01
0'
#680000
1!
0(
15
11
1'
#690000
0!
1(
05
01
0'
#700000
1!
0(
15
11
1'
#710000
0!
1(
05
01
0'
#730000
1!
0(
15
11
1'
#760000
0!
1(
05
01
0'
#800000
1!
0(
15
11
1'
#810000
0!
1(
05
01
0'
#840000
1!
0(
15
11
1'
#890000
0!
1(
05
01
0'
#900000
1!
0(
15
11
1'
#910000
0!
1(
05
01
0'
#950000
1!
0(
15
11
1'
#970000
0!
1(
05
01
0'
#980000
1!
0(
15
11
1'
#990000
0!
1(
05
01
0'
