數邏設計/verilogDesign/hw8_2/simulation/qsim/test.msim.vcd
$comment
	File created using the following command:
		vcd file test.msim.vcd -direction
$end
$date
	Mon Apr 28 23:30:52 2025
$end
$version
	ModelSim Version 10.1d
$end
$timescale
	1ps
$end
$scope module test_vlg_vec_tst $end
$var reg 1 ! CLK $end
$var reg 1 " RESET $end
$var wire 1 # SEGMENT [15] $end
$var wire 1 $ SEGMENT [14] $end
$var wire 1 % SEGMENT [13] $end
$var wire 1 & SEGMENT [12] $end
$var wire 1 ' SEGMENT [11] $end
$var wire 1 ( SEGMENT [10] $end
$var wire 1 ) SEGMENT [9] $end
$var wire 1 * SEGMENT [8] $end
$var wire 1 + SEGMENT [7] $end
$var wire 1 , SEGMENT [6] $end
$var wire 1 - SEGMENT [5] $end
$var wire 1 . SEGMENT [4] $end
$var wire 1 / SEGMENT [3] $end
$var wire 1 0 SEGMENT [2] $end
$var wire 1 1 SEGMENT [1] $end
$var wire 1 2 SEGMENT [0] $end
$var wire 1 3 sampler $end
$scope module i1 $end
$var wire 1 4 gnd $end
$var wire 1 5 vcc $end
$var wire 1 6 unknown $end
$var tri1 1 7 devclrn $end
$var tri1 1 8 devpor $end
$var tri1 1 9 devoe $end
$var wire 1 : A1|Add0~0_combout $end
$var wire 1 ; A1|Add0~4_combout $end
$var wire 1 < A1|Add0~6_combout $end
$var wire 1 = CLK~input_o $end
$var wire 1 > SEGMENT[0]~output_o $end
$var wire 1 ? SEGMENT[1]~output_o $end
$var wire 1 @ SEGMENT[2]~output_o $end
$var wire 1 A SEGMENT[3]~output_o $end
$var wire 1 B SEGMENT[4]~output_o $end
$var wire 1 C SEGMENT[5]~output_o $end
$var wire 1 D SEGMENT[6]~output_o $end
$var wire 1 E SEGMENT[7]~output_o $end
$var wire 1 F SEGMENT[8]~output_o $end
$var wire 1 G SEGMENT[9]~output_o $end
$var wire 1 H SEGMENT[10]~output_o $end
$var wire 1 I SEGMENT[11]~output_o $end
$var wire 1 J SEGMENT[12]~output_o $end
$var wire 1 K SEGMENT[13]~output_o $end
$var wire 1 L SEGMENT[14]~output_o $end
$var wire 1 M SEGMENT[15]~output_o $end
$var wire 1 N A1|Add0~1 $end
$var wire 1 O A1|Add0~2_combout $end
$var wire 1 P RESET~input_o $end
$var wire 1 Q A1|Add0~3 $end
$var wire 1 R A1|Add0~5 $end
$var wire 1 S A1|Add0~7 $end
$var wire 1 T A1|Add0~9 $end
$var wire 1 U A1|Add0~10_combout $end
$var wire 1 V A1|Add0~8_combout $end
$var wire 1 W A1|Equal0~1_combout $end
$var wire 1 X A1|Q~1_combout $end
$var wire 1 Y A1|Q~0_combout $end
$var wire 1 Z A1|Q~2_combout $end
$var wire 1 [ A2|WideOr6~0_combout $end
$var wire 1 \ A2|WideOr5~0_combout $end
$var wire 1 ] A2|WideOr4~0_combout $end
$var wire 1 ^ A2|WideOr3~0_combout $end
$var wire 1 _ A2|WideOr2~0_combout $end
$var wire 1 ` A2|WideOr1~0_combout $end
$var wire 1 a A2|WideOr0~0_combout $end
$var wire 1 b A3|Decoder0~0_combout $end
$var wire 1 c A3|Decoder0~1_combout $end
$var wire 1 d A1|Equal0~0_combout $end
$var wire 1 e A1|Q [5] $end
$var wire 1 f A1|Q [4] $end
$var wire 1 g A1|Q [3] $end
$var wire 1 h A1|Q [2] $end
$var wire 1 i A1|Q [1] $end
$var wire 1 j A1|Q [0] $end
$upscope $end
$upscope $end
$enddefinitions $end
#0
$dumpvars
0!
1"
02
01
00
0/
0.
0-
1,
1+
0*
0)
0(
0'
0&
0%
1$
1#
x3
04
15
x6
17
18
19
1:
0;
0<
0=
0>
0?
0@
0A
0B
0C
1D
1E
0F
0G
0H
0I
0J
0K
1L
1M
0N
0O
1P
1Q
0R
1S
0T
0U
0V
0W
0X
1Y
0Z
0[
0\
0]
0^
0_
0`
0a
0b
0c
1d
0j
0i
0h
0g
0f
0e
$end
#5000
1!
1=
03
1j
1N
0:
1`
1_
1^
1[
1O
0Y
1C
1B
1A
1>
1-
1.
1/
12
#10000
0!
0=
13
#15000
1!
1=
03
0j
1i
1a
0N
1:
0Q
0O
0_
0^
1]
0[
1Q
1O
1Y
1;
0D
0B
0A
1@
0>
0,
0.
0/
10
02
0;
1X
0X
#20000
0!
0=
13
#25000
1!
1=
03
1j
1N
0:
1_
0]
0Q
0O
0Y
1B
0@
1.
00
1;
1X
#30000
0!
0=
13
#35000
1!
1=
03
0j
1h
0i
0N
1:
1R
0;
1Q
1O
0`
1^
1[
0O
1Y
1<
0X
0R
1;
0C
1A
1>
0-
1/
12
1Z
0<
1X
0Z
#40000
0!
0=
13
#45000
1!
1=
03
1j
1N
0:
0^
1\
0[
1O
0Y
0A
1?
0>
0/
11
02
#50000
0!
0=
13
#55000
1!
1=
03
0j
1i
0N
1:
0Q
0O
0_
1Q
1O
1Y
1R
0;
0B
0.
0R
1;
1<
0X
0<
1X
1Z
0Z
#60000
0!
0=
13
#65000
1!
1=
03
1j
0a
1N
0:
1`
1_
1^
0\
0Q
0O
0Y
1D
1C
1B
1A
0?
1,
1-
1.
1/
01
1R
0;
1<
0X
1Z
#70000
0!
0=
13
#75000
1!
1=
03
1g
0j
0h
0i
1a
1W
0S
0<
0N
1:
0R
1;
1Q
1O
0`
0_
0^
0Z
1Y
1X
1V
0O
1S
1<
0;
0D
0C
0B
0A
0,
0-
0.
0/
0V
1Z
0X
#80000
0!
0=
13
#85000
1!
1=
03
1j
0W
1N
0:
1_
0Y
1O
1B
1.
#90000
0!
0=
13
#95000
1!
1=
03
0j
1i
0a
1W
0N
1:
0Q
0O
1`
1^
1]
1\
1[
1Y
1Q
1O
1;
1D
1C
1A
1@
1?
1>
1,
1-
1/
10
11
12
0;
1X
0X
#100000
0!
0=
13
#105000
1!
1=
03
1j
0W
1N
0:
0Y
0Q
0O
1;
1X
#110000
0!
0=
13
#115000
1!
1=
03
0j
1h
0i
1W
0N
1:
1R
0;
1Q
1O
0Z
0O
0S
0<
0R
1;
1V
1Z
1S
1<
0X
0V
0Z
#120000
0!
0=
13
#125000
1!
1=
03
0g
0h
0W
0<
1Z
1Y
1X
0;
0`
0_
0^
0]
0\
0[
0Z
0X
0C
0B
0A
0@
0?
0>
0-
0.
0/
00
01
02
#130000
0!
0=
13
#135000
1!
1=
03
1j
1N
0:
1`
1_
1^
1[
1O
0Y
1C
1B
1A
1>
1-
1.
1/
12
#140000
0!
0=
13
#145000
1!
1=
03
0j
1i
1a
0N
1:
0Q
0O
0_
0^
1]
0[
1Q
1O
1Y
1;
0D
0B
0A
1@
0>
0,
0.
0/
10
02
0;
1X
0X
#150000
0!
0=
13
#155000
1!
1=
03
1j
1N
0:
1_
0]
0Q
0O
0Y
1B
0@
1.
00
1;
1X
#160000
0!
0=
13
#165000
1!
1=
03
0j
1h
0i
0N
1:
1R
0;
1Q
1O
0`
1^
1[
0O
1Y
1<
0X
0R
1;
0C
1A
1>
0-
1/
12
1Z
0<
1X
0Z
#170000
0!
0=
13
#175000
1!
1=
03
1j
1N
0:
0^
1\
0[
1O
0Y
0A
1?
0>
0/
11
02
#180000
0!
0=
13
#185000
1!
1=
03
0j
1i
0N
1:
0Q
0O
0_
1Q
1O
1Y
1R
0;
0B
0.
0R
1;
1<
0X
0<
1X
1Z
0Z
#190000
0!
0=
13
#195000
1!
1=
03
1j
0a
1N
0:
1`
1_
1^
0\
0Q
0O
0Y
1D
1C
1B
1A
0?
1,
1-
1.
1/
01
1R
0;
1<
0X
1Z
#200000
0!
0=
13
#205000
1!
1=
03
1g
0j
0h
0i
1a
1W
0S
0<
0N
1:
0R
1;
1Q
1O
0`
0_
0^
0Z
1Y
1X
1V
0O
1S
1<
0;
0D
0C
0B
0A
0,
0-
0.
0/
0V
1Z
0X
#210000
0!
0=
13
#215000
1!
1=
03
1j
0W
1N
0:
1_
0Y
1O
1B
1.
#220000
0!
0=
13
#225000
1!
1=
03
0j
1i
0a
1W
0N
1:
0Q
0O
1`
1^
1]
1\
1[
1Y
1Q
1O
1;
1D
1C
1A
1@
1?
1>
1,
1-
1/
10
11
12
0;
1X
0X
#230000
0!
0=
13
#235000
1!
1=
03
1j
0W
1N
0:
0Y
0Q
0O
1;
1X
#240000
0!
0=
13
#245000
1!
1=
03
0j
1h
0i
1W
0N
1:
1R
0;
1Q
1O
0Z
0O
0S
0<
0R
1;
1V
1Z
1S
1<
0X
0V
0Z
#250000
0!
0=
13
#255000
1!
1=
03
0g
0h
0W
0<
1Z
1Y
1X
0;
0`
0_
0^
0]
0\
0[
0Z
0X
0C
0B
0A
0@
0?
0>
0-
0.
0/
00
01
02
#260000
0!
0=
13
#265000
1!
1=
03
1j
1N
0:
1`
1_
1^
1[
1O
0Y
1C
1B
1A
1>
1-
1.
1/
12
#270000
0!
0=
13
#275000
1!
1=
03
0j
1i
1a
0N
1:
0Q
0O
0_
0^
1]
0[
1Q
1O
1Y
1;
0D
0B
0A
1@
0>
0,
0.
0/
10
02
0;
1X
0X
#280000
0!
0=
13
#285000
1!
1=
03
1j
1N
0:
1_
0]
0Q
0O
0Y
1B
0@
1.
00
1;
1X
#290000
0!
0=
13
#295000
1!
1=
03
0j
1h
0i
0N
1:
1R
0;
1Q
1O
0`
1^
1[
0O
1Y
1<
0X
0R
1;
0C
1A
1>
0-
1/
12
1Z
0<
1X
0Z
#300000
0!
0=
13
#305000
1!
1=
03
1j
1N
0:
0^
1\
0[
1O
0Y
0A
1?
0>
0/
11
02
#310000
0!
0=
13
#315000
1!
1=
03
0j
1i
0N
1:
0Q
0O
0_
1Q
1O
1Y
1R
0;
0B
0.
0R
1;
1<
0X
0<
1X
1Z
0Z
#320000
0!
0=
13
#325000
1!
1=
03
1j
0a
1N
0:
1`
1_
1^
0\
0Q
0O
0Y
1D
1C
1B
1A
0?
1,
1-
1.
1/
01
1R
0;
1<
0X
1Z
#330000
0!
0=
13
#335000
1!
1=
03
1g
0j
0h
0i
1a
1W
0S
0<
0N
1:
0R
1;
1Q
1O
0`
0_
0^
0Z
1Y
1X
1V
0O
1S
1<
0;
0D
0C
0B
0A
0,
0-
0.
0/
0V
1Z
0X
#340000
0!
0=
13
#345000
1!
1=
03
1j
0W
1N
0:
1_
0Y
1O
1B
1.
#350000
0!
0=
13
#355000
1!
1=
03
0j
1i
0a
1W
0N
1:
0Q
0O
1`
1^
1]
1\
1[
1Y
1Q
1O
1;
1D
1C
1A
1@
1?
1>
1,
1-
1/
10
11
12
0;
1X
0X
#360000
0!
0=
13
#365000
1!
1=
03
1j
0W
1N
0:
0Y
0Q
0O
1;
1X
#370000
0!
0=
13
#375000
1!
1=
03
0j
1h
0i
1W
0N
1:
1R
0;
1Q
1O
0Z
0O
0S
0<
0R
1;
1V
1Z
1S
1<
0X
0V
0Z
#380000
0!
0=
13
#385000
1!
1=
03
0g
0h
0W
0<
1Z
1Y
1X
0;
0`
0_
0^
0]
0\
0[
0Z
0X
0C
0B
0A
0@
0?
0>
0-
0.
0/
00
01
02
#390000
0!
0=
13
#395000
1!
1=
03
1j
1N
0:
1`
1_
1^
1[
1O
0Y
1C
1B
1A
1>
1-
1.
1/
12
#400000
0!
0=
13
#405000
1!
1=
03
0j
1i
1a
0N
1:
0Q
0O
0_
0^
1]
0[
1Q
1O
1Y
1;
0D
0B
0A
1@
0>
0,
0.
0/
10
02
0;
1X
0X
#410000
0!
0=
13
#415000
1!
1=
03
1j
1N
0:
1_
0]
0Q
0O
0Y
1B
0@
1.
00
1;
1X
#420000
0!
0=
13
#425000
1!
1=
03
0j
1h
0i
0N
1:
1R
0;
1Q
1O
0`
1^
1[
0O
1Y
1<
0X
0R
1;
0C
1A
1>
0-
1/
12
1Z
0<
1X
0Z
#430000
0!
0=
13
#435000
1!
1=
03
1j
1N
0:
0^
1\
0[
1O
0Y
0A
1?
0>
0/
11
02
#440000
0!
0=
13
#445000
1!
1=
03
0j
1i
0N
1:
0Q
0O
0_
1Q
1O
1Y
1R
0;
0B
0.
0R
1;
1<
0X
0<
1X
1Z
0Z
#450000
0!
0=
13
#455000
1!
1=
03
1j
0a
1N
0:
1`
1_
1^
0\
0Q
0O
0Y
1D
1C
1B
1A
0?
1,
1-
1.
1/
01
1R
0;
1<
0X
1Z
#460000
0!
0=
13
#465000
1!
1=
03
1g
0j
0h
0i
1a
1W
0S
0<
0N
1:
0R
1;
1Q
1O
0`
0_
0^
0Z
1Y
1X
1V
0O
1S
1<
0;
0D
0C
0B
0A
0,
0-
0.
0/
0V
1Z
0X
#470000
0!
0=
13
#475000
1!
1=
03
1j
0W
1N
0:
1_
0Y
1O
1B
1.
#480000
0!
0=
13
#485000
1!
1=
03
0j
1i
0a
1W
0N
1:
0Q
0O
1`
1^
1]
1\
1[
1Y
1Q
1O
1;
1D
1C
1A
1@
1?
1>
1,
1-
1/
10
11
12
0;
1X
0X
#490000
0!
0=
13
#495000
1!
1=
03
1j
0W
1N
0:
0Y
0Q
0O
1;
1X
#500000
0!
0=
13
#505000
1!
1=
03
0j
1h
0i
1W
0N
1:
1R
0;
1Q
1O
0Z
0O
0S
0<
0R
1;
1V
1Z
1S
1<
0X
0V
0Z
#510000
0!
0=
13
#515000
1!
1=
03
0g
0h
0W
0<
1Z
1Y
1X
0;
0`
0_
0^
0]
0\
0[
0Z
0X
0C
0B
0A
0@
0?
0>
0-
0.
0/
00
01
02
#520000
0!
0=
13
#525000
1!
1=
03
1j
1N
0:
1`
1_
1^
1[
1O
0Y
1C
1B
1A
1>
1-
1.
1/
12
#530000
0!
0=
13
#535000
1!
1=
03
0j
1i
1a
0N
1:
0Q
0O
0_
0^
1]
0[
1Q
1O
1Y
1;
0D
0B
0A
1@
0>
0,
0.
0/
10
02
0;
1X
0X
#540000
0!
0=
13
#545000
1!
1=
03
1j
1N
0:
1_
0]
0Q
0O
0Y
1B
0@
1.
00
1;
1X
#550000
0!
0=
13
#555000
1!
1=
03
0j
1h
0i
0N
1:
1R
0;
1Q
1O
0`
1^
1[
0O
1Y
1<
0X
0R
1;
0C
1A
1>
0-
1/
12
1Z
0<
1X
0Z
#560000
0!
0=
13
#565000
1!
1=
03
1j
1N
0:
0^
1\
0[
1O
0Y
0A
1?
0>
0/
11
02
#570000
0!
0=
13
#575000
1!
1=
03
0j
1i
0N
1:
0Q
0O
0_
1Q
1O
1Y
1R
0;
0B
0.
0R
1;
1<
0X
0<
1X
1Z
0Z
#580000
0!
0=
13
#585000
1!
1=
03
1j
0a
1N
0:
1`
1_
1^
0\
0Q
0O
0Y
1D
1C
1B
1A
0?
1,
1-
1.
1/
01
1R
0;
1<
0X
1Z
#590000
0!
0=
13
#595000
1!
1=
03
1g
0j
0h
0i
1a
1W
0S
0<
0N
1:
0R
1;
1Q
1O
0`
0_
0^
0Z
1Y
1X
1V
0O
1S
1<
0;
0D
0C
0B
0A
0,
0-
0.
0/
0V
1Z
0X
#600000
0!
0=
13
#605000
1!
1=
03
1j
0W
1N
0:
1_
0Y
1O
1B
1.
#610000
0!
0=
13
#615000
1!
1=
03
0j
1i
0a
1W
0N
1:
0Q
0O
1`
1^
1]
1\
1[
1Y
1Q
1O
1;
1D
1C
1A
1@
1?
1>
1,
1-
1/
10
11
12
0;
1X
0X
#620000
0!
0=
13
#625000
1!
1=
03
1j
0W
1N
0:
0Y
0Q
0O
1;
1X
#630000
0!
0=
13
#635000
1!
1=
03
0j
1h
0i
1W
0N
1:
1R
0;
1Q
1O
0Z
0O
0S
0<
0R
1;
1V
1Z
1S
1<
0X
0V
0Z
#640000
0!
0=
13
#645000
1!
1=
03
0g
0h
0W
0<
1Z
1Y
1X
0;
0`
0_
0^
0]
0\
0[
0Z
0X
0C
0B
0A
0@
0?
0>
0-
0.
0/
00
01
02
#650000
0!
0=
13
#655000
1!
1=
03
1j
1N
0:
1`
1_
1^
1[
1O
0Y
1C
1B
1A
1>
1-
1.
1/
12
#660000
0!
0=
13
#665000
1!
1=
03
0j
1i
1a
0N
1:
0Q
0O
0_
0^
1]
0[
1Q
1O
1Y
1;
0D
0B
0A
1@
0>
0,
0.
0/
10
02
0;
1X
0X
#670000
0!
0=
13
#675000
1!
1=
03
1j
1N
0:
1_
0]
0Q
0O
0Y
1B
0@
1.
00
1;
1X
#680000
0!
0=
13
#685000
1!
1=
03
0j
1h
0i
0N
1:
1R
0;
1Q
1O
0`
1^
1[
0O
1Y
1<
0X
0R
1;
0C
1A
1>
0-
1/
12
1Z
0<
1X
0Z
#690000
0!
0=
13
#695000
1!
1=
03
1j
1N
0:
0^
1\
0[
1O
0Y
0A
1?
0>
0/
11
02
#700000
0!
0=
13
#705000
1!
1=
03
0j
1i
0N
1:
0Q
0O
0_
1Q
1O
1Y
1R
0;
0B
0.
0R
1;
1<
0X
0<
1X
1Z
0Z
#710000
0!
0=
13
#715000
1!
1=
03
1j
0a
1N
0:
1`
1_
1^
0\
0Q
0O
0Y
1D
1C
1B
1A
0?
1,
1-
1.
1/
01
1R
0;
1<
0X
1Z
#720000
0!
0=
13
#725000
1!
1=
03
1g
0j
0h
0i
1a
1W
0S
0<
0N
1:
0R
1;
1Q
1O
0`
0_
0^
0Z
1Y
1X
1V
0O
1S
1<
0;
0D
0C
0B
0A
0,
0-
0.
0/
0V
1Z
0X
#730000
0!
0=
13
#735000
1!
1=
03
1j
0W
1N
0:
1_
0Y
1O
1B
1.
#740000
0!
0=
13
#745000
1!
1=
03
0j
1i
0a
1W
0N
1:
0Q
0O
1`
1^
1]
1\
1[
1Y
1Q
1O
1;
1D
1C
1A
1@
1?
1>
1,
1-
1/
10
11
12
0;
1X
0X
#750000
0!
0=
13
#755000
1!
1=
03
1j
0W
1N
0:
0Y
0Q
0O
1;
1X
#760000
0!
0=
13
#765000
1!
1=
03
0j
1h
0i
1W
0N
1:
1R
0;
1Q
1O
0Z
0O
0S
0<
0R
1;
1V
1Z
1S
1<
0X
0V
0Z
#770000
0!
0=
13
#775000
1!
1=
03
0g
0h
0W
0<
1Z
1Y
1X
0;
0`
0_
0^
0]
0\
0[
0Z
0X
0C
0B
0A
0@
0?
0>
0-
0.
0/
00
01
02
#780000
0!
0=
13
#785000
1!
1=
03
1j
1N
0:
1`
1_
1^
1[
1O
0Y
1C
1B
1A
1>
1-
1.
1/
12
#790000
0!
0=
13
#795000
1!
1=
03
0j
1i
1a
0N
1:
0Q
0O
0_
0^
1]
0[
1Q
1O
1Y
1;
0D
0B
0A
1@
0>
0,
0.
0/
10
02
0;
1X
0X
#800000
0!
0=
13
#805000
1!
1=
03
1j
1N
0:
1_
0]
0Q
0O
0Y
1B
0@
1.
00
1;
1X
#810000
0!
0=
13
#815000
1!
1=
03
0j
1h
0i
0N
1:
1R
0;
1Q
1O
0`
1^
1[
0O
1Y
1<
0X
0R
1;
0C
1A
1>
0-
1/
12
1Z
0<
1X
0Z
#820000
0!
0=
13
#825000
1!
1=
03
1j
1N
0:
0^
1\
0[
1O
0Y
0A
1?
0>
0/
11
02
#830000
0!
0=
13
#835000
1!
1=
03
0j
1i
0N
1:
0Q
0O
0_
1Q
1O
1Y
1R
0;
0B
0.
0R
1;
1<
0X
0<
1X
1Z
0Z
#840000
0!
0=
13
#845000
1!
1=
03
1j
0a
1N
0:
1`
1_
1^
0\
0Q
0O
0Y
1D
1C
1B
1A
0?
1,
1-
1.
1/
01
1R
0;
1<
0X
1Z
#850000
0!
0=
13
#855000
1!
1=
03
1g
0j
0h
0i
1a
1W
0S
0<
0N
1:
0R
1;
1Q
1O
0`
0_
0^
0Z
1Y
1X
1V
0O
1S
1<
0;
0D
0C
0B
0A
0,
0-
0.
0/
0V
1Z
0X
#860000
0!
0=
13
#865000
1!
1=
03
1j
0W
1N
0:
1_
0Y
1O
1B
1.
#870000
0!
0=
13
#875000
1!
1=
03
0j
1i
0a
1W
0N
1:
0Q
0O
1`
1^
1]
1\
1[
1Y
1Q
1O
1;
1D
1C
1A
1@
1?
1>
1,
1-
1/
10
11
12
0;
1X
0X
#880000
0!
0=
13
#885000
1!
1=
03
1j
0W
1N
0:
0Y
0Q
0O
1;
1X
#890000
0!
0=
13
#895000
1!
1=
03
0j
1h
0i
1W
0N
1:
1R
0;
1Q
1O
0Z
0O
0S
0<
0R
1;
1V
1Z
1S
1<
0X
0V
0Z
#900000
0!
0=
13
#905000
1!
1=
03
0g
0h
0W
0<
1Z
1Y
1X
0;
0`
0_
0^
0]
0\
0[
0Z
0X
0C
0B
0A
0@
0?
0>
0-
0.
0/
00
01
02
#910000
0!
0=
13
#915000
1!
1=
03
1j
1N
0:
1`
1_
1^
1[
1O
0Y
1C
1B
1A
1>
1-
1.
1/
12
#920000
0!
0=
13
#925000
1!
1=
03
0j
1i
1a
0N
1:
0Q
0O
0_
0^
1]
0[
1Q
1O
1Y
1;
0D
0B
0A
1@
0>
0,
0.
0/
10
02
0;
1X
0X
#930000
0!
0=
13
#935000
1!
1=
03
1j
1N
0:
1_
0]
0Q
0O
0Y
1B
0@
1.
00
1;
1X
#940000
0!
0=
13
#945000
1!
1=
03
0j
1h
0i
0N
1:
1R
0;
1Q
1O
0`
1^
1[
0O
1Y
1<
0X
0R
1;
0C
1A
1>
0-
1/
12
1Z
0<
1X
0Z
#950000
0!
0=
13
#955000
1!
1=
03
1j
1N
0:
0^
1\
0[
1O
0Y
0A
1?
0>
0/
11
02
#960000
0!
0=
13
#965000
1!
1=
03
0j
1i
0N
1:
0Q
0O
0_
1Q
1O
1Y
1R
0;
0B
0.
0R
1;
1<
0X
0<
1X
1Z
0Z
#970000
0!
0=
13
#975000
1!
1=
03
1j
0a
1N
0:
1`
1_
1^
0\
0Q
0O
0Y
1D
1C
1B
1A
0?
1,
1-
1.
1/
01
1R
0;
1<
0X
1Z
#980000
0!
0=
13
#985000
1!
1=
03
1g
0j
0h
0i
1a
1W
0S
0<
0N
1:
0R
1;
1Q
1O
0`
0_
0^
0Z
1Y
1X
1V
0O
1S
1<
0;
0D
0C
0B
0A
0,
0-
0.
0/
0V
1Z
0X
#990000
0!
0=
13
#995000
1!
1=
03
1j
0W
1N
0:
1_
0Y
1O
1B
1.
