數邏設計/verilogDesign/hw3_2/simulation/qsim/RELATIONAL.msim.vcd
$comment
	File created using the following command:
		vcd file RELATIONAL.msim.vcd -direction
$end
$date
	Mon Mar 10 13:39:59 2025
$end
$version
	ModelSim Version 10.1d
$end
$timescale
	1ps
$end
$scope module RELATIONAL_vlg_vec_tst $end
$var reg 4 ! A [3:0] $end
$var reg 4 " B [3:0] $end
$var wire 1 # LARGE $end
$var wire 1 $ LARGE_EQV $end
$var wire 1 % SMALL $end
$var wire 1 & SMALL_EQV $end
$var wire 1 ' sampler $end
$scope module i1 $end
$var wire 1 ( gnd $end
$var wire 1 ) vcc $end
$var wire 1 * unknown $end
$var tri1 1 + devclrn $end
$var tri1 1 , devpor $end
$var tri1 1 - devoe $end
$var wire 1 . A[3]~input_o $end
$var wire 1 / A[1]~input_o $end
$var wire 1 0 LARGE~output_o $end
$var wire 1 1 SMALL~output_o $end
$var wire 1 2 LARGE_EQV~output_o $end
$var wire 1 3 SMALL_EQV~output_o $end
$var wire 1 4 A[2]~input_o $end
$var wire 1 5 B[2]~input_o $end
$var wire 1 6 B[3]~input_o $end
$var wire 1 7 LessThan0~2_combout $end
$var wire 1 8 B[0]~input_o $end
$var wire 1 9 A[0]~input_o $end
$var wire 1 : B[1]~input_o $end
$var wire 1 ; LessThan0~1_combout $end
$var wire 1 < LessThan0~0_combout $end
$var wire 1 = LessThan0~3_combout $end
$var wire 1 > LessThan1~0_combout $end
$var wire 1 ? LessThan1~1_combout $end
$var wire 1 @ LessThan1~2_combout $end
$upscope $end
$upscope $end
$enddefinitions $end
#0
$dumpvars
b1001 !
b101 "
1#
1$
0%
0&
x'
0(
1)
x*
1+
1,
1-
1.
0/
10
01
12
03
04
15
06
07
18
19
0:
0;
1<
1=
0>
0?
0@
$end
#10000
b1 !
b101 !
b111 !
b1101 "
16
1/
14
0.
0'
1>
0<
1;
1@
0=
11
00
02
13
1%
0#
0$
1&
#20000
b110 !
b1111 "
b10 !
b111 "
1:
06
09
04
1'
1?
0;
#30000
b11 "
b10 "
b0 !
b1 !
b0 "
b1000 "
19
0/
08
0:
05
16
0'
0?
1;
#40000
b1001 !
b1101 !
b1100 "
b1111 !
b1110 "
1:
15
1/
14
1.
1'
0>
17
0@
1=
01
10
12
03
0%
1#
1$
0&
#50000
b1111 "
b111 !
b11 !
b1 !
0/
04
0.
18
0'
1?
0;
1>
07
1@
0=
11
00
02
13
1%
0#
0$
1&
#60000
b0 !
b1101 "
b1100 "
b10 !
08
0:
09
1/
1'
0?
1;
#70000
b1000 "
b1010 !
b1110 !
b1111 !
b1101 !
19
0/
14
1.
05
0'
0>
1<
0@
1=
01
10
12
03
0%
1#
1$
0&
#80000
b1010 "
b1110 "
1:
15
1'
1?
0;
0<
17
1@
0=
11
00
02
13
1%
0#
0$
1&
#90000
b1111 "
b1001 !
b1000 !
b1101 "
b1001 "
09
04
18
0:
05
0'
#100000
b1 "
b0 "
08
06
1'
0?
1<
07
0@
1=
01
10
12
03
0%
1#
1$
0&
#110000
b1010 !
b1110 !
b1111 !
b100 "
b1100 "
15
16
19
1/
14
0'
0<
17
1;
#120000
b1110 "
b1111 "
b1011 "
b11 "
18
1:
05
06
1'
0;
1<
07
#130000
b1101 !
b1001 !
0/
04
0'
1?
#140000
b1 !
b0 !
b10 "
b110 "
b1110 "
b10 !
08
15
16
09
1/
0.
1'
0?
1>
0<
1@
0=
11
00
02
13
1%
0#
0$
1&
#150000
b1100 "
b1010 !
b1101 "
1.
18
0:
0'
1;
#160000
b1110 !
b1111 !
b1101 !
b1111 "
1:
19
0/
14
1'
1?
0;
0>
17
#170000
b101 !
b1110 "
b1 !
b0 !
b10 !
08
09
1/
04
0.
0'
0?
1>
07
#180000
b1010 "
b10 "
b1010 !
b1110 !
b1111 !
19
14
1.
05
06
1'
1;
0>
1<
1=
0@
10
01
03
12
1#
0%
0&
1$
#190000
b110 "
b1011 !
04
15
0'
#200000
b1010 !
b1110 !
09
14
1'
0;
#210000
b1100 !
b1110 "
b100 !
16
0/
0.
0'
1>
0<
1?
1@
0=
11
00
02
13
1%
0#
0$
1&
#220000
b1100 "
b1101 "
b1001 "
b101 !
b111 !
b1 "
b1111 !
19
1/
1.
18
0:
05
06
1'
0?
1;
0>
1<
0@
1=
01
10
12
03
0%
1#
1$
0&
#230000
b11 "
b1110 !
b1100 !
09
0/
1:
0'
1?
0;
#240000
b1000 !
b10 "
b110 "
b0 !
b10 !
08
15
1/
04
0.
1'
0?
1>
0<
1@
0=
11
00
02
13
1%
0#
0$
1&
#250000
b1110 "
b1100 "
b11 !
b1101 "
b1011 !
19
1.
18
0:
16
0'
1;
#260000
b1111 !
b1101 !
b101 "
b1100 !
b100 !
06
09
0/
14
0.
1'
0>
17
1?
0;
#270000
b1 "
b11 "
b110 !
b111 !
19
1/
1:
05
0'
0?
1<
07
0@
1=
01
10
12
03
0%
1#
1$
0&
#280000
b1011 "
b1111 "
b1101 "
b101 !
b100 !
09
0/
0:
15
16
1'
1?
1>
0<
1@
0=
11
00
02
13
1%
0#
0$
1&
#290000
b1100 "
b1000 "
b1010 "
08
1:
05
0'
#300000
b1100 !
b10 "
b11 "
b111 "
b101 "
18
0:
15
06
1.
1'
0>
1<
0@
1=
01
10
12
03
0%
1#
1$
0&
#310000
b1000 !
b0 !
b100 "
b0 "
b10 "
08
1:
05
04
0.
0'
0<
17
0=
1@
00
11
13
02
0#
1%
1&
0$
#320000
b1 !
b1010 "
b1011 "
b1111 "
b1101 "
18
0:
15
16
19
1'
0?
1>
07
#330000
b11 !
b111 !
b1111 !
b1110 !
b101 "
b111 "
1:
06
09
1/
14
1.
0'
1?
0>
1<
0@
1=
01
10
12
03
0%
1#
1$
0&
#340000
b1100 !
b1000 !
b1111 "
b1101 "
0:
16
0/
04
1'
1>
0<
1@
0=
11
00
02
13
1%
0#
0$
1&
#350000
b1100 "
b1000 "
b1010 !
b0 "
1/
08
05
06
0'
0?
1;
0>
1<
0@
1=
01
10
12
03
0%
1#
1$
0&
#360000
b1110 !
b1000 "
16
14
1'
#370000
b110 !
b111 !
b1001 "
b101 !
b1 !
b1 "
18
06
19
0/
04
0.
0'
0;
0<
17
0=
00
13
0#
1&
#380000
b101 "
b1001 !
b100 "
b1101 !
b1100 "
14
1.
08
15
16
1'
1;
1=
10
03
1#
0&
#390000
b1100 !
b1110 !
b1000 "
05
09
1/
0'
1<
07
#400000
b1001 "
b1 "
b1111 !
b1101 !
19
0/
18
06
1'
0;
#410000
b11 "
b1011 "
1:
16
0'
1?
#420000
b1010 "
b1100 !
b1110 !
b1000 "
09
1/
08
0:
1'
0?
1;
#430000
b1100 "
b1101 "
b1111 "
18
1:
15
0'
1?
0;
0<
17
1@
0=
11
00
02
13
1%
0#
0$
1&
#440000
b1010 !
b111 "
b1011 !
b11 "
05
06
19
04
1'
1<
07
0?
1=
0@
10
01
03
12
1#
0%
0&
1$
#450000
b1001 !
b1011 "
16
0/
0'
0<
17
1?
0=
1@
00
11
13
02
0#
1%
1&
0$
#460000
b1 !
b11 !
1/
0.
1'
0?
1>
07
#470000
b1010 "
b1000 "
b10 !
b0 "
b0 !
09
0/
08
0:
06
0'
0>
17
0@
01
12
0%
1$
#480000
b10 "
b1 !
b1010 "
b11 !
19
1/
1:
16
1'
1;
1>
07
1@
11
02
1%
0$
#490000
b111 !
b1110 "
b1111 "
18
15
14
0'
0;
#500000
b110 !
b111 "
b100 !
b0 !
b11 "
05
06
09
0/
04
1'
0>
17
1?
#510000
b1000 !
b10 "
b1010 !
b1110 !
b110 "
08
15
1/
14
1.
0'
0?
1<
07
0@
1=
01
10
12
03
0%
1#
1$
0&
#520000
b1111 !
b111 !
b111 "
b11 "
18
05
19
0.
1'
#530000
b1 "
b1001 "
b101 !
b1101 !
b1101 "
0/
1.
0:
15
16
0'
0<
17
0=
00
13
0#
1&
#540000
b1001 !
b1000 !
b1100 "
b1110 "
b110 "
b1010 !
b10 !
08
1:
06
09
1/
04
0.
1'
1>
07
1@
11
02
1%
0$
#550000
b10 "
b11 !
b0 "
b1011 !
19
1.
0:
05
0'
1;
0>
1<
1=
0@
10
01
03
12
1#
0%
0&
1$
#560000
b1000 "
b1010 !
09
16
1'
0<
17
#570000
b1110 !
b1010 "
b10 "
b1111 !
1:
06
19
14
0'
1<
07
#580000
b111 !
b11 !
b0 "
0:
04
0.
1'
0<
17
#590000
b1 "
b1 !
b1001 !
0/
1.
18
0'
0;
1<
07
#600000
b1000 !
b0 "
b1010 !
08
09
1/
1'
1;
#610000
b100 "
b1100 "
b10 !
b11 !
b1101 "
19
0.
18
15
16
0'
1>
0<
1@
0=
11
00
02
13
1%
0#
0$
1&
#620000
b1 !
b0 !
b1100 "
08
09
0/
1'
0;
#630000
b1110 "
b1010 "
b1011 "
18
1:
05
0'
1?
#640000
b100 !
b1100 !
b1111 "
15
14
1.
1'
0>
17
#650000
b1101 !
b101 !
19
0.
0'
1>
07
#660000
b111 "
b101 "
b100 "
b1 !
b1001 !
04
1.
08
0:
06
1'
0>
1<
0?
1;
0@
1=
01
10
12
03
0%
1#
1$
0&
#670000
b0 "
b1000 !
b10 "
b11 "
b1100 !
09
14
18
1:
05
0'
1?
0;
#680000
b1110 !
b110 !
b111 !
b1 "
b0 "
b11 !
08
0:
19
1/
04
0.
1'
0?
1;
0<
17
#690000
b1000 "
b1 !
b0 !
b1010 "
b1011 "
09
0/
18
1:
16
0'
1?
0;
1>
07
1@
0=
11
00
02
13
1%
0#
0$
1&
#700000
b100 !
14
1'
#710000
b11 "
b101 !
b1 "
b0 "
19
08
0:
06
0'
0?
1;
0>
1<
0@
1=
01
10
12
03
0%
1#
1$
0&
#720000
b100 "
b1 !
b1100 "
b1110 "
04
1:
15
16
1'
1>
0<
1?
0;
1@
0=
11
00
02
13
1%
0#
0$
1&
#730000
b1001 !
b1011 !
b1010 !
b1111 "
b111 "
b101 "
18
0:
06
09
1/
1.
0'
0?
1;
0>
1<
0@
1=
01
10
12
03
0%
1#
1$
0&
#740000
b1 "
b10 !
b0 !
0/
0.
05
1'
1?
0;
0<
17
1@
0=
11
00
02
13
1%
0#
0$
1&
#750000
b1 !
b1001 "
b1011 "
b1001 !
1:
16
19
1.
0'
#760000
b1101 !
b1010 "
b1110 "
b1100 !
b110 "
b100 "
08
0:
15
06
09
14
1'
0?
1<
07
0@
1=
01
10
12
03
0%
1#
1$
0&
#770000
b0 "
b10 "
1:
05
0'
1?
#780000
b1110 !
b110 !
b1010 "
b1110 "
15
16
1/
0.
1'
1>
0<
0?
1@
0=
11
00
02
13
1%
0#
0$
1&
#790000
b10 !
b11 !
b1 !
b1001 !
b110 "
b10 "
05
06
19
0/
04
1.
0'
0>
1<
1?
0@
1=
01
10
12
03
0%
1#
1$
0&
#800000
b11 "
b1 "
b1101 !
b1111 !
b101 "
1/
14
18
0:
15
1'
0?
1;
#810000
b1110 !
b110 !
b111 "
b10 !
b0 !
1:
09
0/
04
0.
0'
1?
0;
1>
0<
1@
0=
11
00
02
13
1%
0#
0$
1&
#820000
b1111 "
b1110 "
b1010 "
b1000 !
b1000 "
b1100 !
b1110 !
1/
14
1.
08
0:
05
16
1'
0?
1;
0>
1<
0@
1=
01
10
12
03
0%
1#
1$
0&
#830000
b1111 !
b1100 "
b111 !
b1110 "
b11 !
1:
15
19
04
0.
0'
1>
0<
1@
0=
11
00
02
13
1%
0#
0$
1&
#840000
b1111 "
b1 !
b1001 !
b1101 !
0/
14
1.
18
1'
1?
0;
0>
17
#850000
b111 "
b1100 !
b11 "
b1 "
b0 "
b1110 !
b110 !
09
1/
0.
08
0:
05
06
0'
0?
1;
1<
07
0@
1=
01
10
12
03
0%
1#
1$
0&
#860000
b111 !
b1 "
b101 !
18
19
0/
1'
0;
#870000
b1 !
b1001 "
b1101 "
b1111 "
b0 !
b1110 "
b10 !
08
1:
15
16
09
1/
04
0'
1>
0<
1@
0=
11
00
02
13
1%
0#
0$
1&
#880000
b110 !
b1010 "
b1000 "
b111 !
0:
05
19
14
1'
1;
#890000
b1111 !
b0 "
b1011 !
b100 "
b1010 !
15
06
09
04
1.
0'
0>
1<
0@
1=
01
10
12
03
0%
1#
1$
0&
#900000
b101 "
b1000 !
b111 "
b1001 !
19
0/
18
1:
1'
1?
0;
#910000
b1 !
b101 !
b11 "
b10 "
b111 !
b110 !
08
05
09
1/
14
0.
0'
0?
#920000
b11 "
b100 !
0/
18
1'
1?
#930000
b1011 "
b1001 "
b1100 !
b1000 !
04
1.
0:
16
0'
0<
17
0=
1@
00
11
13
02
0#
1%
1&
0$
#940000
b1101 "
b101 "
b111 "
b1100 !
14
1:
15
06
1'
1<
07
1=
0@
10
01
03
12
1#
0%
0&
1$
#950000
b110 "
b100 !
b1110 "
b1100 "
0.
08
0:
16
0'
1>
0<
0?
1@
0=
11
00
02
13
1%
0#
0$
1&
#960000
b110 !
b10 !
b1010 !
b100 "
06
1/
04
1.
1'
0>
1<
1;
0@
1=
01
10
12
03
0%
1#
1$
0&
#970000
b1011 !
b0 "
b1 "
b1111 !
b111 !
18
05
19
14
0.
0'
#980000
b101 !
b1001 "
b1000 "
b1 !
08
16
0/
04
1'
1>
0<
1@
0=
11
00
02
13
1%
0#
0$
1&
#990000
b1010 "
b11 !
b1011 "
b111 !
1/
14
18
1:
0'
0;
