數邏設計/verilogDesign/hw4_3/simulation/qsim/DEMUL1_2.msim.vcd
$comment
	File created using the following command:
		vcd file DEMUL1_2.msim.vcd -direction
$end
$date
	Mon Mar 17 13:55:37 2025
$end
$version
	ModelSim Version 10.1d
$end
$timescale
	1ps
$end
$scope module DEMUL1_2_vlg_vec_tst $end
$var reg 1 ! DIN $end
$var reg 1 " S $end
$var wire 1 # Y [1] $end
$var wire 1 $ Y [0] $end
$var wire 1 % sampler $end
$scope module i1 $end
$var wire 1 & gnd $end
$var wire 1 ' vcc $end
$var wire 1 ( unknown $end
$var tri1 1 ) devclrn $end
$var tri1 1 * devpor $end
$var tri1 1 + devoe $end
$var wire 1 , Y[0]~output_o $end
$var wire 1 - Y[1]~output_o $end
$var wire 1 . S~input_o $end
$var wire 1 / DIN~input_o $end
$var wire 1 0 Y~0_combout $end
$var wire 1 1 Y~1_combout $end
$upscope $end
$upscope $end
$enddefinitions $end
#0
$dumpvars
0!
0"
0$
0#
x%
0&
1'
x(
1)
1*
1+
0,
0-
0.
0/
00
01
$end
#20000
1!
1"
1/
1.
0%
11
1-
1#
#40000
0!
0"
0/
0.
1%
01
0-
0#
#50000
1!
1"
1/
1.
0%
11
1-
1#
#70000
0!
0"
0/
0.
1%
01
0-
0#
#80000
1!
1/
0%
10
1,
1$
#100000
1"
0!
1.
0/
1%
00
0,
0$
#110000
0"
1!
0.
1/
0%
10
1,
1$
#120000
1"
1.
1%
11
00
1-
0,
1#
0$
#130000
0"
0.
0%
01
10
0-
1,
0#
1$
#150000
0!
1"
0/
1.
1%
00
0,
0$
#160000
1!
0"
1/
0.
0%
10
1,
1$
#180000
1"
1.
1%
11
00
1-
0,
1#
0$
#190000
0"
0.
0%
01
10
0-
1,
0#
1$
#210000
0!
0/
1%
00
0,
0$
#220000
1!
1/
0%
10
1,
1$
#230000
0!
0/
1%
00
0,
0$
#240000
1"
1.
0%
#250000
1!
0"
1/
0.
1%
10
1,
1$
#270000
0!
1"
0/
1.
0%
00
0,
0$
#280000
1!
1/
1%
11
1-
1#
#300000
0!
0/
0%
01
0-
0#
#310000
1!
1/
1%
11
1-
1#
#330000
0"
0!
0.
0/
0%
01
0-
0#
#340000
1"
1!
1.
1/
1%
11
1-
1#
#380000
0"
0!
0.
0/
0%
01
0-
0#
#390000
1"
1!
1.
1/
1%
11
1-
1#
#400000
0!
0/
0%
01
0-
0#
#410000
1!
1/
1%
11
1-
1#
#420000
0!
0/
0%
01
0-
0#
#430000
0"
1!
0.
1/
1%
10
1,
1$
#440000
1"
0!
1.
0/
0%
00
0,
0$
#450000
0"
0.
1%
#460000
1!
1"
1/
1.
0%
11
1-
1#
#470000
0"
0.
1%
01
10
0-
1,
0#
1$
#480000
0!
0/
0%
00
0,
0$
#490000
1"
1.
1%
#500000
0"
0.
0%
#510000
1!
1"
1/
1.
1%
11
1-
1#
#520000
0"
0.
0%
01
10
0-
1,
0#
1$
#530000
0!
0/
1%
00
0,
0$
#540000
1!
1/
0%
10
1,
1$
#550000
1"
1.
1%
11
00
1-
0,
1#
0$
#560000
0"
0.
0%
01
10
0-
1,
0#
1$
#570000
0!
1"
0/
1.
1%
00
0,
0$
#590000
1!
1/
0%
11
1-
1#
#600000
0!
0/
1%
01
0-
0#
#610000
0"
1!
0.
1/
0%
10
1,
1$
#620000
0!
0/
1%
00
0,
0$
#630000
1"
1!
1.
1/
0%
11
1-
1#
#640000
0"
0.
1%
01
10
0-
1,
0#
1$
#660000
0!
0/
0%
00
0,
0$
#670000
1"
1.
1%
#680000
0"
0.
0%
#710000
1!
1"
1/
1.
1%
11
1-
1#
#720000
0!
0"
0/
0.
0%
01
0-
0#
#740000
1"
1.
1%
#750000
1!
1/
0%
11
1-
1#
#760000
0"
0.
1%
01
10
0-
1,
0#
1$
#770000
0!
0/
0%
00
0,
0$
#790000
1"
1.
1%
#800000
1!
1/
0%
11
1-
1#
#810000
0"
0!
0.
0/
1%
01
0-
0#
#820000
1"
1.
0%
#830000
0"
0.
1%
#840000
1!
1/
0%
10
1,
1$
#850000
1"
0!
1.
0/
1%
00
0,
0$
#870000
0"
0.
0%
#880000
1!
1"
1/
1.
1%
11
1-
1#
#890000
0!
0/
0%
01
0-
0#
#900000
0"
1!
0.
1/
1%
10
1,
1$
#910000
1"
0!
1.
0/
0%
00
0,
0$
#920000
0"
0.
1%
#930000
1"
1.
0%
#960000
1!
1/
1%
11
1-
1#
#970000
0"
0.
0%
01
10
0-
1,
0#
1$
#980000
1"
1.
1%
11
00
1-
0,
1#
0$
