數邏設計/verilogDesign/hw9_1/simulation/qsim/test.msim.vcd
$comment
	File created using the following command:
		vcd file test.msim.vcd -direction
$end
$date
	Mon May 05 13:21:48 2025
$end
$version
	ModelSim Version 10.1d
$end
$timescale
	1ps
$end
$scope module test_vlg_vec_tst $end
$var reg 1 ! c0 $end
$var reg 4 " x [3:0] $end
$var reg 4 # y [3:0] $end
$var wire 1 $ c4 $end
$var wire 1 % s [3] $end
$var wire 1 & s [2] $end
$var wire 1 ' s [1] $end
$var wire 1 ( s [0] $end
$var wire 1 ) sampler $end
$scope module i1 $end
$var wire 1 * gnd $end
$var wire 1 + vcc $end
$var wire 1 , unknown $end
$var tri1 1 - devclrn $end
$var tri1 1 . devpor $end
$var tri1 1 / devoe $end
$var wire 1 0 c4~output_o $end
$var wire 1 1 s[0]~output_o $end
$var wire 1 2 s[1]~output_o $end
$var wire 1 3 s[2]~output_o $end
$var wire 1 4 s[3]~output_o $end
$var wire 1 5 c0~input_o $end
$var wire 1 6 x[0]~input_o $end
$var wire 1 7 carry~1_combout $end
$var wire 1 8 x[1]~input_o $end
$var wire 1 9 y[1]~input_o $end
$var wire 1 : carry~2_combout $end
$var wire 1 ; carry~3_combout $end
$var wire 1 < x[2]~input_o $end
$var wire 1 = carry~4_combout $end
$var wire 1 > x[3]~input_o $end
$var wire 1 ? y[3]~input_o $end
$var wire 1 @ carry~5_combout $end
$var wire 1 A y[0]~input_o $end
$var wire 1 B s~0_combout $end
$var wire 1 C carry~0_combout $end
$var wire 1 D s~1_combout $end
$var wire 1 E y[2]~input_o $end
$var wire 1 F s~2_combout $end
$var wire 1 G s~3_combout $end
$upscope $end
$upscope $end
$enddefinitions $end
#0
$dumpvars
0!
b1001 "
b1111 #
1$
0(
0'
0&
1%
x)
0*
1+
x,
1-
1.
1/
10
01
02
03
14
05
16
17
08
19
1:
0;
0<
1=
1>
1?
1@
1A
0B
0C
0D
1E
0F
1G
$end
#5000
1!
b1011 #
b1001 #
b1 "
b101 "
b100 "
15
06
1<
0>
09
0E
0)
0=
1;
0:
0G
1D
0;
04
12
0%
1'
1F
13
1&
1G
0@
14
00
1%
0$
#10000
b1 #
b101 #
b0 "
b1 "
16
0<
1E
0?
1)
1C
1B
0G
11
04
1(
0%
#15000
b100 #
b0 "
06
0A
0)
0C
07
0D
02
0'
#20000
b10 "
0!
b1010 "
b1100 #
b1000 #
b1110 "
b1001 #
05
1A
0E
1?
18
1<
1>
1)
1@
1D
10
12
1$
1'
#25000
1!
b1101 #
15
1E
0)
17
1=
0B
0F
1:
01
03
0(
0&
0D
1G
1;
02
14
0'
1%
1F
13
1&
#30000
b1111 #
b1111 "
b111 "
b111 #
b11 "
b110 #
16
0<
0>
0A
19
0?
1)
1C
07
0;
0F
0@
1D
03
00
12
0&
0$
1'
#35000
b1 "
b100 #
b0 "
b1000 "
b1100 #
b1100 "
b1101 #
1A
09
1?
06
08
1<
1>
0)
17
0:
0C
1;
1@
1F
0;
10
13
1$
1&
0F
03
0&
#40000
b1001 #
b1011 #
b1101 "
b101 "
b11 #
b10 #
16
0>
0A
19
0E
0?
1)
1C
07
1:
0=
0@
0D
1F
1;
00
02
13
0$
0'
1&
0F
0G
03
04
0&
0%
1G
14
1%
#45000
b111 "
b110 "
b1110 "
b1010 #
b1011 #
1A
1?
06
18
1>
0)
17
0C
1@
1D
10
12
1$
1'
#50000
b1111 #
b1100 "
b100 "
b111 #
08
0>
1E
0?
1)
1=
0D
0@
1F
02
00
13
0'
0$
1&
#55000
0!
b0 "
b1 "
b11 #
b11 "
b1011 "
b1011 #
05
0E
1?
16
18
0<
1>
0)
0=
0;
1@
1D
10
12
1$
1'
0G
04
0%
#60000
1!
b1111 "
b1111 #
b111 "
15
1E
1<
0>
1)
1C
1=
1;
1B
1G
0@
11
14
00
1(
1%
0$
0G
1@
04
10
0%
1$
#65000
b1101 #
b101 "
b101 #
0!
b1 "
b1001 "
08
0<
1>
09
0?
05
0)
0:
0;
0C
0F
0B
0=
03
01
0&
0(
1F
13
1&
1G
0@
14
00
1%
0$
#70000
b1 #
b11 #
b1101 "
b101 "
1<
0>
19
0E
1)
1:
0G
0D
1;
04
02
0%
0'
0F
03
0&
1G
14
1%
#75000
b10 #
b100 "
b1010 #
1!
b1110 #
b0 "
06
0<
0A
1E
1?
15
0)
07
1=
0;
1B
0G
1@
0:
11
04
10
1(
0%
1$
1D
0=
12
1'
1F
13
1&
1G
0@
14
00
1%
0$
#80000
b10 "
b1111 #
b11 "
b1011 #
b111 "
1A
0E
16
18
1<
1)
17
1C
1:
0D
1;
02
0'
1D
0F
12
03
1'
0&
0G
1@
04
10
0%
1$
#85000
b11 #
b101 "
b111 #
b1 "
08
0<
1E
0?
0)
1=
0;
0D
1G
0@
02
14
00
0'
1%
0$
#90000
0!
b110 #
b0 "
b1110 #
b10 "
b1010 #
05
06
18
0A
0E
1?
1)
0C
07
0=
0B
1D
1F
0G
1@
01
12
13
04
10
0(
1'
1&
0%
1$
0D
1G
0@
02
14
00
0'
1%
0$
#95000
1!
b1011 #
b11 "
b1 "
15
16
08
1A
0)
1C
17
0:
1B
1D
1:
11
12
1(
1'
0D
0F
02
03
0'
0&
1F
13
1&
#100000
b1001 "
b1101 "
b1111 #
b1110 #
b1100 "
b1110 "
0A
1E
06
18
1<
1>
1)
07
1=
0C
1;
1D
0G
1@
12
04
10
1'
0%
1$
0D
1G
02
14
0'
1%
#105000
b110 "
b1010 #
b1011 #
b111 "
1A
0E
16
0>
0)
17
0=
1C
0F
0G
03
04
0&
0%
1D
12
1'
#110000
b1001 #
b1 #
b101 #
b110 "
06
09
1E
0?
1)
0C
1=
0B
0D
1F
1G
0@
01
02
13
14
00
0(
0'
1&
1%
0$
#115000
b10 "
b1010 "
b1011 "
16
0<
1>
0)
1C
0;
1B
0F
0G
1@
11
03
04
10
1(
0&
0%
1$
#120000
0!
b1001 "
b100 #
b110 #
b10 #
05
0A
19
0E
08
1)
0C
07
0=
1F
0:
13
1&
1D
1G
0@
12
14
00
1'
1%
0$
0F
03
0&
#125000
b1010 #
b1011 "
18
1?
0)
1:
0D
0G
1@
02
04
10
0'
0%
1$
1F
13
1&
#130000
b1010 "
1!
b1000 #
b1100 #
b100 #
b1000 "
15
09
1E
0?
06
08
1)
0:
1=
0F
1G
0@
0=
03
14
00
0&
1%
0$
1F
0G
1@
13
04
10
1&
0%
1$
1G
0@
14
00
1%
0$
#135000
b1100 "
b101 #
b1101 "
b111 #
b1111 #
b1111 "
1A
19
1?
16
18
1<
0)
17
1:
1C
1=
0G
1@
0F
1;
04
10
03
0%
1$
0&
1D
1F
1G
12
13
14
1'
1&
1%
#140000
0!
b1011 "
05
0<
1)
0C
0;
0B
0F
01
03
0(
0&
#145000
b1110 #
b1100 #
b100 #
b1001 "
1!
b1101 "
08
1<
0A
09
0?
15
0)
0:
1;
07
1C
1F
0G
0;
13
04
1&
0%
0F
03
0&
#150000
b101 "
b101 #
b111 #
b1111 #
0!
1A
19
1?
0>
05
1)
17
1:
0C
0D
1;
02
0'
1F
13
1&
#155000
b100 "
b0 "
b1110 #
b1100 #
0A
09
06
0<
0)
07
0:
0;
1D
0F
0=
12
03
1'
0&
0D
1F
02
13
0'
1&
1G
0@
14
00
1%
0$
#160000
b10 "
b100 #
b11 "
b110 #
19
0?
16
18
1)
1:
0G
1B
1=
04
11
0%
1(
0F
03
0&
1G
14
1%
#165000
b1011 "
b1111 "
b1101 "
b1110 #
b1100 "
1?
06
08
1<
1>
0)
0:
1;
1@
0B
1D
1F
0;
10
01
12
13
1$
0(
1'
1&
0F
03
0&
#170000
b1010 #
1!
b1011 #
b1000 "
b11 #
15
0<
1A
0E
0?
1)
17
0=
0G
1:
04
0%
0D
1G
0@
02
14
00
0'
1%
0$
1F
13
1&
#175000
b1 #
b101 #
09
1E
0)
0:
1=
1D
0F
0=
12
03
1'
0&
1F
0G
1@
13
04
10
1&
0%
1$
1G
0@
14
00
1%
0$
#180000
b0 "
b10 "
b11 "
0!
b100 #
05
0A
16
18
0>
1)
07
1:
1B
0D
0G
0:
1=
11
02
04
1(
0'
0%
1D
0F
0=
12
03
1'
0&
1F
1G
13
14
1&
1%
0G
04
0%
#185000
b111 "
b0 #
b1111 "
b1110 "
1!
b1 #
1A
0E
06
1<
1>
15
0)
17
0B
1G
1:
01
14
0(
1%
0D
1;
02
0'
0F
03
0&
0G
1@
04
10
0%
1$
#190000
b1001 #
b1011 #
b1100 "
b1111 #
0!
b1110 #
08
0A
19
1E
1?
05
1)
07
1=
1F
1G
0:
13
14
1&
1%
1D
0;
12
1'
0F
03
0&
#195000
b1101 "
b1111 "
1!
b1111 #
15
1A
16
18
0)
1C
17
1:
1B
0D
1;
11
02
1(
0'
1D
1F
12
13
1'
1&
#200000
b1011 #
b1101 "
b1010 #
08
0A
0E
1)
07
0=
0D
0B
0F
02
01
03
0'
0(
0&
#205000
b101 "
0!
b111 "
b1011 #
05
1A
18
0>
0)
0C
17
1D
0G
12
04
1'
0%
#210000
b11 "
b1001 #
b10 "
1!
09
06
0<
15
1)
0;
0D
1F
02
13
0'
1&
1G
0@
14
00
1%
0$
#215000
b1 #
b101 #
b1010 "
b1011 "
16
1>
1E
0?
0)
1C
1=
1B
0F
11
03
1(
0&
0G
1@
04
10
0%
1$
#220000
b1111 "
b111 #
0!
b11 #
b111 "
b110 "
19
0E
06
1<
0>
05
1)
0=
0C
07
1;
1D
1G
0@
12
14
00
1'
1%
0$
0D
02
0'
#225000
b10 "
b1 #
b11 "
09
16
0<
0)
0:
17
0;
1D
0B
1F
1:
12
01
13
1'
0(
1&
0F
0D
0G
03
02
04
0&
0'
0%
1F
13
1&
#230000
b1001 #
b1101 #
b1011 "
b1111 #
1>
19
1E
1?
1)
1=
1@
1D
0F
10
12
03
1$
1'
0&
1G
14
1%
#235000
b1001 "
b1110 #
b1101 "
b1100 "
b1010 #
b100 "
b1000 #
0A
09
0E
06
08
1<
0>
0)
07
0:
0=
1;
0G
0;
04
0%
0D
1F
02
13
0'
1&
1G
0@
14
00
1%
0$
#240000
1!
b0 #
b1 #
b101 "
b1101 "
b11 #
15
16
1>
1A
19
0?
1)
1C
17
1B
1D
1:
11
12
1(
1'
0D
1;
02
0'
0F
03
0&
0G
1@
04
10
0%
1$
#245000
b1011 #
1?
0)
1G
14
1%
#250000
b1111 "
b1011 "
b1111 #
b11 "
b111 #
1E
0?
18
0<
0>
1)
1=
0;
0@
1D
00
12
0$
1'
#255000
0!
b10 "
b101 #
b0 "
b100 "
b1100 "
05
09
06
08
1<
1>
0)
0C
07
0:
1;
1F
0G
1@
0;
13
04
10
1&
0%
1$
0D
0F
02
03
0'
0&
#260000
b1 #
1!
b1101 "
b1111 "
b1011 "
15
16
18
0<
0E
1)
1C
17
0=
1D
1:
12
1'
0D
1G
0@
02
14
00
0'
1%
0$
1F
13
1&
#265000
b0 #
b1000 #
b11 "
b1 "
08
0>
0A
1?
0)
0:
07
1D
0B
12
01
1'
0(
0F
03
0&
#270000
b1100 #
0!
b100 #
b1001 "
05
1>
1E
0?
1)
0C
1B
1F
11
13
1(
1&
0D
02
0'
#275000
b110 #
b111 #
b1111 #
1A
19
1?
0)
17
0B
1D
0G
1@
1:
01
12
04
10
0(
1'
0%
1$
0D
1=
02
0'
0F
03
0&
1G
14
1%
#280000
b1000 "
b1010 "
1!
b111 #
15
0?
06
18
1)
0G
1D
04
12
0%
1'
#285000
b1110 "
b101 #
b1111 "
b1101 "
0!
b1101 #
09
1?
16
08
1<
05
0)
0:
1;
1G
1F
0;
14
13
1%
1&
0F
03
0&
#290000
b1001 "
b1111 #
19
0<
1)
1:
0=
0D
1F
1=
02
13
0'
1&
0F
0G
03
04
0&
0%
1G
14
1%
#295000
b1 "
b1110 #
b0 "
1!
b110 #
b100 "
0A
0?
06
1<
0>
15
0)
07
1;
1B
0@
1F
0:
11
00
13
1(
0$
1&
1D
0;
12
1'
0F
03
0&
#300000
b1110 #
1?
1)
0G
1@
04
10
0%
1$
#305000
b1010 #
b1100 "
b1011 #
b1000 "
b11 #
0<
1>
1A
0E
0?
0)
0=
17
0B
1:
01
0(
1G
0@
0D
14
00
02
1%
0$
0'
1F
13
1&
#310000
b1010 "
b111 #
b110 #
b1110 "
0A
1E
18
1<
1)
07
1=
1;
1B
1D
11
12
1(
1'
0D
0G
1@
02
04
10
0'
0%
1$
#315000
b100 #
b110 "
0>
09
0)
0:
1G
0@
1D
0;
14
00
12
1%
0$
1'
0F
03
0&
#320000
b1100 #
b100 "
b1110 #
b1100 "
08
1>
19
1?
1)
1@
10
1$
#325000
b1101 "
b110 #
b1111 "
b100 #
b111 "
09
0?
16
18
0>
0)
1C
0@
0B
1:
00
01
0$
0(
0D
1;
02
0'
1F
13
1&
#330000
b11 "
b1100 #
b1110 #
19
1?
0<
1)
0;
1D
0G
1@
0F
12
04
10
03
1'
0%
1$
0&
#335000
b1010 #
b1011 #
b1 "
b101 "
08
1<
1A
0E
0)
0=
1;
17
0D
1B
02
11
0'
1(
#340000
b1101 "
b11 #
b1 #
b101 #
b1001 "
09
1E
0?
0<
1>
1)
0:
1=
0;
1D
0=
12
1'
1F
13
1&
1G
0@
14
00
1%
0$
#345000
b100 #
b1100 #
b1101 "
1<
0A
1?
0)
1=
07
0F
0B
0G
1@
03
01
04
10
0&
0(
0%
1$
1G
14
1%
#350000
0!
b1111 "
b1000 #
b0 #
b1011 "
05
0E
0?
18
0<
1)
0C
0=
1:
1B
0G
0D
0:
11
04
02
1(
0%
0'
1D
1G
0@
1F
12
14
00
13
1'
1%
0$
1&
0F
03
0&
#355000
b1010 "
b10 "
b10 #
b11 #
1!
b111 #
b1111 #
1A
19
1E
1?
06
0>
15
0)
17
1:
0B
0D
1F
1=
01
02
13
0(
0'
1&
1D
0F
12
03
1'
0&
0G
1@
04
10
0%
1$
#360000
b0 "
b1 "
b1001 "
b1110 #
b110 #
0A
0?
16
08
1>
1)
07
1C
0D
02
0'
#365000
b1101 "
b100 #
0!
b1111 "
b1110 "
b110 "
b101 #
1A
09
06
18
1<
0>
05
0)
0C
1;
1B
1F
1G
0@
0:
11
13
14
00
1(
1&
1%
0$
1D
0;
12
1'
0F
03
0&
#370000
b1 #
b1001 #
b1011 #
1!
b100 "
b101 "
b1101 "
b1010 #
15
16
08
1>
0A
19
0E
1?
1)
1C
0=
0B
1@
1F
1:
01
10
13
0(
1$
1&
0D
0G
1;
02
04
0'
0%
0F
03
0&
1G
14
1%
#375000
b10 #
b0 #
0!
b1111 "
b1110 "
b1 #
05
06
18
1A
09
0?
0)
0C
1B
0G
0:
11
04
1(
0%
1D
0;
12
1'
1F
13
1&
1G
0@
14
00
1%
0$
#380000
b1010 "
b11 #
b1000 "
b1001 "
19
16
08
0<
1)
17
0B
0F
1:
01
03
0(
0&
0D
02
0'
1F
13
1&
#385000
b1011 #
b1010 #
b1101 "
b1000 #
b1100 "
06
1<
0A
09
1?
0)
07
1;
0:
0F
1D
0G
1@
0;
03
12
04
10
0&
1'
0%
1$
0D
1G
1F
02
14
13
0'
1%
1&
0G
04
0%
#390000
b1100 #
b100 "
1!
b100 #
b101 #
b111 #
0>
1A
19
1E
0?
15
1)
17
1=
0@
1D
0F
1:
00
12
03
0$
1'
0&
0D
1G
1;
02
14
0'
1%
1F
13
1&
#395000
b110 "
b111 "
b11 #
b1111 "
0!
b10 #
0A
0E
16
18
1>
05
0)
07
0=
1B
0F
1D
0G
1@
11
03
12
04
10
1(
0&
1'
0%
1$
0D
02
0'
#400000
b0 #
1!
b1 #
1A
09
15
1)
17
0:
1C
1D
1:
0;
12
1'
0D
1F
1;
02
13
0'
1&
0F
1G
0@
03
14
00
0&
1%
0$
0G
1@
04
10
0%
1$
#405000
b1001 #
0!
b1000 #
0A
1?
05
0)
07
0C
1G
0:
14
1%
1D
0;
12
1'
1F
13
1&
0G
04
0%
#410000
b1100 #
b100 #
b101 #
1A
1E
0?
1)
17
1=
0B
0F
1G
0@
1:
01
03
14
00
0(
0&
1%
0$
0D
0G
1@
1;
02
04
10
0'
0%
1$
1F
13
1&
#415000
b1101 "
b101 "
b111 #
1!
b1111 #
b1110 #
0A
19
1?
08
0>
15
0)
07
1C
#420000
b1 "
b0 "
b1010 #
b10 "
b1000 #
0!
09
0E
06
18
0<
05
1)
0=
0C
0;
0:
1G
0@
1D
14
00
12
1%
0$
1'
0F
03
0&
#425000
b1010 "
b0 #
b10 #
1!
19
0?
1>
15
0)
1:
0D
1B
02
11
0'
1(
1F
13
1&
#430000
b1000 "
b0 "
08
0>
1)
0:
1D
0G
12
04
1'
0%
0F
03
0&
#435000
b0 #
b10 "
18
09
0)
#440000
b1000 #
0!
b1010 "
b1000 "
05
08
1>
1?
1)
0B
0D
1@
01
02
10
0(
0'
1$
#445000
b1001 "
b1100 #
b100 #
b1 "
b11 "
1E
0?
16
18
0>
0)
1F
0@
1B
1D
13
00
11
12
1&
0$
1(
1'
#450000
b101 #
b111 #
1!
b11 #
b1011 #
b1 "
15
08
1A
19
0E
1?
1)
1C
17
0F
1G
1:
03
14
0&
1%
0D
02
0'
1F
13
1&
#455000
b101 "
b100 "
b1100 "
0!
b1111 #
b1110 "
05
1E
06
18
1<
1>
0)
0C
07
1=
1;
1D
0G
1@
12
04
10
1'
0%
1$
0D
1G
02
14
0'
1%
#460000
b1110 #
b1100 #
b100 #
b1111 "
b111 "
1!
b0 #
b101 "
16
08
0>
0A
09
0E
0?
15
1)
1C
0:
0=
0B
0@
0F
0;
01
00
03
0(
0$
0&
1D
1F
12
13
1'
1&
0G
04
0%
#465000
b1 "
b10 #
0!
b110 #
19
1E
0<
05
0)
1:
0C
0D
1B
1=
0:
02
11
0'
1(
0F
1D
0=
03
12
0&
1'
1G
1F
14
13
1%
1&
0G
04
0%
#470000
b111 #
b1001 "
b1101 "
1!
b11 #
1<
1>
1A
0E
15
1)
17
1C
1G
1:
14
1%
0D
1;
02
0'
0F
03
0&
0G
1@
04
10
0%
1$
#475000
b1011 #
b1100 "
b100 "
0!
06
0>
1?
05
0)
0C
07
0:
1D
0;
12
1'
1F
13
1&
1G
0@
14
00
1%
0$
#480000
b110 "
b1001 #
b1101 #
1!
09
1E
18
15
1)
1=
17
0F
0B
1:
03
01
0&
0(
0G
1@
0D
1;
04
10
02
0%
1$
0'
1F
13
1&
#485000
b10 "
b101 #
b0 "
b1 #
0!
0E
0?
08
0<
05
0)
0=
0:
0;
07
1G
0@
1D
1B
14
00
12
11
1%
0$
1'
1(
0G
0F
0D
04
03
02
0%
0&
0'
#490000
b0 #
b1 "
b10 #
b101 "
b111 "
16
18
1<
0A
19
1)
1:
1F
1;
13
1&
0F
03
0&
1G
14
1%
#495000
b110 #
1!
b101 "
15
08
1E
0)
1C
0:
1=
0B
1D
1F
1:
0;
01
12
13
0(
1'
1&
0D
0F
1;
02
03
0'
0&
1F
13
1&
#500000
b1101 "
b1110 #
b1100 "
0!
1?
06
1>
05
1)
0C
1@
0:
10
1$
1D
0;
12
1'
0F
03
0&
#505000
b1111 #
b1000 "
b1011 #
b0 "
1!
0<
0>
1A
0E
15
0)
0=
17
0G
1:
04
0%
1G
0@
0D
14
00
02
1%
0$
0'
1F
13
1&
#510000
b100 "
b1100 "
1<
1>
1)
1;
0F
0G
1@
03
04
10
0&
0%
1$
1G
14
1%
#515000
b11 #
b1101 "
b10 #
b110 #
b1001 "
b1 "
16
0<
0>
0A
1E
0?
0)
1C
07
1=
0;
0@
00
0$
#520000
b11 "
b10 "
06
18
1)
0C
1B
1D
11
12
1(
1'
0D
02
0'
#525000
b1110 #
b110 "
b100 "
08
1<
1?
0)
0:
1;
1D
1F
0G
1@
0;
12
13
04
10
1'
1&
0%
1$
0F
03
0&
#530000
b1100 #
b1101 #
b1001 #
b1 #
b0 "
0<
1A
09
0E
0?
1)
0=
17
0B
0D
1G
0@
01
02
14
00
0(
0'
1%
0$
0G
1D
04
12
0%
1'
#535000
0!
b1000 "
b0 #
b100 #
b1100 #
b1100 "
05
0A
1E
1?
1<
1>
0)
07
1=
1@
10
1$
0D
1G
02
14
0'
1%
#540000
b1110 "
b1000 #
b0 #
b1010 "
0E
0?
18
0<
1)
0=
0G
1D
04
12
0%
1'
1G
0@
14
00
1%
0$
#545000
b1011 "
1!
b1 #
b1001 "
15
1A
16
08
0)
1C
17
1B
0D
11
02
1(
0'
1D
12
1'
#550000
b11 #
b111 #
b1111 #
b1011 "
18
19
1E
1?
1)
1:
1F
0G
1@
1=
13
04
10
1&
0%
1$
0F
03
0&
1G
14
1%
#555000
b1111 "
b1110 #
b110 #
0A
0?
1<
0)
07
1;
0B
0G
1F
01
04
13
0(
0%
1&
#560000
b111 "
0!
b10 #
b11 #
05
1A
0E
0>
1)
0C
17
0=
0F
1G
0@
03
14
00
0&
1%
0$
#565000
b1 #
b1001 #
b1111 "
b1101 #
1>
09
1E
1?
0)
1=
1@
0D
1F
10
02
13
1$
0'
1&
#570000
b1101 "
b101 #
b101 "
0?
08
0>
1)
0:
0@
1D
0;
00
12
0$
1'
0F
03
0&
#575000
b100 "
b0 "
1!
b100 #
b0 #
b1000 #
15
0A
0E
1?
06
0<
0)
07
0=
1B
0G
1@
11
04
10
1(
0%
1$
0D
1G
0@
02
14
00
0'
1%
0$
#580000
b1000 "
b1001 "
0!
16
1>
05
1)
0G
1@
04
10
0%
1$
#585000
b1011 "
b1001 #
b1101 #
b11 "
1!
1A
1E
18
0>
15
0)
17
1C
1F
1D
1G
0@
1:
13
12
14
00
1&
1'
1%
0$
0D
1=
02
0'
0F
03
0&
0G
1@
04
10
0%
1$
#590000
b1111 #
b111 "
b111 #
b110 "
b100 "
b11 #
b1100 "
06
08
1<
1>
19
0E
0?
1)
0C
0=
1;
0B
01
0(
#595000
0!
b1000 "
b1010 "
05
18
0<
0)
07
0;
1B
1D
1F
11
12
13
1(
1'
1&
0D
1G
0@
02
14
00
0'
1%
0$
#600000
b10 "
b110 "
1<
0>
1)
1;
0F
0G
03
04
0&
0%
1G
14
1%
#605000
b10 #
b111 "
16
0A
0)
#610000
b0 #
b1000 #
b1100 #
b101 "
b1101 "
b1001 "
b1000 "
06
08
0<
1>
09
1E
1?
1)
0:
1=
0;
0B
1@
0=
01
10
0(
1$
1F
13
1&
0G
04
0%
#615000
1!
b1101 #
b0 "
b100 "
b101 "
15
16
1<
0>
1A
0)
1C
17
1=
1B
0F
1G
0@
11
03
14
00
1(
0&
1%
0$
1D
0G
1@
12
04
10
1'
0%
1$
#620000
b1111 #
b111 #
b11 #
0!
b10 #
b1101 "
b1001 "
b1000 "
05
06
0<
1>
0A
19
0E
0?
1)
0C
07
0=
1:
0B
0D
0:
01
02
0(
0'
1D
1G
0@
1F
12
14
00
13
1'
1%
0$
1&
0F
03
0&
#625000
b1010 "
b1010 #
1!
b1011 #
b1110 "
b1111 "
1A
1?
16
18
1<
15
0)
17
1C
1:
1B
0G
1@
0D
1F
1;
11
04
10
02
13
1(
0%
1$
0'
1&
1D
0F
12
03
1'
0&
1G
14
1%
#630000
b1111 #
b1101 "
0!
b1110 #
b1001 "
b1000 "
06
08
0<
0A
1E
05
1)
0C
07
1=
0;
0B
0D
0:
01
02
0(
0'
1D
0=
12
1'
1F
13
1&
0G
04
0%
#635000
b110 #
b10 #
0E
0?
0)
0F
1G
0@
03
14
00
0&
1%
0$
#640000
b0 #
b1 #
b1100 "
b1101 "
16
1<
1A
09
1)
17
1F
0D
13
02
1&
0'
1D
12
1'
#645000
b101 "
1!
b1001 #
b1101 #
b1100 #
b100 "
15
0A
1E
1?
06
0>
0)
07
1=
1B
0F
11
03
1(
0&
0D
0G
1@
02
04
10
0'
0%
1$
#650000
b1100 "
b1101 #
b1101 "
1A
16
1>
1)
17
1C
1G
14
1%
1D
12
1'
#655000
b1111 "
0!
b1001 #
05
0E
18
0)
0C
0=
1:
0B
1F
0D
1;
01
13
02
0(
1&
0'
0G
0F
04
03
0%
0&
1G
14
1%
#660000
b1011 "
b11 "
b1000 #
b10 "
b0 "
1!
b1100 #
0A
1E
06
08
0<
0>
15
1)
07
1=
0:
0;
1B
1D
0G
0=
11
12
04
1(
1'
0%
0D
1F
02
13
0'
1&
1G
0@
14
00
1%
0$
#665000
b100 #
b1000 "
b101 #
b1001 "
b1011 "
16
18
1>
1A
0?
0)
1C
17
1D
1:
12
1'
0D
1=
02
0'
0F
03
0&
0G
1@
04
10
0%
1$
#670000
b1111 "
b1 #
b111 "
b110 "
0E
06
1<
0>
1)
0=
0C
1;
0B
1G
0@
01
14
00
0(
1%
0$
#675000
b11 #
b10 "
0<
19
0)
0;
1F
1D
13
12
1&
1'
0G
04
0%
#680000
0!
b10 #
b110 #
b11 "
05
16
0A
1E
1)
07
1=
1B
0F
11
03
1(
0&
0D
1G
02
14
0'
1%
#685000
b1110 #
b1100 #
1!
b1101 #
1A
09
1?
15
0)
17
0:
1C
1D
0G
1@
1:
0=
12
04
10
1'
0%
1$
0D
1F
1=
02
13
0'
1&
0F
1G
0@
03
14
00
0&
1%
0$
0G
1@
04
10
0%
1$
#690000
b1 "
b101 "
b1001 #
b100 "
b1011 #
b1010 #
0A
19
0E
06
08
1<
1)
07
0=
0C
1;
0:
1D
0;
12
1'
1F
13
1&
1G
0@
14
00
1%
0$
#695000
b1100 "
b10 #
0!
b1101 "
0?
16
1>
05
0)
#700000
b1111 "
b110 #
b111 #
b1111 #
1!
1A
1E
1?
18
15
1)
17
1=
1:
1C
0F
0G
1@
0D
1;
03
04
10
02
0&
0%
1$
0'
1D
1G
1F
12
14
13
1'
1%
1&
#705000
b1101 #
b1101 "
b1001 #
08
09
0E
0)
0:
0=
0F
0;
03
0&
1F
13
1&
0G
04
0%
#710000
b1000 #
b0 #
0!
b10 #
b1111 "
05
18
0A
19
0?
1)
0C
07
1:
1G
0@
1;
14
00
1%
0$
0D
0F
02
03
0'
0&
0G
1@
04
10
0%
1$
#715000
b1110 "
b1010 #
b1000 #
09
1?
06
0)
0:
1D
1G
0B
0;
12
14
01
1'
1%
0(
1F
13
1&
0G
04
0%
#720000
b1010 "
b1100 #
1!
b1110 #
19
1E
0<
15
1)
1:
0D
1B
1=
02
11
0'
1(
0F
03
0&
1G
14
1%
#725000
b1110 "
b1100 #
09
1<
0)
0:
1;
1D
1F
0;
12
13
1'
1&
0F
03
0&
#730000
b1101 #
b1100 "
b101 #
0!
b111 #
08
1A
19
0?
05
1)
0G
04
0%
#735000
b11 #
b1000 "
0<
0E
0)
0=
1G
0@
14
00
1%
0$
#740000
b1001 "
b10 #
b1010 #
1!
b1110 #
0A
1E
1?
16
15
1)
1C
0B
1F
0G
1@
1:
01
13
04
10
0(
1&
0%
1$
0D
1=
02
0'
0F
03
0&
1G
14
1%
#745000
b1100 #
b1101 "
b1100 "
b100 #
06
1<
09
0?
0)
0C
1;
0:
1B
1F
1D
0G
0;
11
13
12
04
1(
1&
1'
0%
0D
0F
02
03
0'
0&
#750000
b1110 "
b101 #
b1 #
b11 #
1A
19
0E
18
1)
17
1:
0=
0B
1F
1;
01
13
0(
1&
1D
0F
1G
0@
12
03
14
00
1'
0&
1%
0$
0G
1@
04
10
0%
1$
#755000
b110 "
b1011 #
b1010 #
b1110 #
b1100 #
0A
09
1E
1?
0>
0)
07
1=
1B
0D
1F
0:
11
02
13
1(
0'
1&
1D
0;
12
1'
0F
03
0&
#760000
0!
b111 "
b101 "
05
16
08
1)
0D
02
0'
#765000
b1 "
b1001 "
b1000 #
b1010 #
1!
b1000 "
b1010 "
19
0E
06
18
0<
1>
15
0)
1:
0=
1G
14
1%
1F
0G
13
04
1&
0%
#770000
b1110 "
b110 "
b1000 #
b111 "
09
16
1<
0>
1)
0:
1C
1;
1D
0B
0F
1G
0@
0;
1:
12
01
03
14
00
1'
0(
0&
1%
0$
1F
0D
0G
1@
1;
13
02
04
10
1&
0'
0%
1$
1G
0@
0F
14
00
03
1%
0$
0&
0G
1@
04
10
0%
1$
#775000
b0 #
b1 #
b101 #
0!
b11 "
b1011 "
05
0<
1>
1A
1E
0?
0)
0C
17
1=
0;
#780000
b100 #
b0 #
1!
b1111 "
b111 "
15
1<
0>
0A
0E
1)
1C
07
0=
1;
1G
0@
14
00
1%
0$
#785000
b10 #
b1010 #
b1011 #
b1111 #
0!
b11 "
05
0<
1A
19
1E
1?
0)
0C
17
1=
0;
1D
0G
1@
12
04
10
1'
0%
1$
#790000
b1 "
b0 "
b1000 "
b111 #
0?
06
08
1>
1)
07
1B
0D
0:
11
02
1(
0'
1D
0=
12
1'
1F
13
1&
1G
0@
14
00
1%
0$
#795000
b110 #
b10 #
b1100 "
b1110 "
b110 "
18
1<
0>
0A
0E
0)
1:
0D
0G
0B
1;
02
04
01
0'
0%
0(
0F
03
0&
1G
14
1%
#800000
b0 #
b1000 #
b1100 #
b10 "
0<
09
1E
1?
1)
1=
0;
0:
1D
0G
1@
0=
12
04
10
1'
0%
1$
1F
13
1&
1G
0@
14
00
1%
0$
#805000
b0 "
b1000 "
08
1>
0)
0D
0G
1@
02
04
10
0'
0%
1$
#810000
b1001 "
b1101 #
b1111 #
b1011 "
1A
19
16
18
1)
17
1:
1=
1D
0F
12
03
1'
0&
1G
14
1%
#815000
1!
b111 #
b11 "
b110 #
15
0>
0A
0?
0)
1C
07
0@
00
0$
#820000
b10 #
b0 #
b1 "
b1000 #
08
09
0E
1?
1)
0:
0=
1F
0G
1@
13
04
10
1&
0%
1$
0F
1G
0@
03
14
00
0&
1%
0$
#825000
b1001 "
b0 #
0?
1>
0)
