數邏設計/verilogDesign/hw3_1/simulation/qsim/BITWISE.msim.vcd
$comment
	File created using the following command:
		vcd file BITWISE.msim.vcd -direction
$end
$date
	Mon Mar 10 13:11:34 2025
$end
$version
	ModelSim Version 10.1d
$end
$timescale
	1ps
$end
$scope module BITWISE_vlg_vec_tst $end
$var reg 1 ! A $end
$var reg 1 " B $end
$var wire 1 # AND_OP $end
$var wire 1 $ NAND_OP $end
$var wire 1 % NOR_OP $end
$var wire 1 & NOT_OP $end
$var wire 1 ' OR_OP $end
$var wire 1 ( XNOR_OP $end
$var wire 1 ) XOR_OP $end
$var wire 1 * sampler $end
$scope module i1 $end
$var wire 1 + gnd $end
$var wire 1 , vcc $end
$var wire 1 - unknown $end
$var tri1 1 . devclrn $end
$var tri1 1 / devpor $end
$var tri1 1 0 devoe $end
$var wire 1 1 NOT_OP~output_o $end
$var wire 1 2 AND_OP~output_o $end
$var wire 1 3 OR_OP~output_o $end
$var wire 1 4 XOR_OP~output_o $end
$var wire 1 5 NAND_OP~output_o $end
$var wire 1 6 NOR_OP~output_o $end
$var wire 1 7 XNOR_OP~output_o $end
$var wire 1 8 A~input_o $end
$var wire 1 9 B~input_o $end
$var wire 1 : AND_OP~0_combout $end
$var wire 1 ; OR_OP~0_combout $end
$var wire 1 < XOR_OP~0_combout $end
$upscope $end
$upscope $end
$enddefinitions $end
#0
$dumpvars
0!
1"
0#
1$
0%
1&
1'
0(
1)
x*
0+
1,
x-
1.
1/
10
11
02
13
14
15
06
07
08
19
0:
1;
1<
$end
#10000
1!
0"
18
09
0*
01
0&
#30000
0!
08
1*
11
1&
0<
0;
04
03
17
16
0)
0'
1(
1%
#40000
1"
19
0*
1<
1;
14
13
07
06
1)
1'
0(
0%
#50000
1!
0"
18
09
1*
01
0&
#70000
1"
19
0*
0<
1:
04
12
17
05
0)
1#
1(
0$
#80000
0!
08
1*
11
1&
1<
0:
14
02
07
15
1)
0#
0(
1$
#120000
1!
18
0*
01
0&
0<
1:
04
12
17
05
0)
1#
1(
0$
#130000
0!
08
1*
11
1&
1<
0:
14
02
07
15
1)
0#
0(
1$
#140000
0"
1!
09
18
0*
01
0&
#150000
1"
19
1*
0<
1:
04
12
17
05
0)
1#
1(
0$
#160000
0!
08
0*
11
1&
1<
0:
14
02
07
15
1)
0#
0(
1$
#170000
0"
09
1*
0<
0;
04
03
17
16
0)
0'
1(
1%
#180000
1!
1"
18
19
0*
01
0&
1;
1:
13
12
06
05
1'
1#
0%
0$
#190000
0!
08
1*
11
1&
1<
0:
14
02
07
15
1)
0#
0(
1$
#200000
1!
18
0*
01
0&
0<
1:
04
12
17
05
0)
1#
1(
0$
#210000
0"
0!
09
08
1*
11
1&
0;
0:
03
02
16
15
0'
0#
1%
1$
#220000
1"
19
0*
1<
1;
14
13
07
06
1)
1'
0(
0%
#240000
0"
09
1*
0<
0;
04
03
17
16
0)
0'
1(
1%
#250000
1"
19
0*
1<
1;
14
13
07
06
1)
1'
0(
0%
#260000
1!
0"
18
09
1*
01
0&
#270000
0!
08
0*
11
1&
0<
0;
04
03
17
16
0)
0'
1(
1%
#280000
1!
18
1*
01
0&
1<
1;
14
13
07
06
1)
1'
0(
0%
#290000
0!
08
0*
11
1&
0<
0;
04
03
17
16
0)
0'
1(
1%
#300000
1"
19
1*
1<
1;
14
13
07
06
1)
1'
0(
0%
#310000
1!
0"
18
09
0*
01
0&
#330000
1"
19
1*
0<
1:
04
12
17
05
0)
1#
1(
0$
#340000
0!
08
0*
11
1&
1<
0:
14
02
07
15
1)
0#
0(
1$
#360000
1!
18
1*
01
0&
0<
1:
04
12
17
05
0)
1#
1(
0$
#370000
0"
0!
09
08
0*
11
1&
0;
0:
03
02
16
15
0'
0#
1%
1$
#380000
1"
1!
19
18
1*
01
0&
1;
1:
13
12
06
05
1'
1#
0%
0$
#390000
0!
08
0*
11
1&
1<
0:
14
02
07
15
1)
0#
0(
1$
#410000
1!
18
1*
01
0&
0<
1:
04
12
17
05
0)
1#
1(
0$
#420000
0!
08
0*
11
1&
1<
0:
14
02
07
15
1)
0#
0(
1$
#430000
1!
18
1*
01
0&
0<
1:
04
12
17
05
0)
1#
1(
0$
#460000
0"
0!
09
08
0*
11
1&
0;
0:
03
02
16
15
0'
0#
1%
1$
#510000
1"
1!
19
18
1*
01
0&
1;
1:
13
12
06
05
1'
1#
0%
0$
#520000
0"
0!
09
08
0*
11
1&
0;
0:
03
02
16
15
0'
0#
1%
1$
#530000
1"
19
1*
1<
1;
14
13
07
06
1)
1'
0(
0%
#540000
0"
09
0*
0<
0;
04
03
17
16
0)
0'
1(
1%
#550000
1"
19
1*
1<
1;
14
13
07
06
1)
1'
0(
0%
#570000
1!
18
0*
01
0&
0<
1:
04
12
17
05
0)
1#
1(
0$
#580000
0"
09
1*
1<
0:
14
02
07
15
1)
0#
0(
1$
#590000
1"
19
0*
0<
1:
04
12
17
05
0)
1#
1(
0$
#610000
0"
09
1*
1<
0:
14
02
07
15
1)
0#
0(
1$
#620000
0!
08
0*
11
1&
0<
0;
04
03
17
16
0)
0'
1(
1%
#640000
1"
19
1*
1<
1;
14
13
07
06
1)
1'
0(
0%
#650000
0"
09
0*
0<
0;
04
03
17
16
0)
0'
1(
1%
#660000
1"
19
1*
1<
1;
14
13
07
06
1)
1'
0(
0%
#670000
1!
18
0*
01
0&
0<
1:
04
12
17
05
0)
1#
1(
0$
#680000
0"
09
1*
1<
0:
14
02
07
15
1)
0#
0(
1$
#710000
0!
08
0*
11
1&
0<
0;
04
03
17
16
0)
0'
1(
1%
#730000
1"
1!
19
18
1*
01
0&
1;
1:
13
12
06
05
1'
1#
0%
0$
#740000
0"
09
0*
1<
0:
14
02
07
15
1)
0#
0(
1$
#750000
1"
19
1*
0<
1:
04
12
17
05
0)
1#
1(
0$
#780000
0"
09
0*
1<
0:
14
02
07
15
1)
0#
0(
1$
#790000
1"
19
1*
0<
1:
04
12
17
05
0)
1#
1(
0$
#800000
0!
08
0*
11
1&
1<
0:
14
02
07
15
1)
0#
0(
1$
#810000
0"
1!
09
18
1*
01
0&
#820000
1"
0!
19
08
0*
11
1&
#830000
0"
09
1*
0<
0;
04
03
17
16
0)
0'
1(
1%
#840000
1!
1"
18
19
0*
01
0&
1;
1:
13
12
06
05
1'
1#
0%
0$
#850000
0"
09
1*
1<
0:
14
02
07
15
1)
0#
0(
1$
#860000
0!
08
0*
11
1&
0<
0;
04
03
17
16
0)
0'
1(
1%
#870000
1!
18
1*
01
0&
1<
1;
14
13
07
06
1)
1'
0(
0%
#880000
0!
08
0*
11
1&
0<
0;
04
03
17
16
0)
0'
1(
1%
#890000
1"
1!
19
18
1*
01
0&
1;
1:
13
12
06
05
1'
1#
0%
0$
#910000
0"
09
0*
1<
0:
14
02
07
15
1)
0#
0(
1$
#920000
0!
08
1*
11
1&
0<
0;
04
03
17
16
0)
0'
1(
1%
#930000
1"
19
0*
1<
1;
14
13
07
06
1)
1'
0(
0%
#940000
1!
18
1*
01
0&
0<
1:
04
12
17
05
0)
1#
1(
0$
#950000
0"
0!
09
08
0*
11
1&
0;
0:
03
02
16
15
0'
0#
1%
1$
#960000
1"
19
1*
1<
1;
14
13
07
06
1)
1'
0(
0%
#970000
1!
0"
18
09
0*
01
0&
