practice_verilog/A=B=C/simulation/qsim/test.msim.vcd
$comment
	File created using the following command:
		vcd file test.msim.vcd -direction
$end
$date
	Wed Mar 05 10:24:43 2025
$end
$version
	ModelSim Version 10.1d
$end
$timescale
	1ps
$end
$scope module test_vlg_vec_tst $end
$var reg 3 ! A [2:0] $end
$var reg 3 " B [2:0] $end
$var reg 3 # C [2:0] $end
$var wire 1 $ F $end
$var wire 1 % sampler $end
$scope module i1 $end
$var wire 1 & gnd $end
$var wire 1 ' vcc $end
$var wire 1 ( unknown $end
$var tri1 1 ) devclrn $end
$var tri1 1 * devpor $end
$var tri1 1 + devoe $end
$var wire 1 , C[0]~input_o $end
$var wire 1 - F~output_o $end
$var wire 1 . B[2]~input_o $end
$var wire 1 / B[0]~input_o $end
$var wire 1 0 A[0]~input_o $end
$var wire 1 1 C[1]~input_o $end
$var wire 1 2 A[1]~input_o $end
$var wire 1 3 B[1]~input_o $end
$var wire 1 4 F~0_combout $end
$var wire 1 5 F~1_combout $end
$var wire 1 6 A[2]~input_o $end
$var wire 1 7 C[2]~input_o $end
$var wire 1 8 F~2_combout $end
$upscope $end
$upscope $end
$enddefinitions $end
#0
$dumpvars
b110 !
b111 "
b111 #
0$
x%
0&
1'
x(
1)
1*
1+
1,
0-
1.
1/
00
11
12
13
04
15
16
17
18
$end
#10000
b10 !
b0 !
02
06
0%
14
#20000
b1 !
10
1%
#30000
b101 !
b111 !
b110 !
00
12
16
0%
04
#40000
b100 !
02
1%
14
#60000
b110 !
12
0%
04
#80000
b10 !
06
1%
#90000
b11 !
b111 !
10
16
0%
05
08
1-
1$
#100000
b11 !
06
1%
18
0-
0$
#110000
b1 !
b0 !
00
02
0%
15
14
#120000
b1 !
10
1%
#130000
b101 !
16
0%
#140000
b100 !
00
1%
#150000
b110 !
b10 !
b11 !
10
12
06
0%
04
05
#160000
b1 !
b0 !
00
02
1%
15
14
#170000
b100 !
b110 !
12
16
0%
04
#180000
b111 !
10
1%
05
08
1-
1$
#190000
b110 !
00
0%
15
18
0-
0$
#200000
b10 !
b0 !
02
06
1%
14
#210000
b100 !
b110 !
12
16
0%
04
#220000
b10 !
06
1%
#230000
b11 !
b1 !
b101 !
10
02
16
0%
05
14
08
15
18
1-
1$
0-
0$
#240000
b111 !
12
1%
04
05
08
1-
1$
#250000
b11 !
06
0%
18
0-
0$
#260000
b10 !
b110 !
00
16
1%
15
08
18
1-
1$
0-
0$
#270000
b111 !
10
0%
05
08
1-
1$
#280000
b11 !
b10 !
00
06
1%
15
18
0-
0$
#290000
b0 !
b1 !
10
02
0%
05
14
15
#300000
b101 !
b100 !
00
16
1%
#320000
b110 !
12
0%
04
#330000
b100 !
02
1%
14
#340000
b0 !
b10 !
12
06
0%
04
#350000
b11 !
b111 !
10
16
1%
05
08
1-
1$
#360000
b110 !
b10 !
00
06
0%
15
18
0-
0$
#370000
b0 !
b100 !
02
16
1%
14
#380000
b101 !
10
0%
#390000
b111 !
b11 !
b10 !
00
12
06
1%
04
#400000
b110 !
b111 !
10
16
0%
05
08
1-
1$
#410000
b11 !
06
1%
18
0-
0$
#420000
b111 !
16
0%
08
1-
1$
#430000
b101 !
02
1%
14
15
18
0-
0$
#450000
b100 !
b0 !
00
06
0%
#460000
b10 !
12
1%
04
#470000
b11 !
10
0%
05
#480000
b111 !
b101 !
b100 !
00
02
16
1%
15
14
08
18
1-
1$
0-
0$
#490000
b0 !
b1 !
10
06
0%
#500000
b0 !
00
1%
#510000
b10 !
b11 !
10
12
0%
04
05
#520000
b111 !
b110 !
00
16
1%
15
08
18
1-
1$
0-
0$
#530000
b100 !
b101 !
10
02
0%
05
14
08
15
18
1-
1$
0-
0$
#550000
b100 !
00
1%
#560000
b0 !
b10 !
12
06
0%
04
#580000
b0 !
02
1%
14
#590000
b1 !
10
0%
#600000
b101 !
b100 !
00
16
1%
#620000
b101 !
10
0%
#630000
b111 !
b11 !
b10 !
00
12
06
1%
04
#640000
b0 !
b1 !
10
02
0%
05
14
15
#650000
b11 !
12
1%
04
05
#660000
b10 !
00
0%
15
#670000
b110 !
16
1%
#680000
b10 !
06
0%
#690000
b0 !
b1 !
b101 !
10
02
16
1%
05
14
08
15
18
1-
1$
0-
0$
#710000
b111 !
b11 !
12
06
0%
04
05
#720000
b10 !
b0 !
00
02
1%
15
14
#730000
b100 !
b101 !
10
16
0%
#740000
b1 !
b0 !
00
06
1%
#750000
b10 !
b110 !
12
16
0%
04
#760000
b10 !
06
1%
#770000
b11 !
10
0%
05
#780000
b111 !
b110 !
00
16
1%
15
08
18
1-
1$
0-
0$
#790000
b100 !
b0 !
02
06
0%
14
#800000
b1 !
b101 !
10
16
1%
#810000
b111 !
12
0%
04
05
08
1-
1$
#820000
b11 !
06
1%
18
0-
0$
#830000
b10 !
00
0%
15
#860000
b110 !
16
1%
#870000
b111 !
b11 !
10
06
0%
05
#880000
b1 !
02
1%
14
15
#890000
b0 !
b100 !
b110 !
00
12
16
0%
04
#900000
b100 !
02
1%
14
#910000
b101 !
b1 !
10
06
0%
#920000
b0 !
00
1%
#930000
b10 !
b110 !
12
16
0%
04
#940000
b10 !
06
1%
#950000
b11 !
10
0%
05
#970000
b111 !
16
1%
08
1-
1$
#980000
b110 !
b10 !
00
06
0%
15
18
0-
0$
#990000
b0 !
02
1%
14
