數邏設計/verilogDesign/hw5_6/simulation/qsim/PRIORITY.msim.vcd
$comment
	File created using the following command:
		vcd file PRIORITY.msim.vcd -direction
$end
$date
	Mon Mar 24 14:56:21 2025
$end
$version
	ModelSim Version 10.1d
$end
$timescale
	1ps
$end
$scope module PRIORITY_vlg_vec_tst $end
$var reg 1 ! A $end
$var reg 1 " B $end
$var reg 1 # C $end
$var reg 1 $ X $end
$var reg 1 % Y $end
$var wire 1 & F $end
$var wire 1 ' sampler $end
$scope module i1 $end
$var wire 1 ( gnd $end
$var wire 1 ) vcc $end
$var wire 1 * unknown $end
$var tri1 1 + devclrn $end
$var tri1 1 , devpor $end
$var tri1 1 - devoe $end
$var wire 1 . B~input_o $end
$var wire 1 / F~output_o $end
$var wire 1 0 C~input_o $end
$var wire 1 1 Y~input_o $end
$var wire 1 2 X~input_o $end
$var wire 1 3 F~0_combout $end
$var wire 1 4 A~input_o $end
$var wire 1 5 F~1_combout $end
$upscope $end
$upscope $end
$enddefinitions $end
#0
$dumpvars
1!
1"
0#
1$
1%
1&
x'
0(
1)
x*
1+
1,
1-
1.
1/
00
11
12
03
14
15
$end
#10000
0%
01
0'
#20000
0$
02
1'
05
0/
0&
#30000
0!
1#
04
10
0'
13
15
1/
1&
#40000
1%
1!
0#
11
14
00
1'
#50000
0"
0%
0!
1#
0.
01
04
10
0'
#60000
1$
1%
12
11
1'
03
05
0/
0&
#70000
1"
1!
0$
1.
14
02
0'
13
15
1/
1&
#80000
0!
04
1'
#90000
0#
0%
0"
1!
00
01
0.
14
0'
03
05
0/
0&
#100000
1%
11
1'
#110000
1$
1#
1"
0!
0%
12
10
1.
04
01
0'
#120000
0#
1%
00
11
1'
#130000
0"
0.
0'
#140000
1!
14
1'
15
1/
1&
#150000
0$
0%
1"
0!
02
01
1.
04
0'
05
0/
0&
#160000
1#
10
1'
13
15
1/
1&
#170000
1%
11
0'
#180000
1!
14
1'
#190000
1$
0"
12
0.
0'
03
#200000
0#
0%
0$
1"
00
01
02
1.
1'
05
0/
0&
#210000
1$
12
0'
15
1/
1&
#220000
0!
0$
04
02
1'
05
0/
0&
#230000
1#
1%
0"
10
11
0.
0'
#240000
1!
1$
0%
14
12
01
1'
15
1/
1&
#250000
1"
0$
1.
02
0'
13
05
0/
0&
15
1/
1&
#260000
0!
04
1'
#270000
1%
1!
11
14
0'
#280000
0"
0%
0!
0.
01
04
1'
#290000
1$
12
0'
03
05
0/
0&
#300000
0#
1%
1!
0$
00
11
14
02
1'
#310000
1"
1#
0%
1.
10
01
0'
13
15
1/
1&
#320000
0!
0"
0#
04
0.
00
1'
03
05
0/
0&
#330000
1$
1%
1"
1#
12
11
1.
10
0'
#340000
0$
0%
0"
02
01
0.
1'
13
15
1/
1&
#360000
1!
1$
1"
14
12
1.
0'
03
#370000
0#
1%
00
11
1'
#380000
0!
1#
0%
04
10
01
0'
05
0/
0&
#390000
0$
0"
1!
0#
1%
02
0.
14
00
11
1'
#400000
1$
1#
12
10
0'
15
1/
1&
#410000
0!
0%
0#
04
01
00
1'
05
0/
0&
#420000
1"
1!
1%
1#
1.
14
11
10
0'
15
1/
1&
#430000
0!
0%
04
01
1'
05
0/
0&
#440000
0#
00
0'
#450000
0"
1#
0.
10
1'
#460000
0$
1!
1%
0#
02
14
11
00
0'
#470000
1"
1$
0!
1.
12
04
1'
#480000
1#
0"
0$
1!
10
0.
02
14
0'
#490000
0%
0!
01
04
1'
13
15
1/
1&
#500000
1$
1%
1!
12
11
14
0'
03
#510000
0#
0$
0%
0!
00
02
01
04
1'
05
0/
0&
#520000
1#
1%
10
11
0'
#530000
1$
0#
12
00
1'
#540000
1!
1#
14
10
0'
15
1/
1&
#550000
1"
0$
0#
1.
02
00
1'
13
05
0/
0&
15
1/
1&
#560000
0!
0"
1$
1#
04
0.
12
10
0'
03
05
0/
0&
#570000
0%
1"
0$
01
1.
02
1'
13
15
1/
1&
#580000
1!
0#
0"
1$
14
00
0.
12
0'
03
#590000
0!
1"
04
1.
1'
05
0/
0&
#600000
1%
1#
0$
1!
0"
11
10
02
14
0.
0'
#610000
0%
0#
01
00
1'
#630000
0!
04
0'
#640000
1$
1%
1!
12
11
14
1'
15
1/
1&
#650000
1"
1#
0$
0%
1.
10
02
01
0'
13
05
0/
0&
15
1/
1&
#660000
0"
1%
0.
11
1'
03
05
0/
0&
#670000
1$
1"
12
1.
0'
15
1/
1&
#680000
0!
0#
0$
0"
04
00
02
0.
1'
05
0/
0&
#690000
0%
1#
01
10
0'
13
15
1/
1&
#700000
1!
1$
1"
14
12
1.
1'
03
#710000
0#
0!
0"
00
04
0.
0'
05
0/
0&
#720000
1%
0$
1#
1!
1"
11
02
10
14
1.
1'
13
15
1/
1&
#730000
0%
1$
0#
0!
0"
01
12
00
04
0.
0'
03
05
0/
0&
#740000
0$
1#
1!
1"
02
10
14
1.
1'
13
15
1/
1&
#750000
1$
0#
0!
0"
12
00
04
0.
0'
03
05
0/
0&
#760000
0$
1"
02
1.
1'
#770000
1#
1$
0"
10
12
0.
0'
#780000
1!
1"
14
1.
1'
15
1/
1&
#790000
1%
0$
11
02
0'
13
05
0/
0&
15
1/
1&
#800000
0"
0%
1$
0.
01
12
1'
03
#810000
0!
0$
04
02
0'
13
05
0/
0&
15
1/
1&
#820000
0#
1%
1!
00
11
14
1'
03
05
0/
0&
#830000
1$
0!
12
04
0'
#840000
1"
0%
0$
1.
01
02
1'
#850000
1#
1!
0"
1%
1$
10
14
0.
11
12
0'
15
1/
1&
#860000
1"
1.
1'
#870000
0#
0!
0"
00
04
0.
0'
05
0/
0&
#880000
0$
02
1'
#890000
1#
10
0'
#900000
1"
0#
1.
00
1'
13
15
1/
1&
#910000
1!
0"
1#
14
0.
10
0'
03
05
0/
0&
#920000
0%
1$
0!
0#
01
12
04
00
1'
#930000
1!
1#
14
10
0'
15
1/
1&
#940000
1"
1%
1.
11
1'
#950000
0$
0!
0%
02
04
01
0'
13
05
0/
0&
15
1/
1&
#960000
0"
1$
0.
12
1'
03
05
0/
0&
#970000
0#
1!
1%
1"
0$
00
14
11
1.
02
0'
13
15
1/
1&
#980000
0!
0"
1$
04
0.
12
1'
03
05
0/
0&
#990000
1#
0%
10
01
0'
