數邏設計/verilogDesign/hw6_3/simulation/qsim/MUL3_1.msim.vcd
$comment
	File created using the following command:
		vcd file MUL3_1.msim.vcd -direction
$end
$date
	Mon Mar 31 13:48:44 2025
$end
$version
	ModelSim Version 10.1d
$end
$timescale
	1ps
$end
$scope module MUL3_1_vlg_vec_tst $end
$var reg 3 ! I [2:0] $end
$var reg 2 " S [1:0] $end
$var wire 1 # F $end
$var wire 1 $ sampler $end
$scope module i1 $end
$var wire 1 % gnd $end
$var wire 1 & vcc $end
$var wire 1 ' unknown $end
$var tri1 1 ( devclrn $end
$var tri1 1 ) devpor $end
$var tri1 1 * devoe $end
$var wire 1 + Mux0~0_combout $end
$var wire 1 , I[2]~input_o $end
$var wire 1 - I[0]~input_o $end
$var wire 1 . F~output_o $end
$var wire 1 / I[1]~input_o $end
$var wire 1 0 S[0]~input_o $end
$var wire 1 1 Mux0~1_combout $end
$var wire 1 2 S[1]~input_o $end
$var wire 1 3 Mux1~0_combout $end
$var wire 1 4 F$latch~combout $end
$upscope $end
$upscope $end
$enddefinitions $end
#0
$dumpvars
b10 !
b0 "
0#
x$
0%
1&
x'
1(
1)
1*
0+
0,
0-
0.
1/
00
01
02
13
04
$end
#10000
b1 "
b110 !
1,
10
0$
11
14
1.
1#
#20000
b111 !
b0 "
00
1-
1$
01
1+
11
04
0.
0#
14
1.
1#
#30000
b10 "
b11 !
b10 !
b11 "
0-
0,
10
12
0$
0+
03
#40000
b0 !
b1 "
b0 "
00
02
0/
1$
13
01
04
0.
0#
#50000
b100 !
b101 !
b1 "
10
1-
1,
0$
#60000
b111 !
b11 "
b11 !
12
1/
0,
1$
03
11
#70000
b1 "
b111 !
1,
02
0$
13
14
1.
1#
#80000
b101 !
b11 "
b1 !
12
0/
0,
1$
03
01
#90000
b10 "
b0 "
b101 !
1,
00
02
0$
1+
13
11
04
0.
0#
14
1.
1#
#100000
b1 "
b11 "
b1 !
0,
10
12
1$
0+
03
01
#110000
b0 !
b10 !
b10 "
b0 "
b110 !
00
02
0-
1/
1,
0$
13
04
0.
0#
#120000
b111 !
b101 !
b1 "
b11 "
10
12
1-
0/
1$
03
#130000
b111 !
b1 "
02
1/
0$
13
11
14
1.
1#
#140000
b11 !
b10 !
b0 "
b0 !
b10 "
00
12
0-
0/
0,
1$
01
04
0.
0#
#150000
b100 !
b101 !
b11 "
b111 !
10
1-
1/
1,
0$
03
11
#160000
b101 !
0/
1$
01
#170000
b1 !
b0 !
b10 "
b10 !
00
0-
1/
0,
0$
13
#180000
b0 "
b110 !
b111 !
b1 "
b101 !
1-
0/
1,
10
02
1$
#190000
b1 !
b0 !
b0 "
b10 !
00
0-
1/
0,
0$
#200000
b110 !
b100 !
0/
1,
1$
#210000
b101 !
b1 "
b1 !
10
1-
0,
0$
#220000
b0 !
0-
1$
#230000
b11 "
b10 !
b10 "
b11 !
1-
1/
00
12
0$
#240000
b111 !
b0 "
02
1,
1$
1+
11
14
1.
1#
#250000
b110 !
b10 "
12
0-
0$
#260000
b100 !
0/
1$
#270000
b0 !
b1 !
1-
0,
0$
0+
01
04
0.
0#
#290000
b11 "
b11 !
b111 !
1/
1,
10
1$
11
03
#300000
b1 "
b110 !
b100 !
0-
0/
02
0$
01
13
#310000
b0 "
b10 "
b110 !
1/
00
12
1$
1+
11
14
1.
1#
#320000
b10 !
b11 "
10
0,
0$
03
0+
#330000
b0 !
b100 !
0/
1,
1$
01
#340000
b101 !
b111 !
1-
1/
0$
11
#350000
b10 "
b11 !
0,
00
1$
13
01
04
0.
0#
#360000
b10 !
b11 "
10
0-
0$
03
11
#370000
b1 "
b11 !
b0 "
1-
00
02
1$
1+
13
01
11
14
1.
1#
#380000
b1 !
b101 !
b100 !
0-
0/
1,
0$
0+
01
04
0.
0#
#390000
b0 !
0,
1$
#400000
b1 "
10
0$
#410000
b1 !
b101 !
1-
1,
1$
#420000
b11 "
b10 "
b100 !
0-
00
12
0$
1+
11
14
1.
1#
#430000
b110 !
b0 "
b1 "
b111 !
10
02
1-
1/
1$
0+
#440000
b11 !
b11 "
b10 "
b10 !
00
12
0-
0,
0$
01
04
0.
0#
#450000
b0 !
b100 !
b11 "
b101 !
10
1-
0/
1,
1$
03
#460000
b1 "
b1 !
0,
02
0$
13
#470000
b0 !
b11 "
12
0-
1$
03
#480000
b10 !
b10 "
b11 !
00
1-
1/
0$
13
#490000
b1 !
0/
1$
#500000
b11 "
10
0$
03
#510000
b0 !
b10 "
00
0-
1$
13
#520000
b1 !
1-
0$
#530000
b0 "
b11 !
b10 !
0-
1/
02
1$
#540000
b10 "
12
0$
#550000
b0 "
02
1$
#560000
b0 !
0/
0$
#570000
b1 !
1-
1$
1+
11
14
1.
1#
#580000
b101 !
b1 "
b111 !
10
1/
1,
0$
0+
#590000
b110 !
b0 "
b100 !
00
0-
0/
1$
01
04
0.
0#
#600000
b10 "
b0 !
b11 "
0,
10
12
0$
03
#610000
b1 !
b11 !
1-
1/
1$
11
#620000
b1 "
b0 "
00
02
0$
13
01
1+
11
14
1.
1#
#630000
b1 "
10
1$
0+
#640000
b111 !
b110 !
b100 !
b11 "
b10 "
00
12
0-
0/
1,
0$
01
1+
11
04
0.
0#
14
1.
1#
#650000
b0 "
b1 "
10
02
1$
0+
01
04
0.
0#
#660000
b110 !
b11 "
12
1/
0$
03
11
#670000
b10 !
b0 !
0/
0,
1$
01
#680000
b10 "
b100 !
1,
00
0$
1+
13
11
14
1.
1#
#690000
b0 "
b110 !
1/
02
1$
0+
01
04
0.
0#
#700000
b111 !
b10 "
b101 !
12
1-
0/
0$
1+
11
14
1.
1#
#710000
b11 "
b100 !
b1 "
0-
10
02
1$
0+
01
04
0.
0#
#720000
b0 "
00
0$
#730000
b0 !
b1 !
b1 "
10
1-
0,
1$
#740000
b11 "
b10 "
00
12
0$
#750000
b0 !
b11 "
10
0-
1$
03
#760000
b1 "
b1 !
1-
02
0$
13
#770000
b11 "
12
1$
03
#780000
b101 !
b100 !
0-
1,
0$
#790000
b10 "
b0 !
b1 !
1-
0,
00
1$
13
#800000
b11 "
b0 !
0-
10
0$
03
#810000
b100 !
b10 "
00
1,
1$
13
1+
11
14
1.
1#
#820000
b0 "
b0 !
0,
02
0$
0+
01
04
0.
0#
#830000
b10 !
b10 "
12
1/
1$
#840000
b11 "
b110 !
b1 "
1,
10
02
0$
11
14
1.
1#
#850000
b100 !
b0 "
00
0/
1$
01
04
0.
0#
#860000
b0 !
0,
0$
#870000
b1 !
b11 !
b111 !
1-
1/
1,
1$
1+
11
14
1.
1#
#880000
b10 "
b11 "
b110 !
b10 !
0-
0,
10
12
0$
0+
03
#890000
b10 "
b110 !
1,
00
1$
1+
13
01
11
04
0.
0#
14
1.
1#
#900000
b0 "
b111 !
1-
02
0$
#910000
b101 !
b1 "
b11 "
10
12
0/
1$
03
0+
01
#920000
b1 !
b11 !
b10 "
b0 "
00
02
1/
0,
0$
13
1+
11
04
0.
0#
14
1.
1#
#930000
b10 "
12
1$
0+
01
04
0.
0#
#940000
b10 !
b110 !
b100 !
b11 "
b1 "
10
02
0-
0/
1,
0$
#950000
b0 !
b10 !
b0 "
00
1/
0,
1$
#960000
b11 !
b111 !
b101 !
b1 "
10
1-
0/
1,
0$
#970000
b100 !
b110 !
0-
1/
1$
11
14
1.
1#
#980000
b10 !
b0 "
b11 !
00
1-
0,
0$
01
1+
11
04
0.
0#
14
1.
1#
#990000
b1 !
b0 !
0-
0/
1$
0+
01
04
0.
0#
