數邏設計/verilogDesign/hw7_4/simulation/qsim/test.msim.vcd
$comment
	File created using the following command:
		vcd file test.msim.vcd -direction
$end
$date
	Mon Apr 21 15:04:59 2025
$end
$version
	ModelSim Version 10.1d
$end
$timescale
	1ps
$end
$scope module test_vlg_vec_tst $end
$var reg 1 ! CLK $end
$var reg 1 " RESET $end
$var wire 1 # Q [7] $end
$var wire 1 $ Q [6] $end
$var wire 1 % Q [5] $end
$var wire 1 & Q [4] $end
$var wire 1 ' Q [3] $end
$var wire 1 ( Q [2] $end
$var wire 1 ) Q [1] $end
$var wire 1 * Q [0] $end
$var wire 1 + sampler $end
$scope module i1 $end
$var wire 1 , gnd $end
$var wire 1 - vcc $end
$var wire 1 . unknown $end
$var tri1 1 / devclrn $end
$var tri1 1 0 devpor $end
$var tri1 1 1 devoe $end
$var wire 1 2 Q[0]~output_o $end
$var wire 1 3 Q[1]~output_o $end
$var wire 1 4 Q[2]~output_o $end
$var wire 1 5 Q[3]~output_o $end
$var wire 1 6 Q[4]~output_o $end
$var wire 1 7 Q[5]~output_o $end
$var wire 1 8 Q[6]~output_o $end
$var wire 1 9 Q[7]~output_o $end
$var wire 1 : CLK~input_o $end
$var wire 1 ; Q[0]~0_combout $end
$var wire 1 < RESET~input_o $end
$var wire 1 = Q[0]~reg0_q $end
$var wire 1 > Q[3]~1_combout $end
$var wire 1 ? Q[3]~reg0_q $end
$var wire 1 @ Q[6]~reg0_q $end
$var wire 1 A Q[1]~reg0_q $end
$var wire 1 B Q[4]~reg0_q $end
$var wire 1 C Q[7]~reg0_q $end
$var wire 1 D Q[2]~reg0_q $end
$var wire 1 E Q[5]~reg0_q $end
$upscope $end
$upscope $end
$enddefinitions $end
#0
$dumpvars
0!
1"
1*
0)
0(
0'
0&
0%
0$
0#
x+
0,
1-
x.
1/
10
11
12
03
04
05
06
07
08
09
0:
1;
1<
0=
1>
0?
0@
0A
0B
0C
0D
0E
$end
#20000
1!
1:
0+
1=
1?
0>
02
15
0*
1'
#50000
0!
0:
1+
#60000
1!
1:
0+
1@
0?
18
05
1$
0'
#90000
0!
0:
1+
#100000
1!
1:
0+
1A
0@
13
08
1)
0$
#110000
0!
0:
1+
#140000
1!
1:
0+
1B
0A
16
03
1&
0)
#160000
0!
0:
1+
#170000
1!
1:
0+
1C
0B
19
06
1#
0&
#180000
0!
0:
1+
#200000
1!
1:
0+
1D
0C
14
09
1(
0#
#220000
0!
0:
1+
#230000
1!
1:
0+
1E
0D
0;
17
04
1%
0(
#250000
0!
0:
1+
#260000
1!
1:
0+
0=
0E
1>
1;
12
07
1*
0%
#270000
0!
0:
1+
#290000
1!
1:
0+
1=
1?
0>
02
15
0*
1'
#320000
0!
0:
1+
#330000
1!
1:
0+
1@
0?
18
05
1$
0'
#340000
0!
0:
1+
#350000
1!
1:
0+
1A
0@
13
08
1)
0$
#370000
0!
0:
1+
#380000
1!
1:
0+
1B
0A
16
03
1&
0)
#400000
0!
0:
1+
#420000
1!
1:
0+
1C
0B
19
06
1#
0&
#430000
0!
0:
1+
#450000
1!
1:
0+
1D
0C
14
09
1(
0#
#470000
0!
0:
1+
#480000
1!
1:
0+
1E
0D
0;
17
04
1%
0(
#490000
0!
0:
1+
#520000
1!
1:
0+
0=
0E
1>
1;
12
07
1*
0%
#530000
0!
0:
1+
#540000
1!
1:
0+
1=
1?
0>
02
15
0*
1'
#560000
0!
0:
1+
#570000
1!
1:
0+
1@
0?
18
05
1$
0'
#600000
0!
0:
1+
#630000
1!
1:
0+
1A
0@
13
08
1)
0$
#650000
0!
0:
1+
#670000
1!
1:
0+
1B
0A
16
03
1&
0)
#700000
0!
0:
1+
#740000
1!
1:
0+
1C
0B
19
06
1#
0&
#760000
0!
0:
1+
#770000
1!
1:
0+
1D
0C
14
09
1(
0#
#780000
0!
0:
1+
#820000
1!
1:
0+
1E
0D
0;
17
04
1%
0(
#840000
0!
0:
1+
#860000
1!
1:
0+
0=
0E
1>
1;
12
07
1*
0%
#870000
0!
0:
1+
#880000
1!
1:
0+
1=
1?
0>
02
15
0*
1'
#900000
0!
0:
1+
#940000
1!
1:
0+
1@
0?
18
05
1$
0'
#950000
0!
0:
1+
#960000
1!
1:
0+
1A
0@
13
08
1)
0$
#970000
0!
0:
1+
