數邏設計/verilogDesign/hw4_2/simulation/qsim/MUL4_1.msim.vcd
$comment
	File created using the following command:
		vcd file MUL4_1.msim.vcd -direction
$end
$date
	Mon Mar 17 13:38:49 2025
$end
$version
	ModelSim Version 10.1d
$end
$timescale
	1ps
$end
$scope module MUL4_1_vlg_vec_tst $end
$var reg 4 ! I [3:0] $end
$var reg 2 " S [1:0] $end
$var wire 1 # F $end
$var wire 1 $ sampler $end
$scope module i1 $end
$var wire 1 % gnd $end
$var wire 1 & vcc $end
$var wire 1 ' unknown $end
$var tri1 1 ( devclrn $end
$var tri1 1 ) devpor $end
$var tri1 1 * devoe $end
$var wire 1 + I[1]~input_o $end
$var wire 1 , F~output_o $end
$var wire 1 - I[2]~input_o $end
$var wire 1 . S[1]~input_o $end
$var wire 1 / S[0]~input_o $end
$var wire 1 0 I[3]~input_o $end
$var wire 1 1 F~0_combout $end
$var wire 1 2 I[0]~input_o $end
$var wire 1 3 F~1_combout $end
$upscope $end
$upscope $end
$enddefinitions $end
#0
$dumpvars
b1011 !
b1 "
1#
x$
0%
1&
x'
1(
1)
1*
1+
1,
0-
0.
1/
10
11
12
13
$end
#10000
b11 !
b1 !
b0 !
b11 "
b10 "
0/
1.
02
0+
00
0$
03
0,
0#
#20000
b1000 !
b1010 !
b1011 !
b0 "
0.
12
1+
10
1$
01
13
1,
1#
#30000
b1111 !
b1 "
b111 !
1/
1-
00
0$
11
03
0,
0#
13
1,
1#
#40000
b110 !
b10 !
02
0-
1$
#50000
b11 "
b10 "
b11 !
12
0/
1.
0$
03
0,
0#
#60000
b1011 !
b1111 !
b0 "
0.
1-
10
1$
01
13
1,
1#
#70000
b1101 !
b1100 !
b100 !
b0 !
02
0+
0-
00
0$
03
0,
0#
#80000
b10 !
b1010 !
1+
10
1$
#90000
b1 "
b1110 !
1-
1/
0$
11
13
1,
1#
#100000
b11 "
b110 !
b10 "
00
0/
1.
1$
#110000
b111 !
b101 !
b1 !
b0 "
b1 "
1/
0.
12
0+
0-
0$
01
03
0,
0#
#120000
b0 !
b100 !
b0 "
0/
02
1-
1$
#130000
b110 !
1+
0$
#140000
b111 !
b1 "
b101 !
1/
12
0+
1$
#150000
b11 "
b111 !
1+
1.
0$
#160000
b11 !
b10 "
0/
0-
1$
11
13
1,
1#
03
0,
0#
#170000
b1 !
b11 "
1/
0+
0$
01
13
1,
1#
03
0,
0#
#180000
b1001 !
b1000 !
b1 "
b1100 !
b0 "
0/
0.
02
1-
10
1$
#190000
b1110 !
b1111 !
b10 "
b1011 !
b11 "
1/
1.
12
1+
0-
0$
11
13
1,
1#
#200000
b11 !
b10 !
b110 !
b10 "
0/
02
1-
00
1$
#210000
b0 "
b1 "
1/
0.
0$
#220000
b111 !
b11 !
b11 "
1.
12
0-
1$
01
03
0,
0#
#230000
b1 !
b1001 !
b1000 !
02
0+
10
0$
11
13
1,
1#
#240000
b1100 !
b100 !
b101 !
12
1-
00
1$
01
03
0,
0#
#250000
b111 !
b11 !
1+
0-
0$
#260000
b10 "
b1 !
0+
0/
1$
11
13
1,
1#
03
0,
0#
#270000
b0 "
b1001 !
b1000 !
b1010 !
02
1+
10
0.
0$
01
#280000
b1 "
b1011 !
b1001 !
12
0+
1/
1$
#290000
b1 !
00
0$
#300000
b11 !
1+
1$
11
13
1,
1#
#310000
b0 "
b10 !
02
0/
0$
01
03
0,
0#
#320000
b1010 !
b1 "
1/
10
1$
11
13
1,
1#
#330000
b1000 !
b1001 !
12
0+
0$
01
03
0,
0#
#340000
b1101 !
b101 !
1-
00
1$
#350000
b11 "
b111 !
b11 !
b1011 !
1+
0-
10
1.
0$
11
13
1,
1#
#360000
b10 "
b1001 !
0+
0/
1$
03
0,
0#
#370000
b0 "
b1101 !
b1111 !
1+
1-
0.
0$
01
13
1,
1#
#380000
b111 !
00
1$
#390000
b1 "
1/
0$
11
03
0,
0#
13
1,
1#
#400000
b101 !
0+
1$
01
03
0,
0#
#410000
b1 !
b1001 !
0-
10
0$
#420000
b1000 !
b11 "
b1100 !
1.
02
1-
1$
11
13
1,
1#
#430000
b10 "
b1101 !
12
0/
0$
#440000
b1111 !
b0 "
b1 "
b1110 !
1/
0.
02
1+
1$
#450000
b1100 !
b11 "
b10 "
0/
1.
0+
0$
#460000
b100 !
b0 "
b1 "
1/
0.
00
1$
01
03
0,
0#
#470000
b0 !
b1000 !
b11 "
1.
0-
10
0$
11
13
1,
1#
#480000
b1001 !
b1 !
12
00
1$
01
03
0,
0#
#490000
b11 !
b111 !
b110 !
b1110 !
02
1+
1-
10
0$
11
13
1,
1#
#500000
b10 "
b0 "
b1010 !
0-
0/
0.
1$
01
03
0,
0#
#510000
b10 !
b10 "
b110 !
1.
1-
00
0$
11
13
1,
1#
#520000
b100 !
b1100 !
b0 "
b1000 !
0.
0+
0-
10
1$
01
03
0,
0#
#530000
b10 "
b1100 !
1-
1.
0$
11
13
1,
1#
#540000
b11 "
1/
1$
#550000
b1101 !
b1111 !
b1 "
0.
12
1+
0$
#560000
b1011 !
b0 "
b1010 !
b1000 !
0/
02
0+
0-
1$
01
03
0,
0#
#570000
b0 !
b10 "
b100 !
b11 "
b101 !
1/
1.
12
1-
00
0$
#580000
b111 !
b1111 !
b1 "
b1110 !
0.
02
1+
10
1$
11
13
1,
1#
#590000
b1010 !
b0 "
b1000 !
b10 "
0/
1.
0+
0-
0$
03
0,
0#
#600000
b1001 !
12
1$
#610000
b1101 !
b11 "
b1111 !
b1110 !
1/
02
1+
1-
0$
13
1,
1#
#620000
b10 "
b1100 !
0+
0/
1$
#630000
b100 !
b101 !
b11 "
1/
12
00
0$
01
03
0,
0#
#640000
b1 "
b1 !
0-
0.
1$
#650000
b0 !
b11 "
1.
02
0$
#670000
b1 !
12
1$
#680000
b10 "
b101 !
b100 !
02
1-
0/
0$
11
13
1,
1#
#690000
b110 !
b1110 !
b0 "
b1 "
b1010 !
1/
0.
1+
0-
10
1$
#700000
b11 "
b1110 !
1-
1.
0$
#710000
b110 !
b10 !
0-
00
1$
01
03
0,
0#
#720000
b0 !
b1 "
b100 !
0.
0+
1-
0$
#730000
b1100 !
b1110 !
1+
10
1$
11
13
1,
1#
#740000
b1111 !
b111 !
b101 !
12
0+
00
0$
01
03
0,
0#
#750000
b1 !
b1001 !
b1011 !
1+
0-
10
1$
11
13
1,
1#
#760000
b0 "
b1111 !
b111 !
1-
00
0/
0$
01
#770000
b1 "
b11 !
0-
1/
1$
11
03
0,
0#
13
1,
1#
#780000
b11 "
1.
0$
01
03
0,
0#
#790000
b1 !
b1001 !
b10 "
b1101 !
b0 "
0/
0.
0+
1-
10
1$
13
1,
1#
#800000
b1100 !
b1110 !
b110 !
b1 "
b11 "
1/
1.
02
1+
00
0$
03
0,
0#
#810000
b1110 !
b10 "
b0 "
0/
0.
10
1$
#820000
b1111 !
b1101 !
b1 "
b11 "
1/
1.
12
0+
0$
11
13
1,
1#
#830000
b1001 !
b1 !
b11 !
b10 "
b0 "
0/
0.
1+
0-
00
1$
01
03
0,
0#
13
1,
1#
#840000
b111 !
b1 "
1/
1-
0$
11
03
0,
0#
13
1,
1#
#850000
b11 !
0-
1$
#860000
b11 "
b10 "
0/
1.
0$
03
0,
0#
#870000
b10 !
b1010 !
b1000 !
b1100 !
b11 "
1/
02
0+
1-
10
1$
13
1,
1#
#880000
b1 "
b1110 !
b1010 !
b0 "
1+
0-
0/
0.
0$
01
03
0,
0#
#890000
b1000 !
b1100 !
b1 "
1/
0+
1-
1$
#900000
b1000 !
0-
0$
#910000
b11 "
b1010 !
1+
1.
1$
11
13
1,
1#
#920000
b10 !
b10 "
b0 !
0/
0+
00
0$
03
0,
0#
#930000
b100 !
b0 "
b1 "
b110 !
1/
0.
1+
1-
1$
13
1,
1#
#940000
b0 "
0/
0$
01
03
0,
0#
#950000
b111 !
b11 !
b10 "
b1 !
1.
12
0+
0-
1$
11
13
1,
1#
03
0,
0#
#960000
b101 !
b0 "
b111 !
0.
1+
1-
0$
01
13
1,
1#
#970000
b110 !
b100 !
02
0+
1$
03
0,
0#
#980000
b1100 !
b1 "
b11 "
b1110 !
1/
1.
1+
10
0$
11
13
1,
1#
