數邏設計/verilogDesign/hw3_4/simulation/qsim/LOGICAL.msim.vcd
$comment
	File created using the following command:
		vcd file LOGICAL.msim.vcd -direction
$end
$date
	Mon Mar 10 14:35:16 2025
$end
$version
	ModelSim Version 10.1d
$end
$timescale
	1ps
$end
$scope module LOGICAL_vlg_vec_tst $end
$var reg 4 ! A [3:0] $end
$var reg 4 " B [3:0] $end
$var reg 4 # C [3:0] $end
$var wire 1 $ AND_OP $end
$var wire 1 % NOT_OP $end
$var wire 1 & OR_OP $end
$var wire 1 ' sampler $end
$scope module i1 $end
$var wire 1 ( gnd $end
$var wire 1 ) vcc $end
$var wire 1 * unknown $end
$var tri1 1 + devclrn $end
$var tri1 1 , devpor $end
$var tri1 1 - devoe $end
$var wire 1 . LessThan0~0_combout $end
$var wire 1 / B[0]~input_o $end
$var wire 1 0 B[1]~input_o $end
$var wire 1 1 C[0]~input_o $end
$var wire 1 2 NOT_OP~output_o $end
$var wire 1 3 AND_OP~output_o $end
$var wire 1 4 OR_OP~output_o $end
$var wire 1 5 A[3]~input_o $end
$var wire 1 6 A[1]~input_o $end
$var wire 1 7 A[0]~input_o $end
$var wire 1 8 A[2]~input_o $end
$var wire 1 9 WideNor0~0_combout $end
$var wire 1 : B[3]~input_o $end
$var wire 1 ; B[2]~input_o $end
$var wire 1 < LessThan0~1_combout $end
$var wire 1 = LessThan0~2_combout $end
$var wire 1 > C[3]~input_o $end
$var wire 1 ? C[2]~input_o $end
$var wire 1 @ LessThan1~2_combout $end
$var wire 1 A C[1]~input_o $end
$var wire 1 B LessThan1~1_combout $end
$var wire 1 C LessThan1~0_combout $end
$var wire 1 D AND_OP~0_combout $end
$var wire 1 E OR_OP~0_combout $end
$upscope $end
$upscope $end
$enddefinitions $end
#0
$dumpvars
b1100 !
b1110 "
b10 #
0$
0%
0&
x'
0(
1)
x*
1+
1,
1-
0.
0/
10
01
02
03
04
15
06
07
18
19
1:
1;
0<
0=
0>
0?
0@
1A
1B
0C
0D
0E
$end
#10000
b100 !
b0 !
b1100 "
b1101 "
b1010 #
b1110 #
1?
1>
1/
00
08
05
0'
1C
09
12
1%
1E
14
1&
#20000
b1 !
b1111 "
b110 #
0>
10
17
1'
19
02
0%
#30000
b1011 "
b100 #
b1001 !
b1101 !
b0 #
18
15
0A
0?
0;
0'
0C
1<
0B
1=
0E
04
0&
1E
14
1&
#40000
b1 #
b1001 #
11
1>
1'
#50000
b11 "
b1 "
b1001 !
b1 #
0>
08
00
0:
0'
0<
#60000
b1000 !
b101 "
1;
07
1'
1B
#70000
b1010 !
b10 !
b101 #
b100 #
b1101 "
b1001 "
0;
1:
01
1?
16
05
0'
0=
0B
1C
1.
1<
#80000
b1010 !
b101 #
b1101 "
1;
11
15
1'
0<
0C
1=
0=
0E
04
0&
#90000
b1111 "
b1110 !
b1101 #
b1111 !
b1101 !
b1001 #
b101 !
b1011 "
0?
1>
17
06
18
05
10
0;
0'
1C
0.
1<
1E
14
1&
#100000
b1010 "
b1011 #
b10 "
b100 !
b110 !
b1111 #
b1110 !
07
16
15
1A
1?
0/
0:
1'
1B
0C
1@
1=
1D
13
1$
#110000
b1110 #
b1010 !
b110 #
b110 "
1;
08
01
0>
0'
0<
0@
0B
0D
03
0$
#120000
b100 "
b100 #
b1100 "
b1011 !
b1001 !
b101 #
b1101 #
b1000 "
17
06
11
0A
1>
00
0;
1:
1'
1.
1C
0=
1<
1=
1D
13
1$
#130000
b1001 "
b1001 #
b1 !
b101 !
b1011 #
b1 "
b111 !
b1010 #
16
18
05
01
1A
0?
1/
0:
0'
#140000
b110 !
b10 #
b1001 "
b100 !
b11 #
1:
11
0>
07
06
1'
0=
1B
0C
0.
0E
0D
04
03
0&
0$
#150000
b1011 "
b1111 "
b1110 "
b111 #
b1100 !
b101 #
b1101 !
b1101 #
b1111 !
17
16
15
0A
1?
1>
0/
10
1;
0'
0B
1.
1@
1=
0<
1<
0=
1E
1=
14
1&
0E
04
0&
1E
14
1&
#160000
b1100 #
b1111 "
b111 !
b110 !
07
05
1/
01
1'
0.
1C
0@
0=
0<
#170000
b111 "
b11 "
b1000 #
b1010 #
b10 #
b100 !
b10 "
06
1A
0?
0>
0/
0;
0:
0'
1B
0C
1<
1=
0E
04
0&
1E
14
1&
#180000
b0 "
b1000 "
b0 #
b1000 #
b1001 "
0A
1>
1/
00
1:
1'
0B
1C
0=
#190000
b0 !
b1101 "
b1100 #
b101 "
b100 #
1?
0>
1;
0:
08
0'
0<
1=
09
0=
12
1%
1D
13
1$
0D
03
0$
#200000
b1000 !
b1001 !
b110 #
b10 #
1A
0?
17
15
1'
1B
0C
19
1=
02
0%
#210000
b11 #
b1011 !
b100 "
b0 "
b1011 #
b11 !
b1001 #
b1101 #
0/
0;
16
05
11
0A
1?
1>
0'
1.
0B
1C
0=
1<
1=
1D
13
1$
#220000
b10 "
b111 !
b1100 #
b11 "
b111 "
b100 #
b0 #
01
0?
0>
18
1/
10
1;
1'
0C
0.
0<
0D
0=
03
0$
0E
04
0&
#230000
b101 !
b1101 !
b10 #
b101 "
b1001 !
b1 "
b1010 #
b1110 #
00
0;
1A
1?
1>
06
08
15
0'
1B
1C
1=
1E
1D
14
13
1&
1$
#240000
b1001 "
b1000 !
b1010 !
b10 !
b1011 "
b110 !
b110 #
b10 #
0?
0>
07
16
18
05
10
1:
1'
0C
0B
1<
0=
0E
0D
04
03
0&
0$
#250000
b11 #
b1 #
b1111 "
b111 "
b111 !
b101 !
b101 "
b1 !
b1001 #
b1101 #
17
06
08
00
1;
0:
11
0A
1?
1>
0'
1C
0<
1=
0=
1E
1D
14
13
1&
1$
0D
03
0$
#260000
b1001 !
b1 "
b1000 !
b11 "
b1100 !
b101 #
0>
10
0;
07
18
15
1'
0C
1<
1B
1=
#270000
b100 #
b1110 !
b1111 !
b1100 #
17
16
01
1>
0'
0B
1@
#280000
b10 "
b1110 #
b1010 #
b111 !
b110 "
b1011 #
b110 !
07
05
11
1A
0?
0/
1;
1'
1B
1C
0@
0<
0=
1D
13
1$
0D
03
0$
#290000
b1110 "
b10 !
b0 !
b11 #
b10 #
b1 !
01
0>
17
06
08
1:
0'
0C
1@
#300000
b1100 "
b1101 "
b0 #
b100 #
b1001 !
b1001 "
b1 "
b1011 !
b101 #
16
15
11
0A
1?
1/
00
0;
0:
1'
0B
1.
0@
1=
1<
#310000
b1010 !
b11 "
b111 "
b1111 "
b1000 !
b100 #
01
10
1;
1:
07
06
0'
0.
0<
0=
0E
04
0&
#320000
b1100 #
b0 !
b111 "
b10 !
b1101 #
0:
16
05
11
1>
1'
1C
1E
14
1&
#330000
b110 "
b10 "
b101 #
0>
0/
0;
0'
#340000
b110 !
b111 !
b1010 "
b100 #
b1011 "
b1100 #
01
1>
1/
1:
17
18
1'
1<
#350000
b1001 "
b101 !
b1101 "
b1 !
b1101 #
11
06
08
00
1;
0'
0<
#360000
b1111 #
b1001 !
b1000 !
b1100 "
b1110 "
b1010 !
b1010 "
b1110 !
b1110 #
0/
10
0;
07
16
18
15
01
1A
1'
1<
0C
1@
1=
0E
04
0&
1E
14
1&
#370000
b10 "
b110 #
b100 #
b110 !
b11 "
05
0A
0>
1/
0:
0'
#380000
b1 "
b10 !
b1001 "
b1000 "
08
0/
00
1:
1'
1C
0@
0<
1.
0=
1<
#390000
b0 #
b11 !
b1 !
b1100 "
b10 #
b1001 !
b1110 "
b110 "
10
1;
0:
17
06
15
1A
0?
0'
0.
0<
1=
1B
0C
#400000
b11 #
b1011 #
b1111 #
b1000 !
b1010 !
b10 "
b10 !
b0 "
00
0;
07
16
05
11
1?
1>
1'
1.
1C
0=
1<
1=
1D
13
1$
#410000
b110 !
b1 "
b1110 #
b110 #
b111 !
b101 !
b1101 !
b11 "
01
0>
1/
10
17
06
18
15
0'
0C
0.
0D
03
0$
#420000
b1011 "
b1001 !
b111 #
b1001 "
11
08
00
1:
1'
0<
0=
0E
04
0&
#430000
b101 #
b1000 !
b1 "
0:
07
0A
0'
1=
1E
14
1&
#440000
b1 #
b101 "
b100 "
b1001 #
b1010 !
b110 "
b1011 !
17
16
0/
10
1;
0?
1>
1'
0B
1.
1@
#450000
b1111 !
b1101 #
b111 "
b1101 !
b101 "
b1100 !
1/
00
1?
07
06
18
0'
0.
1B
1<
0<
1D
13
1$
#460000
b1100 #
b1000 !
b1000 #
b111 "
10
08
01
0?
1'
0B
0D
03
0$
#470000
b0 !
b1111 "
b1011 "
b1010 "
b1 !
b1000 "
0/
00
0;
1:
17
05
0'
1.
0=
1C
0@
1<
#480000
b1010 #
b11 !
b1011 #
b111 !
b1111 #
16
18
11
1A
1?
1'
#490000
b0 "
b100 "
b110 "
b1011 #
0?
10
1;
0:
0'
1=
1D
13
1$
#500000
b11 #
b1111 !
b111 "
b1 #
b0 #
b1111 "
b1011 "
b100 #
1/
0;
1:
15
01
0A
1?
0>
1'
0.
0C
0D
03
0$
#510000
b1011 !
b1100 #
b1010 "
b1110 #
b10 "
b110 "
0/
1;
0:
1A
1>
08
0'
1.
0<
1C
1D
13
1$
#520000
b11 !
b111 "
b1100 #
b1111 "
0A
1/
1:
05
1'
0.
0=
0D
03
0$
#530000
b10 !
b1101 "
b100 #
b1010 !
b1100 "
b110 #
1A
0>
0/
00
07
15
0'
0C
1.
0E
04
0&
#540000
b1000 !
b111 #
b11 #
b1100 !
b1000 "
b1101 !
b1001 "
1/
0;
11
0?
17
06
18
1'
0.
1<
1B
1=
1E
14
1&
#550000
b1011 "
b1 #
b0 #
b100 #
b1111 "
b1100 !
07
01
0A
1?
10
1;
0'
0B
0<
0=
0E
04
0&
#560000
b100 !
b110 !
b10 !
b1110 "
b1100 "
b11 !
0/
00
17
16
08
05
1'
1.
1C
1E
14
1&
#570000
b100 "
b1100 #
b1110 #
b0 "
b1 !
b101 !
b10 "
b100 !
07
06
18
1A
1>
10
0;
0:
0'
1B
0.
1<
1=
1D
13
1$
#580000
b1111 #
b1011 #
b11 "
b1001 #
b110 !
b111 !
17
16
1/
11
0A
0?
1'
0B
#590000
b1111 !
b111 "
b1000 #
b1100 #
b110 "
01
1?
0/
1;
15
0'
0C
1@
1.
0<
1<
0D
03
0$
#600000
b1110 "
b100 #
b1100 "
b110 #
b111 !
05
1A
0>
00
1:
1'
0=
0E
04
0&
#610000
b101 !
b100 !
b100 "
b1110 #
1>
0:
07
06
0'
1C
0@
1=
1B
0.
0<
1E
1D
0=
14
13
1&
1$
0D
03
0$
#620000
b0 !
b1010 #
b110 "
b1000 !
b1010 !
b1011 !
b1110 "
b10 #
10
1:
0?
0>
17
16
08
15
1'
1.
0C
0B
0E
04
0&
#630000
b1010 "
b1011 "
b1001 "
b1010 !
b1010 #
1>
07
1/
00
0;
0'
1@
1<
1=
1E
14
1&
#640000
b1011 #
b1111 #
b1000 !
b1 "
b1001 !
0:
17
06
11
1?
1'
1B
0.
1C
0@
0<
1D
13
1$
#650000
b1101 #
b1101 !
b101 !
b11 "
b1011 "
b100 !
10
1:
07
18
05
0A
0'
0=
1<
0D
03
0$
#660000
b1111 "
b1110 "
b101 #
b111 #
b1100 !
b1100 "
b100 "
b1101 !
17
15
1A
0>
0/
00
1;
0:
1'
1.
0C
1=
0<
1<
#670000
b110 #
b0 "
b101 !
b10 "
b100 !
07
05
10
0;
01
0'
0.
1@
1D
13
1$
#680000
b11 "
b111 #
b1100 !
15
11
1/
1'
0@
0D
03
0$
#690000
b11 #
b1110 !
b1011 #
b1011 "
b1001 "
b1000 "
b1010 #
0/
00
1:
16
01
0?
1>
0'
1.
0B
#700000
b1000 #
b1111 !
b1101 !
b1001 "
b1001 #
1/
17
06
11
0A
1'
0.
#710000
b1101 "
b1101 #
b101 #
b101 "
b111 "
b111 #
b1100 !
b1110 !
07
16
1A
1?
0>
10
1;
0:
0'
1B
0<
#720000
b110 !
b11 "
b11 #
b1 #
b111 !
b101 !
0A
0?
0;
17
06
05
1'
0B
1<
0=
1=
0E
04
0&
1E
14
1&
#730000
b1 !
b1001 #
b1011 "
b1111 "
b1011 #
b11 !
1;
1:
1A
1>
16
08
0'
0<
0=
1C
#740000
b1110 "
b1100 "
b1011 !
b1111 #
b1010 !
b1110 !
b111 #
b1000 "
1?
0>
07
18
15
0/
00
0;
1'
0C
1B
1.
1<
1=
0E
04
0&
1E
14
1&
#750000
b110 #
b1100 !
b1001 "
b100 !
b101 !
b1110 #
1/
17
06
05
01
1>
0'
0.
1C
0=
#760000
b1 "
b1 !
b101 "
b1111 #
b11 !
b10 !
b111 #
11
0>
07
16
08
1;
0:
1'
1.
0<
1=
0=
1D
13
1$
0D
03
0$
#770000
b101 #
b100 "
b1010 !
b1100 "
b1110 !
b1101 #
18
15
0/
1:
0A
1>
0'
0C
1@
1<
0B
1=
0E
04
0&
1E
14
1&
#780000
b1110 "
b1010 "
b1111 !
b1011 "
b111 !
b11 !
17
08
05
1/
10
0;
1'
0.
1C
0@
0=
0<
#790000
b1100 #
b1 !
b100 #
06
01
0>
0'
#800000
b0 #
b10 #
b1001 "
b1101 "
b11 #
00
1;
11
1A
0?
1'
1B
0C
1@
#810000
b101 "
b0 !
b10 !
b1011 #
b1111 #
b1101 #
b111 "
b1100 #
01
0A
1?
1>
07
16
10
0:
0'
0B
1C
0@
#820000
b110 "
b1010 !
b1110 !
b10 "
b1111 !
b1000 #
b1001 #
11
0?
17
18
15
0/
0;
1'
0C
1.
1<
1=
#830000
b1010 "
b1101 !
b1011 #
b1000 "
b1001 "
b101 !
b1 !
b1111 #
1A
1?
06
08
05
1/
00
1:
0'
1B
1C
0.
0=
0<
#840000
b1110 #
b1 "
b1100 #
b11 "
b10 "
0/
10
0:
01
0A
1'
0B
#850000
b110 "
b11 !
b1011 !
b1110 #
b111 "
1A
16
15
1/
1;
0'
1=
1D
13
1$
#860000
b110 #
b1010 !
b10 #
b1111 "
b1101 "
b0 #
00
1:
07
0A
0?
0>
1'
1.
0=
0C
0E
0D
04
03
0&
0$
#870000
b1110 !
b1 #
b110 !
b1001 #
b1101 #
b1111 "
10
11
1?
1>
18
05
0'
0.
1C
1<
0<
1E
14
1&
#880000
b1011 "
b1010 "
b111 !
b10 "
b1111 #
b1111 !
1A
17
15
0/
0;
0:
1'
1.
0C
1@
1=
1<
#890000
b1110 #
b1010 #
b110 "
b111 "
b1111 "
b111 !
05
1/
1;
1:
01
0?
0'
1C
0@
0=
0.
0<
#900000
b101 !
b10 #
b100 !
b0 #
0A
0>
07
06
1'
0C
0E
04
0&
#910000
b1101 "
b1100 !
b1110 !
b1111 !
17
16
15
00
0'
1.
1<
1=
1E
14
1&
#920000
b1 #
b1001 "
b1 "
b11 #
b11 "
b1101 !
b1100 !
07
06
10
0;
0:
11
1A
1'
1B
0.
#930000
b111 #
b10 "
b1010 "
b1110 !
16
0/
1:
1?
0'
#940000
b1111 #
b1110 "
b1101 #
b1111 !
b1001 #
b1101 !
17
06
1;
0A
0?
1>
1'
0B
0<
0=
0E
04
0&
#950000
b1001 !
b1 !
b1 #
b101 #
1?
0>
08
05
0'
1C
1E
14
1&
#960000
b1100 "
b11 !
b111 !
b1111 !
b1101 #
1>
16
18
15
00
1'
0C
1@
1.
1<
0E
1=
04
0&
1E
14
1&
#970000
b1100 #
b100 "
b1110 #
b1110 !
b110 !
b110 #
07
05
0:
01
1A
0>
0'
#980000
b101 "
b1 "
b11 "
b100 !
b111 #
b1011 "
b101 !
b1111 #
11
1>
17
06
1/
10
0;
1:
1'
1B
1C
0@
0.
0=
#990000
b1011 #
b1 !
b1001 #
b1001 !
b1010 "
b1011 !
b10 "
b1010 !
b1 #
0/
0:
07
16
08
15
0A
0?
0>
0'
1=
0B
0C
0<
